0.706,-nan
0.846,-nan
1.006,0.1
1.106,0.1
1.206,-0.1
1.306,0.0395755
1.406,-0.1
1.506,-0.1
1.606,-0.1
1.706,-0.1
1.806,-0.1
1.906,-0.1
2.006,-0.1
2.106,-0.1
2.206,0.1
2.306,-0.1
2.406,-0.1
2.506,-0.1
2.606,-0.1
2.706,-0.1
2.806,0.0490901
2.906,0.1
3.007,-0.1
3.107,0.1
3.207,0.1
3.307,-0.1
3.407,-0.1
3.507,-0.1
3.607,-0.1
3.707,-0.1
3.807,-0.1
3.907,-0.1
4.007,-0.1
4.107,-0.1
4.247,-0.1
4.347,-0.1
4.447,-0.1
4.547,-0.1
4.647,-0.1
4.747,-0.1
4.847,-0.1
4.947,-0.1
5.047,-0.1
5.147,-0.1
5.247,-0.0608905
5.347,-0.1
5.447,-0.1
5.547,-0.1
5.647,-0.1
5.747,-0.1
5.847,-0.1
5.947,-0.1
6.047,-0.1
6.147,-0.1
6.247,-0.1
6.407,-0.1
6.507,-0.1
6.607,-0.1
6.707,-0.1
6.807,-0.1
6.907,-0.1
7.007,-0.1
7.107,-0.1
7.207,-0.1
7.307,0.1
7.407,-0.1
7.507,0.1
7.607,0.1
7.707,0.1
7.807,0.1
7.907,0.1
8.007,0.1
8.107,-0.1
8.207,0.1
8.307,-0.1
8.407,-0.1
8.507,0.1
8.607,-0.1
8.707,0.1
8.807,0.1
8.907,0.1
9.007,0.1
9.107,0.1
9.207,0.1
9.307,0.1
9.407,0.1
9.507,0.1
9.607,0.1
9.707,0.1
9.807,0.1
9.907,0.1
10.007,0.1
10.107,0.1
10.207,0.1
10.307,-0.1
10.407,0.1
10.507,-0.1
10.607,-0.1
10.707,-0.1
10.807,-0.1
10.907,-0.1
11.007,-0.1
11.107,-0.1
11.207,-0.1
11.307,0.1
11.407,-0.1
11.507,0.1
11.607,-0.1
11.707,-0.1
11.807,-0.1
11.907,-0.1
12.007,-0.1
12.107,-0.1
12.207,-0.1
12.307,-0.1
12.407,0.1
12.507,0.1
12.607,-0.1
12.707,0.1
12.807,-0.1
12.907,0.1
13.007,0.1
13.107,0.1
13.207,0.1
13.307,0.1
13.407,0.1
13.507,0.1
13.607,0.1
13.707,-0.1
13.807,0.1
13.907,0.1
14.007,0.1
14.107,0.1
14.207,0.1
14.307,-0.1
14.407,-0.1
14.507,-0.1
14.607,-0.1
14.707,-0.1
14.807,-0.1
14.907,-0.0919136
15.007,-0.1
15.107,0.1
15.207,-0.1
15.307,0.1
15.407,-0.1
15.507,0.0522002
15.607,0.1
15.707,0.1
15.807,-0.1
15.907,0.1
16.007,0.1
16.107,0.1
16.207,0.1
16.307,0.1
16.407,-0.1
16.507,0.1
16.607,-0.1
16.707,-0.1
16.807,-0.1
16.907,0.1
17.007,-0.1
17.107,-0.1
17.207,0.1
17.307,-0.1
17.407,-0.0906002
17.507,0.1
17.607,-0.1
17.707,0.1
17.807,0.1
17.907,0.1
18.007,0.1
18.107,0.1
18.207,-0.1
18.307,-0.1
18.907,-0.1
19.007,0.1
19.107,-0.1
19.207,-0.1
19.307,0.1
19.407,-0.1
19.507,0.1
19.607,0.1
19.707,0.1
19.807,0.1
19.907,0.1
20.007,0.1
20.107,0.1
20.207,0.1
20.307,0.1
20.407,0.1
20.507,0.1
20.607,0.1
20.707,0.1
20.807,0.1
20.907,0.1
21.007,0.1
21.107,0.1
21.207,0.1
21.307,0.1
21.407,0.1
21.507,0.1
21.607,-0.1
21.707,0.1
21.807,-0.1
21.907,0.1
22.007,-0.1
22.107,-0.1
22.207,-0.1
22.307,-0.1
22.407,-0.1
22.507,-0.1
22.607,-0.1
22.707,-0.1
22.807,-0.1
22.907,-0.1
23.007,0.1
23.107,-0.1
23.207,0.1
23.308,-0.1
23.41,0.1
23.51,0.1
23.61,-0.1
23.71,0.1
23.81,-0.1
23.91,0.1
24.01,0.1
24.11,0.1
24.21,0.1
24.31,-0.1
24.41,0.1
24.51,0.1
24.61,0.1
24.71,-0.1
24.81,0.1
24.91,-0.1
25.01,-0.1
25.11,-0.1
25.21,-0.1
25.31,-0.1
25.41,0.0103652
25.51,-0.1
25.61,0.1
25.71,0.1
25.81,-0.1
25.91,0.1
26.01,0.1
26.11,0.1
26.21,0.1
26.31,0.1
26.41,0.1
26.51,0.1
26.61,0.1
26.71,0.1
26.81,0.1
26.91,0.1
27.01,0.1
27.11,0.1
27.21,-0.1
27.31,0.1
27.41,0.1
27.51,-0.1
27.61,0.1
27.71,-0.1
27.81,-0.1
27.91,-0.1
28.01,-0.0533276
28.11,-0.1
28.21,0.1
28.31,-0.1
28.41,0.1
28.51,-0.1
28.61,-0.1
28.71,-0.1
28.81,-0.1
28.91,-0.1
29.01,-0.1
29.11,-0.1
29.21,-0.1
29.31,-0.0351632
29.41,0.1
29.51,-0.1
29.61,0.1
29.71,-0.1
29.81,0.1
29.91,0.1
30.01,0.1
30.11,0.1
30.21,0.1
30.31,0.1
30.41,0.1
30.51,0.1
30.61,0.1
30.71,0.1
30.81,-0.1
30.91,0.1
31.01,0.1
31.11,-0.1
31.21,-0.1
31.31,0.1
31.41,0.1
31.51,0.1
31.61,-0.1
31.71,-0.1
31.81,-0.1
31.91,-0.1
32.01,-0.1
32.11,-0.1
32.21,-0.1
32.31,-0.1
32.41,-0.1
32.51,-0.1
32.61,-0.1
32.71,-0.1
32.81,-0.1
32.91,-0.1
33.01,0.1
33.11,-0.1
33.21,-0.1
33.31,0.1
33.41,0.1
33.51,0.1
33.61,-0.1
33.71,0.1
33.81,0.1
33.91,0.1
34.01,-0.1
34.11,0.1
34.21,0.1
34.31,0.1
34.41,0.1
34.51,0.1
34.61,0.1
34.71,0.1
34.81,0.1
34.91,0.1
35.01,-0.1
35.11,0.1
35.21,0.1
35.31,0.1
35.41,0.1
35.51,0.1
36.01,0.1
36.11,0.1
36.21,-0.1
36.31,-0.1
36.41,0.1
36.51,-0.1
36.61,-0.0418433
36.71,-0.1
36.81,-0.1
36.91,-0.1
37.01,-0.1
37.11,-0.1
37.21,-0.1
37.31,-0.1
37.41,-0.1
37.51,-0.1
37.61,0.1
37.71,-0.1
37.81,-0.1
37.91,0.1
38.01,0.1
38.11,0.1
38.21,0.1
38.31,-0.1
38.41,0.1
38.51,0.1
38.61,0.1
38.71,0.1
38.81,0.1
38.91,0.1
39.01,0.1
39.11,-0.1
39.21,0.1
39.31,-0.1
39.41,0.1
39.51,-0.1
39.61,-0.1
39.71,-0.1
39.81,-0.1
39.91,-0.1
40.01,-0.1
40.11,0.1
40.21,-0.1
40.31,0.1
40.41,-0.1
40.51,-0.1
40.61,0.1
40.71,-0.1
40.81,0.1
40.91,-0.1
41.01,-0.0904592
41.11,0.1
41.21,0.1
41.31,0.1
41.41,0.1
41.51,0.1
41.61,0.1
41.71,0.1
41.81,0.1
41.91,0.1
42.01,0.1
42.11,0.1
42.21,0.1
42.31,-0.1
42.41,0.1
42.51,-0.1
42.61,-0.1
42.71,-0.1
42.81,-0.1
42.91,-0.1
43.01,-0.1
43.11,-0.1
43.21,0.1
43.31,-0.1
43.41,0.1
43.51,-0.1
43.61,0.1
43.71,0.1
43.81,-0.1
44.41,0.1
44.51,0.1
44.61,0.1
44.71,0.1
44.81,0.1
44.91,0.1
45.01,0.1
45.11,0.1
45.21,0.1
45.31,-0.1
45.41,0.1
45.51,0.1
45.61,-0.1
45.71,0.1
45.81,0.1
45.91,0.1
46.01,0.1
46.11,0.1
46.21,0.1
46.31,-0.1
46.41,0.1
46.51,0.1
46.61,-0.1
46.71,0.1
46.81,-0.1
46.91,-0.1
47.01,0.1
47.11,-0.1
47.21,-0.1
47.31,-0.1
47.41,-0.1
47.51,-0.1
47.61,-0.1
47.71,0.1
47.81,-0.1
47.91,0.1
48.01,-0.1
48.11,0.1
48.21,0.1
48.31,-0.1
48.41,0.1
48.51,0.1
48.61,0.1
48.71,-0.1
48.81,0.1
48.91,0.1
49.01,0.1
49.11,0.1
49.21,-0.1
49.31,0.1
49.41,0.1
49.51,0.1
49.61,0.1
49.71,0.1
49.81,0.1
49.91,0.1
50.01,0.1
50.11,0.1
50.21,-0.1
50.31,0.1
50.41,-0.1
50.51,-0.1
50.61,-0.1
50.71,-0.1
50.81,-0.1
50.91,-0.1
51.01,-0.1
51.11,-0.1
51.21,0.1
51.31,-0.1
51.41,-0.1
51.51,-0.0448392
51.61,-0.1
51.71,-0.1
51.81,-0.1
51.91,-0.1
52.01,-0.1
52.11,-0.1
52.21,-0.1
52.31,-0.1
52.41,0.1
52.51,-0.1
52.61,0.1
52.71,0.1
52.81,0.1
52.91,0.1
53.01,0.1
53.11,0.1
53.21,-0.1
53.31,0.1
53.41,0.1
53.51,0.1
53.61,0.1
53.71,0.1
53.81,0.1
53.91,0.1
54.01,0.1
54.11,0.1
54.21,0.1
54.31,0.1
54.41,0.1
54.51,0.1
54.61,-0.1
54.71,-0.1
54.81,-0.1
54.91,-0.1
55.01,-0.1
55.11,-0.1
55.21,-0.1
55.31,-0.1
55.41,-0.1
55.51,0.1
55.61,-0.1
55.71,-0.0349188
55.81,0.1
55.91,-0.1
56.01,0.1
56.11,0.1
56.21,-0.1
56.31,0.1
56.41,0.1
56.51,-0.1
56.61,0.1
56.71,0.1
56.81,-0.1
56.91,0.1
57.01,0.1
57.11,0.1
57.21,0.1
57.31,0.1
57.41,0.1
57.51,-0.1
57.61,0.1
57.71,0.1
57.81,-0.1
57.91,-0.1
58.01,0.1
58.11,0.1
58.21,-0.1
58.31,0.1
58.41,0.1
58.51,-0.1
58.61,0.1
58.71,0.1
58.81,-0.1
58.91,-0.1
59.01,-0.1
59.11,-0.1
59.21,-0.1
59.31,-0.1
59.41,-0.1
59.51,-0.1
59.61,-0.1
59.71,-0.1
59.81,-0.1
59.91,-0.1
60.01,0.1
60.11,-0.1
60.21,0.1
60.31,0.1
60.41,0.1
60.51,0.0871776
60.61,0.1
60.71,0.1
60.81,0.1
60.91,0.1
61.01,0.1
61.11,0.1
61.21,0.1
61.31,0.1
61.41,0.1
61.51,-0.1
61.61,0.1
61.71,0.0890459
61.81,-0.1
61.91,-0.1
62.01,-0.1
62.11,-0.1
62.21,-0.1
62.31,-0.1
62.41,-0.1
62.51,0.1
62.61,-0.1
62.71,-0.1
62.81,0.1
62.91,-0.0727261
63.01,-0.1
63.11,-0.1
63.21,0.1
63.31,-0.1
63.41,-0.1
63.51,-0.1
63.61,0.1
63.71,-0.1
63.81,0.1
63.91,0.1
64.01,0.1
64.11,0.1
64.21,0.1
64.31,0.1
64.41,0.1
64.51,0.1
64.61,0.1
64.71,0.1
64.81,0.1
64.91,0.1
65.01,0.1
65.11,0.1
65.21,0.1
65.31,0.1
65.41,-0.1
65.51,0.1
65.61,0.1
65.71,0.1
65.81,0.1
65.91,0.1
66.01,-0.1
66.11,0.1
66.21,-0.1
66.31,-0.1
66.41,-0.1
66.51,-0.1
66.61,-0.1
66.71,-0.1
66.81,0.1
66.91,-0.1
67.01,-0.1
67.11,-0.1
67.21,-0.1
67.31,-0.1
67.41,-0.1
67.51,-0.1
67.61,-0.1
67.71,-0.1
67.81,0.1
67.91,-0.1
68.01,-0.1
68.11,0.1
68.21,-0.1
68.31,0.1
68.41,0.1
68.51,0.1
68.61,-0.1
68.71,0.1
68.81,0.1
68.91,0.1
69.01,0.1
69.11,0.1
69.21,0.1
69.31,0.1
69.41,0.1
69.51,0.1
70.21,0.1
70.31,-0.1
70.41,0.1
70.51,-0.1
70.61,-0.1
70.71,-0.1
70.81,-0.1
70.91,-0.1
71.01,-0.1
71.11,-0.1
71.21,-0.1
71.31,-0.1
71.41,-0.1
71.51,-0.1
71.61,-0.1
71.71,-0.1
71.81,-0.1
71.91,-0.1
72.01,-0.1
72.11,-0.1
72.21,-0.1
72.31,-0.1
72.41,-0.1
72.51,-0.1
72.61,-0.1
72.71,0.1
72.81,-0.1
72.91,0.1
73.01,0.1
73.11,0.1
73.21,0.00337274
73.31,0.1
73.41,0.1
73.51,0.1
73.61,0.1
73.71,0.1
73.81,0.1
73.91,0.1
74.01,0.1
74.11,-0.1
74.21,0.1
74.31,0.1
74.41,0.1
74.51,0.1
74.61,0.1
74.71,0.1
74.81,0.1
74.91,0.1
75.01,-0.1
75.11,0.1
75.21,0.1
75.31,0.1
75.41,0.1
75.51,0.1
75.61,0.1
75.71,0.1
75.81,-0.1
75.91,0.1
76.01,0.1
76.11,0.1
76.21,0.1
76.31,0.1
76.41,0.1
76.51,0.1
76.61,-0.1
76.71,0.1
76.81,-0.1
76.91,0.1
77.01,-0.1
77.11,-0.1
77.21,-0.1
77.31,-0.1
77.41,-0.1
77.51,-0.1
77.61,-0.1
77.71,-0.0013651
77.81,-0.1
77.91,-0.1
78.01,-0.1
78.11,-0.1
78.21,-0.1
78.31,-0.1
78.41,0.1
78.51,-0.1
78.61,-0.1
78.71,-0.1
78.81,-0.1
78.91,0.1
79.01,-0.1
79.11,0.1
79.21,0.1
79.31,-0.1
79.41,0.1
79.51,0.1
79.61,0.1
79.71,0.1
79.81,0.1
79.91,-0.1
80.01,0.1
80.11,0.1
80.21,0.1
80.31,0.1
80.41,0.1
80.51,0.1
80.61,0.1
80.71,0.1
80.81,0.1
80.91,-0.1
81.01,0.1
81.11,0.1
81.21,-0.1
81.31,0.1
81.41,-0.1
81.51,-0.1
81.61,-0.1
81.71,0.1
81.81,-0.1
81.91,-0.1
82.01,0.1
82.11,0.1
82.21,-0.1
82.31,-0.1
82.41,0.1
82.51,-0.1
82.61,-0.1
82.71,-0.1
82.81,-0.1
82.91,-0.1
83.01,-0.1
83.11,-0.1
83.21,-0.1
83.31,-0.1
83.41,-0.1
83.51,-0.1
83.61,-0.1
83.71,-0.1
83.81,0.1
83.91,0.1
84.01,0.1
84.11,0.1
84.21,-0.1
84.31,0.1
84.41,0.1
84.51,0.1
84.61,0.1
84.71,0.1
84.81,0.1
84.91,0.1
85.01,0.1
85.11,0.1
85.21,0.1
85.31,0.1
85.41,0.1
85.51,-0.1
85.61,0.1
85.71,0.1
85.81,0.1
85.91,-0.00394317
86.01,0.1
86.11,0.1
86.21,-0.1
86.31,0.1
86.41,0.1
87.01,-0.1
87.11,-0.1
87.21,-0.1
87.31,-0.1
87.41,-0.1
87.51,-0.1
87.61,-0.1
87.71,-0.1
87.81,-0.1
87.91,-0.1
88.01,-0.1
88.11,-0.1
88.21,-0.1
88.31,-0.1
88.41,0.1
88.51,-0.1
88.61,-0.1
88.71,-0.1
88.81,0.1
88.91,0.1
89.01,-0.1
89.11,0.1
89.21,-0.1
89.31,0.1
89.41,0.1
89.51,-0.1
89.61,0.1
89.71,-0.1
89.81,-0.1
89.91,-0.1
90.01,-0.1
90.11,-0.1
90.21,-0.1
90.31,0.1
90.41,-0.1
90.51,0.1
90.61,0.1
90.71,0.1
90.81,0.1
90.91,0.1
91.01,0.1
91.11,0.1
91.21,0.1
91.31,0.1
91.41,0.1
91.51,0.1
91.61,0.1
91.71,0.1
91.81,-0.1
91.91,0.1
92.01,0.1
92.11,-0.1
92.21,0.1
92.31,0.1
92.41,0.1
92.51,-0.1
92.61,0.1
92.71,-0.1
92.81,-0.1
92.91,-0.1
93.01,-0.1
93.11,-0.1
93.21,-0.1
93.31,-0.1
93.41,-0.1
93.51,0.1
93.61,-0.1
93.71,0.1
93.81,0.1
93.91,-0.1
94.01,0.1
94.11,0.1
94.21,0.1
94.31,0.1
94.41,0.1
94.51,0.1
94.61,0.1
94.71,0.1
94.81,0.1
94.91,0.1
95.01,0.1
95.11,0.1
95.21,-0.1
95.31,0.1
95.41,-0.1
95.51,-0.1
95.61,-0.1
95.71,-0.1
95.81,-0.1
95.91,0.0279735
96.01,-0.1
96.11,-0.1
96.21,-0.1
96.31,-0.1
96.41,-0.1
96.51,-0.1
96.61,-0.1
96.71,-0.1
96.81,0.1
96.91,-0.1
97.01,-0.1
97.11,-0.1
97.21,-0.1
97.31,-0.1
97.41,-0.1
97.51,0.1
97.61,-0.1
97.71,0.1
97.81,0.1
97.91,0.1
98.01,0.1
98.11,0.1
98.21,0.1
98.31,0.1
98.41,-0.1
98.51,0.1
98.61,0.1
98.71,0.1
98.81,-0.1
98.91,0.1
99.01,0.1
99.11,0.1
99.21,0.1
99.31,0.1
99.41,-0.1
99.51,0.1
99.61,-0.1
99.71,0.1
99.81,-0.1
99.91,-0.1
100.01,0.1
100.11,-0.1
100.21,-0.1
100.31,0.1
100.41,-0.1
100.51,0.1
100.61,-0.1
100.71,0.1
100.81,0.1
100.91,-0.0995632
101.01,0.1
101.11,-0.1
101.21,-0.1
101.31,0.1
101.41,-0.1
101.51,0.0588718
101.61,0.1
101.71,-0.1
101.81,0.1
101.91,0.1
102.01,0.1
102.11,0.1
102.21,0.1
102.31,0.1
102.41,-0.1
102.51,0.1
102.61,-0.1
102.71,0.1
102.81,-0.1
102.91,-0.1
103.01,-0.1
103.11,-0.1
103.21,-0.1
103.31,-0.1
103.41,-0.1
103.51,-0.1
103.61,0.1
103.71,0.1
103.81,-0.1
103.91,0.1
104.01,0.1
104.11,0.1
104.21,0.1
104.31,0.1
104.41,0.1
104.51,0.1
104.61,0.1
104.71,-0.1
104.81,-0.1
104.91,0.1
105.01,0.1
105.11,-0.1
105.21,0.1
105.31,0.1
105.41,0.1
105.51,0.1
105.61,0.1
105.71,0.1
105.81,0.1
105.91,0.1
106.01,0.1
106.11,0.1
106.21,-0.1
106.31,-0.1
106.41,0.1
106.51,-0.1
106.61,-0.1
106.71,0.0777912
106.81,-0.1
106.91,-0.1
107.01,0.1
107.11,-0.1
107.21,-0.1
107.31,-0.1
107.41,0.1
107.51,-0.1
107.61,-0.1
107.71,-0.1
107.81,-0.1
107.91,-0.1
108.01,-0.1
108.11,-0.1
108.21,-0.1
108.31,-0.1
108.41,-0.1
108.51,-0.1
108.61,-0.1
108.71,-0.1
108.81,-0.1
108.91,-0.1
109.01,0.1
109.11,-0.1
109.21,-0.1
109.31,-0.1
109.41,0.1
109.51,-0.1
109.61,-0.1
109.71,0.1
109.81,-0.1
109.91,-0.1
110.01,0.1
110.11,-0.1
110.21,0.1
110.31,-0.1
110.41,-0.1
110.51,-0.1
110.61,-0.1
110.71,-0.1
110.81,-0.1
110.91,-0.1
111.01,-0.1
111.11,-0.1
111.21,-0.1
111.31,-0.1
111.41,-0.1
111.51,-0.1
111.61,-0.1
111.71,-0.1
111.81,-0.1
111.91,0.1
112.01,-0.1
112.11,0.1
112.21,-0.1
112.51,0.1
112.61,-0.1
112.71,0.1
112.81,-0.1
112.91,-0.1
113.01,-0.1
113.11,-0.1
113.21,-0.1
113.31,-0.1
113.41,0.1
113.51,-0.1
113.61,-0.1
113.71,-0.1
113.81,-0.1
113.91,-0.1
114.01,-0.1
114.11,-0.1
114.21,-0.1
114.31,-0.1
114.41,-0.1
114.51,-0.1
114.61,-0.1
114.71,-0.1
114.81,-0.1
114.91,-0.1
115.01,-0.1
115.11,-0.1
115.21,-0.1
115.31,-0.1
115.41,0.1
115.51,-0.1
115.61,-0.1
115.71,-0.1
115.81,-0.1
115.91,-0.1
116.01,-0.1
116.11,-0.1
116.21,-0.1
116.31,-0.1
116.41,-0.1
116.51,-0.1
116.61,-0.1
116.71,-0.1
116.81,-0.1
116.91,0.1
117.01,-0.1
117.11,-0.1
117.21,-0.1
117.31,-0.1
117.41,-0.1
117.51,-0.1
117.61,-0.1
117.71,-0.1
117.81,-0.1
117.91,-0.1
118.01,-0.1
118.11,-0.1
118.21,-0.1
118.31,-0.1
118.41,-0.1
118.51,-0.1
118.61,-0.1
118.71,-0.1
118.81,-0.1
118.91,-0.1
119.01,-0.1
119.11,0.1
119.21,-0.1
119.31,-0.1
119.41,-0.1
119.51,-0.1
119.61,-0.1
119.71,-0.1
119.81,-0.1
119.91,-0.1
120.01,-0.1
120.11,-0.1
120.21,-0.1
120.31,-0.1
120.41,-0.1
120.51,-0.1
121.11,-0.1
121.21,-0.1
121.31,-0.1
121.41,0.1
121.51,0.1
121.61,-0.1
121.71,-0.1
121.81,-0.1
121.91,-0.1
122.01,-0.1
122.11,-0.1
122.21,-0.1
122.31,-0.1
122.41,0.1
122.51,-0.1
122.61,-0.1
122.71,-0.1
122.81,-0.1
122.91,-0.1
123.01,-0.1
123.11,-0.1
123.21,-0.1
123.31,-0.1
123.41,-0.1
123.51,-0.1
123.61,-0.1
123.71,-0.1
123.81,-0.1
123.91,-0.1
124.01,-0.1
124.11,-0.1
124.21,-0.1
124.31,0.1
124.41,-0.1
124.51,-0.1
124.61,-0.1
124.71,-0.1
124.81,-0.1
124.91,-0.1
125.01,-0.1
125.11,-0.1
125.21,-0.1
125.31,-0.1
125.41,-0.1
125.51,-0.1
125.61,-0.1
125.71,-0.1
125.81,-0.1
125.91,-0.1
126.01,-0.1
126.11,-0.1
126.21,-0.1
126.31,-0.1
126.41,-0.1
126.51,-0.1
126.61,-0.1
126.71,-0.1
126.81,-0.1
126.91,-0.1
127.01,-0.1
127.11,-0.1
127.21,-0.1
127.31,-0.1
127.41,-0.1
127.51,-0.1
127.61,-0.1
127.71,-0.1
127.81,-0.1
127.91,-0.1
128.01,-0.1
128.11,-0.1
128.21,-0.1
128.31,-0.1
128.41,-0.1
128.51,-0.1
128.61,-0.1
128.71,-0.1
128.81,-0.1
128.91,-0.1
129.01,-0.1
129.11,-0.1
129.21,-0.1
129.31,-0.1
129.41,-0.1
129.51,-0.1
129.61,-0.1
129.71,-0.1
129.81,-0.1
129.91,-0.1
130.01,-0.1
130.11,-0.1
130.21,-0.1
130.31,-0.1
130.41,-0.1
130.51,-0.1
130.61,-0.1
130.71,-0.1
130.81,-0.1
130.91,-0.1
131.01,-0.1
131.11,-0.1
131.21,-0.1
131.31,-0.1
131.41,-0.1
131.51,-0.1
131.61,-0.1
131.71,-0.1
131.81,-0.1
131.91,-0.1
132.01,-0.1
132.11,-0.1
132.21,-0.1
132.31,-0.1
132.41,-0.1
132.51,-0.1
132.61,-0.1
132.71,-0.1
132.81,-0.1
132.91,-0.1
133.01,-0.1
133.11,-0.1
133.21,-0.1
133.31,-0.1
133.41,-0.1
133.51,-0.1
133.61,-0.1
133.71,-0.1
133.81,-0.1
133.91,-0.1
134.01,-0.1
134.11,-0.1
134.21,-0.1
134.31,-0.1
134.41,-0.1
134.51,-0.1
134.61,-0.1
134.71,-0.1
134.81,-0.1
134.91,-0.1
135.01,-0.1
135.11,-0.1
135.21,-0.1
135.31,-0.1
135.41,-0.1
135.51,-0.1
135.61,-0.1
135.71,-0.1
135.81,0.1
135.91,-0.1
136.01,-0.1
136.11,-0.1
136.21,-0.1
136.31,-0.1
