0.663,0,0
0.763,0,0
0.863,-1.65622,0
0.963,1.26225,0
1.063,-0.363192,0
1.163,0.180343,0
1.263,-0.714962,0
1.363,0.463584,0
1.463,-0.0720709,0
1.563,0.420978,0
1.663,-0.392034,0
1.763,-0.0688353,0
1.863,-0.148585,0
1.963,-0.611585,0
2.063,0.427825,0
2.163,-0.0745243,0
2.263,0.123121,0
2.363,1.37482,0
2.463,-0.810251,0
2.563,-0.38385,0
2.663,-0.0571379,0
2.763,-0.695122,0
2.863,0.464779,0
2.963,-0.0624119,0
3.063,0.402799,0
3.163,-0.359613,0
3.263,-0.0594084,0
3.363,-1.26494,0
3.463,0.926621,0
3.563,-0.0693747,0
3.663,0.336929,0
3.763,0.0110151,0
3.863,0.413393,0
3.963,1.63286,0
4.063,-0.494555,0
4.163,-0.0202867,0
4.263,1.3289,0
4.363,2.69058,0
4.463,0.238906,0
4.563,2.3331,0
4.663,2.09274,0
4.763,0.488656,0
4.863,-2.44711,0
4.963,1.4189,0
5.063,-1.30591,0
5.163,0.0578456,0
5.263,0.334334,0
5.363,0.273953,0
5.463,-0.135151,0
5.563,0.309727,0
5.663,-0.212363,0
5.763,1.05014,0
5.863,0.317607,0
5.963,0.317607,0
6.063,0.539984,0
6.163,0.138718,0
6.263,-0.748211,0
6.363,1.17959,0
6.463,0.115394,0
6.563,0.46697,0
6.663,0.888862,0
6.763,-0.156833,0
6.863,-0.0283796,0
6.963,0.587981,0
7.063,-1.31416,0
7.163,0.0417753,0
7.263,-2.18201,0
7.363,1.94877,0
7.463,0.978665,0
7.563,0.479706,0
7.663,0.534884,0
7.763,0.218077,0
7.863,0.0660589,0
7.963,0.662873,0
8.063,-0.367921,0
8.163,0.466963,0
8.263,-0.0549443,0
8.363,0.545624,0
8.463,-0.00689423,0
8.563,-1.32079,0
8.663,1.32005,0
8.763,-0.143223,0
8.863,-9.25947,0
8.963,4.14155,0
9.063,-6.74498,0
9.163,5.64048,0
9.263,2.0439,0
9.363,-0.220791,0
9.463,-0.00937212,0
9.563,-0.605878,0
9.663,-0.754889,0
9.763,0.263035,0
9.863,-0.637331,0
9.963,-0.133123,0
10.063,-3.65049,0
10.163,0.936585,0
10.263,1.75596,0
10.363,-0.311319,0
10.463,-0.0933209,0
10.563,-0.0731351,0
10.663,-0.121895,0
10.763,-0.619993,0
10.863,0.038881,0
10.963,0.111636,0
11.063,-0.735073,0
11.163,0.0543038,0
11.263,0.628125,0
11.363,-0.253613,0
11.463,-0.171664,0
11.563,-0.606289,0
11.663,-0.176283,0
11.763,-2.73121,0
11.863,1.91743,0
11.963,-0.197834,0
12.063,0.303156,0
12.163,0.830755,0
12.263,-1.37525,0
12.363,-0.1814,0
12.463,-4.59895,0
12.563,0.598771,0
12.663,-2.37592,0
12.763,2.23347,0
12.863,-0.0611249,0
12.963,0.321718,0
13.063,0.451647,0
13.163,-0.474297,0
13.263,-0.379062,0
13.963,-0.295552,0
14.063,-0.332871,0
14.163,-0.988646,0
14.263,-1002.83,0
14.363,266.284,0
14.463,-3.40543,0
14.563,130.39,0
14.663,-117.579,0
14.763,-0.448112,0
14.863,1.24164,0
14.963,0.820941,0
15.063,-0.155623,0
15.163,-1.59603,0
15.263,-0.113598,0
15.363,-0.113598,0
15.463,-0.113598,0
15.563,0.110985,0
15.663,-0.296925,0
15.763,0.556901,0
15.863,-0.657701,0
15.963,-1.15314,0
16.063,0.747851,0
16.163,0.0247808,0
16.263,-0.22881,0
16.363,0.140603,0
16.463,0.313481,0
16.563,0.314024,0
16.663,-0.793499,0
16.763,-0.941789,0
16.863,0.332568,0
16.963,0.102132,0
17.063,-0.108452,0
17.163,0.370065,0
17.263,0.255671,0
17.363,-0.125615,0
17.463,-0.209368,0
17.563,1.3315,0
17.663,-1.37974,0
17.763,-1.65704,0
17.863,1.20864,0
17.963,8.35117,0
18.063,-6.81485,0
18.163,0.0786315,0
18.263,2.16594,0
18.363,-1.73576,0
18.463,0.286533,0
18.563,0.00923614,0
18.663,3.40051,0
18.763,-0.680973,0
18.863,0.73529,0
18.963,-1.41345,0
19.063,-0.044767,0
19.163,0.159969,0
19.263,-1.24987,0
19.363,0.324219,0
19.463,0.893094,0
19.563,0.171,0
19.663,0.117133,0
19.763,2.1748,0
19.863,-0.704527,0
19.963,-0.511994,0
20.063,0.165508,0
20.163,-0.143191,0
20.263,1.10548,0
20.363,-0.196903,0
20.463,0.675799,0
20.563,-1.05213,0
20.663,0.726379,0
20.763,0.0226351,0
20.863,0.132492,0
20.963,-0.827556,0
21.063,1.81358,0
21.163,-1.15481,0
21.263,0.16694,0
21.363,0.548457,0
21.463,-0.598146,0
21.563,0.755961,0
21.663,-0.0632339,0
21.763,0.633144,0
21.863,-0.539924,0
21.963,-0.594188,0
22.063,0.792931,0
22.163,-1.39215,0
22.263,-11.1251,0
22.363,9.79571,0
22.463,-0.285651,0
22.563,0.0889205,0
22.663,0.329649,0
22.763,-0.286038,0
22.863,0.693692,0
22.963,8.69045,0
23.063,-7.5358,0
23.163,1.73025,0
23.263,-2.9902,0
23.363,1.44439,0
23.463,-0.486211,0
23.563,-1.52468,0
23.663,1.64212,0
23.763,0.0705818,0
23.863,0.0705818,0
23.963,0.528157,0
24.063,0.852067,0
24.163,1.02471,0
24.263,-1.46674,0
24.363,0.0996417,0
24.463,-8.69249,0
24.563,6.51186,0
24.663,0.407273,0
24.763,-0.0783132,0
24.863,0.610117,0
24.963,5.98933,0
25.063,-4.27483,0
25.163,-0.620616,0
25.263,0.747916,0
25.363,-0.509572,0
25.463,-0.346563,0
25.563,0.457874,0
25.663,0.0295986,0
25.763,0.0433037,0
25.863,0.27385,0
25.963,-1.68025,0
26.063,1.38322,0
26.163,-0.849838,0
26.263,-4.68035,0
26.363,2.75963,0
26.463,0.973924,0
26.563,-2.91447,0
26.663,1.44447,0
26.763,-0.12038,0
26.863,0.508856,0
26.963,-0.12871,0
27.063,0.643019,0
27.163,-0.202381,0
27.263,0.912759,0
27.363,-1.44838,0
27.463,1.90983,0
27.563,-1.54278,0
27.663,0.163266,0
27.763,-1.75476,0
27.863,2.6467,0
27.963,-1.289,0
28.063,-0.0399902,0
28.163,9.74181,0
28.263,-7.97005,0
28.363,0.0919816,0
28.463,-1.16583,0
28.563,0.344421,0
28.663,-7.22172,0
28.763,6.25269,0
28.863,-0.0878732,0
28.963,1.15327,0
29.063,-1.01969,0
29.163,-0.0784396,0
29.263,-1.15526,0
29.363,0.531054,0
29.463,0.134158,0
29.563,-0.0895932,0
29.663,-0.469147,0
29.763,0.600088,0
29.863,0.132331,0
29.963,-0.443891,0
30.063,7.3974,0
30.163,-4.05371,0
30.263,1.94575,0
30.363,-2.60305,0
30.763,0.34895,0
30.863,-0.133762,0
30.963,0.523313,0
31.063,-0.312356,0
31.163,1.41123,0
31.263,0.925798,0
31.363,-0.955592,0
31.463,-0.118859,0
31.563,0.180268,0
31.663,-1.53395,0
31.763,1.49728,0
31.863,0.166731,0
31.963,0.166731,0
32.063,0.166731,0
32.163,0.341602,0
32.263,-0.218382,0
32.363,0.315087,0
32.463,-0.305711,0
32.563,0.0880065,0
32.663,0.169808,0
32.763,-0.0737625,0
32.863,-0.167431,0
32.963,-0.919335,0
33.063,1.15834,0
33.163,-0.14753,0
33.263,-0.530289,0
33.363,-1.30688,0
33.463,0.307328,0
33.563,0.651886,0
33.663,-6.97587,0
33.763,5.71223,0
33.863,-0.311207,0
33.963,-1.18269,0
34.063,0.154167,0
34.163,0.539101,0
34.263,-0.347129,0
34.363,-0.0745002,0
34.463,-2.93308,0
34.563,-1.0314,0
34.663,-1.58518,0
34.763,3.27448,0
34.863,-0.204644,0
34.963,2.71749,0
35.063,0.421595,0
35.163,-0.383528,0
35.263,-1.79631,0
35.363,-0.0569987,0
35.463,-0.208395,0
35.563,-2.20919,0
35.663,1.54919,0
35.763,0.78579,0
35.863,-0.927222,0
35.963,0.146429,0
36.063,0.485308,0
36.163,2.3361,0
36.263,12.2041,0
36.363,-12.0457,0
36.463,0.110241,0
36.563,-13.9444,0
36.663,10.2306,0
36.763,0.832268,0
36.863,0.367731,0
36.963,-0.235381,0
37.063,-0.338093,0
37.163,1.80664,0
37.263,-0.676568,0
37.363,9.30459,0
37.463,-7.82611,0
37.563,2.39808,0
37.663,-0.64349,0
37.763,-0.974304,0
37.863,-0.159201,0
37.963,0.658092,0
38.063,0.15674,0
38.163,-0.043575,0
38.263,0.13943,0
38.363,0.671103,0
38.463,-0.33321,0
38.563,-0.473943,0
38.663,0.0530602,0
38.763,-0.0571621,0
38.863,0.501594,0
38.963,0.195958,0
39.563,0.122998,0
39.663,-0.989489,0
39.763,-12.9998,0
39.863,10.7477,0
39.963,0.0526303,0
40.063,-0.92194,0
40.163,-0.7981,0
40.263,1.03578,0
40.363,-0.0412729,0
40.463,-0.0216134,0
40.563,0.151615,0
40.663,0.545546,0
40.763,-0.855962,0
40.863,-0.123216,0
40.963,-0.295777,0
41.063,-0.24655,0
41.163,0.0915188,0
41.263,0.137516,0
41.363,0.403372,0
41.463,1.1491,0
41.563,9.45272,0
41.663,-8.10723,0
41.763,-0.579458,0
41.863,0.0952829,0
41.963,0.0952829,0
42.063,0.0202959,0
42.163,0.156615,0
42.263,1.60657,0
42.363,1.55327,0
42.463,-2.06612,0
42.563,0.10705,0
42.663,0.102241,0
42.763,-3.38613,0
42.863,1.51614,0
42.963,0.197501,0
43.063,-8.03918,0
43.163,6.18089,0
43.263,-1.22198,0
43.363,1.0197,0
43.463,0.244614,0
43.563,0.320987,0
43.663,-0.30296,0
43.763,1.14407,0
43.863,-0.33821,0
43.963,-0.706115,0
44.063,0.82205,0
44.163,-0.765044,0
44.263,-1.12249,0
44.363,0.754288,0
44.463,1.55985,0
44.563,-2.06615,0
44.663,10.9346,0
44.763,-7.79757,0
44.863,-0.716765,0
44.963,1.10488,0
45.063,0.251255,0
45.163,-0.937155,0
45.263,0.691135,0
45.363,-0.094864,0
45.463,-0.138093,0
45.563,-4.57094,0
45.663,-1.24152,0
45.763,4.03082,0
45.863,0.0524412,0
45.963,-1.05856,0
46.063,0.725537,0
46.163,-0.485597,0
46.263,0.242062,0
46.363,-0.282764,0
46.463,0.0701219,0
46.563,-0.357944,0
46.663,0.396302,0
46.763,0.989224,0
46.863,7.43974,0
46.963,-4.80876,0
47.063,-1.55918,0
47.163,0.0926993,0
47.263,0.108091,0
47.363,-1.34094,0
47.463,0.211424,0
47.563,0.830159,0
47.663,-9.17211,0
47.763,7.14138,0
47.863,0.179864,0
47.963,-0.0907957,0
48.063,-1.66962,0
48.163,1.17203,0
48.263,-0.513112,0
48.363,0.680949,0
48.463,-2.07248,0
48.563,0.970749,0
48.663,-0.576727,0
48.763,1.07364,0
48.863,-0.661608,0
48.963,0.13382,0
49.063,-0.0578453,0
49.163,1.10124,0
49.263,-0.0504073,0
49.363,0.211608,0
49.463,-1.59107,0
49.563,0.416879,0
49.663,-0.552716,0
49.763,-2.17413,0
49.863,0.692737,0
49.963,0.881851,0
50.063,-0.125819,0
50.163,0.474853,0
50.263,-0.616529,0
50.363,-0.120826,0
50.463,-2.89053,0
50.563,2.13644,0
50.663,-0.143806,0
50.763,0.738789,0
50.863,-0.57036,0
50.963,-0.366044,0
51.063,2.03021,0
51.163,0.859596,0
51.263,-2.22718,0
51.363,-0.0952752,0
51.463,-1.30487,0
51.563,0.0946018,0
51.663,0.54631,0
51.763,-0.111903,0
51.863,0.267368,0
51.963,-0.421621,0
52.063,-0.0993634,0
52.163,-0.116429,0
52.263,-0.116113,0
52.363,-0.0951795,0
52.463,-0.11481,0
52.563,-0.116114,0
52.663,-1.01022,0
52.763,-0.211281,0
52.863,0.571318,0
52.963,0.821056,0
53.063,-0.635571,0
53.163,0.0907799,0
53.263,-0.40024,0
53.363,-0.11191,0
53.463,-0.11191,0
53.563,-0.440765,0
53.663,-0.33789,0
53.763,0.288368,0
53.863,0.84352,0
53.963,-1.12506,0
54.063,0.440948,0
54.163,-0.0945365,0
54.263,-0.435621,0
54.363,0.082234,0
54.463,0.183414,0
54.563,-0.419225,0
54.663,-0.104764,0
54.763,-0.0669854,0
54.863,0.97467,0
54.963,-0.931861,0
55.063,-0.0975075,0
55.163,-1.42939,0
55.263,-0.168221,0
55.363,0.834132,0
55.463,-0.0152091,0
55.563,-0.406882,0
55.663,0.0497293,0
55.763,-0.1374,0
55.863,-0.103896,0
55.963,-0.119091,0
56.063,0.737792,0
56.863,-0.17065,0
56.963,0.289744,0
57.063,0.403865,0
57.163,-0.041177,0
57.263,-0.583667,0
57.363,-0.688652,0
57.463,0.309979,0
57.563,-0.0327303,0
57.663,-0.0994945,0
57.763,0.134979,0
57.863,-0.290718,0
57.963,0.0664175,0
58.063,0.0221386,0
58.163,-0.64198,0
58.263,0.521209,0
58.363,-0.154796,0
58.463,-0.272349,0
58.563,-0.0922988,0
58.663,-0.0922988,0
58.763,-0.200699,0
58.863,-0.00389321,0
58.963,-0.0931945,0
59.063,-0.0931945,0
59.163,-0.0931945,0
59.263,0.0293655,0
59.363,-0.58283,0
59.463,0.178848,0
59.563,-0.484645,0
59.663,0.0490777,0
59.763,0.0663226,0
59.863,-0.328131,0
59.963,0.0840102,0
60.063,0.0708686,0
60.163,-0.244412,0
60.263,-0.290225,0
60.363,0.149273,0
60.463,-0.755063,0
60.563,0.364301,0
60.663,-0.106927,0
60.763,-0.106927,0
60.863,-0.292861,0
60.963,0.0443824,0
61.063,-0.15119,0
61.163,-0.279839,0
61.263,-1.26495,0
61.363,0.964892,0
61.463,-0.386518,0
61.563,0.011094,0
61.663,-0.0563949,0
61.763,-0.0415381,0
61.863,0.101596,0
61.963,-0.361779,0
62.063,-0.12121,0
62.163,-0.116311,0
62.263,-0.125189,0
62.363,-0.329102,0
62.463,0.00383032,0
62.563,-0.026266,0
62.663,-0.172811,0
62.763,-0.122745,0
62.863,0.484538,0
62.963,-0.616073,0
63.063,0.591684,0
63.163,-1.40501,0
63.263,0.49335,0
63.363,-0.439942,0
63.463,0.125318,0
63.563,-0.277756,0
63.663,0.00809637,0
63.763,-1.03122,0
63.863,1.62627,0
63.963,-0.524755,0
64.063,-0.398136,0
64.163,-0.220773,0
64.263,-0.035408,0
64.363,-0.234346,0
64.463,-0.148742,0
65.063,-0.129438,0
65.163,0.193987,0
65.263,-0.598786,0
65.363,-0.0547073,0
65.463,-0.00769487,0
65.563,-0.125888,0
65.663,-0.760182,0
65.763,1.02069,0
65.863,-0.447158,0
65.963,-0.893074,0
66.063,0.367361,0
66.163,0.465455,0
66.263,-0.77583,0
66.363,-0.421782,0
66.463,0.167381,0
66.563,0.401514,0
66.663,-0.523213,0
66.763,0.171062,0
66.863,-0.366106,0
66.963,-0.123272,0
67.063,-0.441478,0
67.163,0.134289,0
67.263,-0.125892,0
67.363,0.390643,0
67.463,-0.334552,0
67.563,-0.240827,0
67.663,-0.160931,0
67.763,-0.119491,0
67.863,0.154616,0
67.963,-0.461683,0
68.063,-0.194622,0
68.163,0.023214,0
68.263,-0.11966,0
68.363,-0.396025,0
68.463,-0.0340038,0
68.563,-0.010272,0
68.663,0.0149141,0
68.763,-0.176002,0
68.863,-0.14581,0
68.963,-0.140587,0
69.063,-0.0286051,0
69.163,-0.288925,0
69.263,-0.177868,0
69.363,-0.229399,0
69.463,0.0516674,0
69.563,-0.725989,0
69.663,0.362017,0
69.763,-0.129062,0
69.863,0.687078,0
69.963,-1.60736,0
70.063,0.93882,0
70.163,-0.453125,0
70.263,-0.125763,0
70.363,-0.125763,0
70.463,-0.125763,0
70.563,0.444737,0
70.663,-1.43525,0
70.763,1.38643,0
70.863,-1.31542,0
70.963,0.820625,0
71.063,-0.546548,0
71.163,-0.121257,0
71.263,-0.564961,0
71.363,0.742684,0
71.463,-1.04025,0
71.563,-0.0324879,0
71.663,0.454264,0
71.763,0.102242,0
71.863,-0.519605,0
71.963,-0.120885,0
72.063,-0.0614632,0
72.163,-0.228336,0
72.263,-0.0879532,0
72.363,-0.108311,0
72.463,-0.0460073,0
72.563,-0.256615,0
72.663,0.201393,0
72.763,-0.331142,0
72.863,-0.113479,0
72.963,-0.123808,0
73.063,-0.11881,0
73.163,-0.129421,0
73.263,-0.19039,0
73.363,-0.175679,0
73.463,-0.875017,0
73.563,0.567282,0
73.663,0.508504,0
73.763,-0.640867,0
73.863,-0.122325,0
73.963,0.373529,0
74.063,-0.37123,0
74.163,-0.392122,0
74.263,-0.572315,0
74.363,0.347545,0
74.463,-0.122989,0
74.563,-0.66357,0
74.663,0.852147,0
74.763,0.208637,0
74.863,-0.745778,0
74.963,-0.116656,0
75.063,-0.116656,0
75.163,-0.391331,0
75.263,0.104931,0
75.363,-0.0584297,0
75.463,-0.167702,0
75.563,-0.118412,0
75.663,-0.0295608,0
75.763,-0.190099,0
75.863,-0.392846,0
75.963,0.104166,0
76.063,0.0547093,0
76.163,-0.860665,0
76.263,0.920989,0
76.363,-0.529869,0
76.463,-0.15301,0
76.563,-0.001392,0
76.663,-0.103783,0
76.763,-0.205606,0
76.863,-0.0920705,0
76.963,-0.16106,0
77.063,-0.169654,0
77.163,-0.121986,0
77.263,-0.065477,0
77.363,-0.248652,0
77.463,-0.655055,0
77.563,0.299645,0
77.663,-0.0446635,0
77.763,-0.0262007,0
77.863,-0.30311,0
77.963,0.994479,0
78.063,-0.880272,0
78.163,-0.117232,0
78.263,-0.117232,0
78.363,0.189174,0
78.463,-0.283727,0
78.563,-0.179685,0
78.663,-0.194655,0
78.763,-0.673584,0
78.863,-0.253454,0
78.963,-0.0962415,0
79.063,0.27028,0
79.163,0.0840017,0
79.263,-0.300334,0
79.363,0.886823,0
79.463,-0.861634,0
79.563,-0.119884,0
79.663,-0.119884,0
79.763,-0.125806,0
79.863,-0.345375,0
79.963,0.295332,0
80.063,-0.306963,0
80.163,0.302082,0
80.263,-0.459797,0
80.363,-0.116478,0
80.463,-0.184592,0
80.563,-0.0746057,0
80.663,-0.597375,0
80.763,0.714595,0
80.863,-0.911036,0
80.963,0.234431,0
81.063,-0.109515,0
81.163,-0.130508,0
81.263,-0.551086,0
81.363,0.224254,0
81.463,-0.124569,0
81.563,-0.124569,0
81.663,-0.124569,0
81.763,0.476454,0
81.863,-0.122088,0
81.963,-0.997004,0
82.063,0.275226,0
82.163,-0.0938166,0
82.263,-0.028604,0
82.363,-0.321204,0
82.463,0.0831947,0
82.563,-0.249126,0
82.663,0.101924,0
82.763,-0.270398,0
82.863,-0.117313,0
82.963,-0.305925,0
83.063,0.583123,0
83.163,-0.691388,0
83.263,-0.805742,0
83.363,1.14319,0
83.463,-0.619985,0
83.563,-0.116866,0
83.663,-0.116866,0
83.763,-0.116866,0
83.863,-0.930246,0
83.963,0.535433,0
84.063,-0.123497,0
84.163,-0.123497,0
84.263,-0.503064,0
84.363,0.180605,0
84.463,1.25928,0
84.563,-2.49144,0
84.663,0.950811,0
84.763,-0.12694,0
84.863,1.03207,0
84.963,-0.975828,0
85.063,-0.118304,0
85.163,-0.1413,0
85.263,-0.0768463,0
85.363,-0.159952,0
85.463,-0.312594,0
85.563,0.0521721,0
85.663,-0.0223487,0
85.763,-0.198764,0
85.863,-0.119428,0
85.963,0.100081,0
86.063,-0.240204,0
86.163,-0.030801,0
86.263,-0.222631,0
86.363,-0.0207108,0
86.463,-0.288169,0
86.563,-0.139915,0
86.663,-0.170032,0
86.763,-0.00851342,0
86.863,-0.217388,0
86.963,-0.0383634,0
87.063,-0.11885,0
87.163,-0.11885,0
87.263,-0.0199807,0
87.363,0.0924325,0
87.463,-0.351274,0
87.563,-0.24611,0
87.663,-0.0671529,0
87.763,-0.0717176,0
87.863,-0.117194,0
87.963,-0.0726074,0
88.063,-0.152954,0
88.163,0.27926,0
88.263,-0.434844,0
88.363,-0.113599,0
88.463,-0.197739,0
88.563,-0.113277,0
88.663,-0.0603696,0
88.763,-0.146196,0
88.863,-0.0736276,0
88.963,-0.127961,0
89.063,-0.142052,0
89.163,-0.697428,0
89.263,0.306118,0
89.363,-0.403171,0
89.463,-0.326653,0
89.563,0.254057,0
89.663,0.218058,0
89.763,-0.403167,0
89.863,-0.124344,0
89.963,-0.00107408,0
90.563,-0.133975,0
90.663,-0.135652,0
90.763,0.191147,0
90.863,-0.262782,0
90.963,-0.208646,0
91.063,-0.119095,0
91.163,-0.119095,0
91.263,-0.731053,0
91.363,0.291929,0
91.463,-0.107164,0
91.563,-0.0886285,0
91.663,-0.0798892,0
91.763,-0.206318,0
91.863,-0.165307,0
91.963,-0.0638652,0
92.063,-0.101178,0
92.163,-0.145246,0
92.263,-0.125487,0
92.363,0.341093,0
92.463,-0.965847,0
92.563,0.230338,0
92.663,-0.108854,0
92.763,-0.125656,0
92.863,-0.13224,0
92.963,-0.120405,0
93.063,-0.12571,0
93.163,-0.364219,0
93.263,0.0643496,0
93.363,-0.127644,0
93.463,-0.127644,0
93.563,-0.127644,0
93.663,-0.032712,0
93.763,-0.203297,0
93.863,-0.0926666,0
93.963,-0.154133,0
94.063,-0.115416,0
94.163,-0.0998522,0
94.263,-0.190577,0
94.363,-0.244483,0
94.463,0.115675,0
94.563,-0.455715,0
94.663,-0.103185,0
94.763,-0.00274784,0
94.863,0.0188292,0
94.963,-0.248099,0
95.063,-0.128602,0
95.163,0.373756,0
95.263,-0.38478,0
95.363,-0.239445,0
95.463,-0.267617,0
95.563,-0.0898581,0
95.663,-0.0596749,0
95.763,-0.125187,0
95.863,0.386075,0
95.963,-0.533003,0
96.063,-0.121038,0
96.163,-1.5588,0
96.263,1.01992,0
96.363,-0.132647,0
96.463,-0.107431,0
96.563,-0.152664,0
96.663,-0.132443,0
96.763,-0.393745,0
96.863,0.0747692,0
96.963,-0.134554,0
97.063,-0.227084,0
97.163,-0.0612057,0
97.263,-0.135302,0
97.363,-0.135302,0
97.463,-0.135302,0
97.563,-0.159076,0
97.663,-0.116464,0
97.763,-0.168482,0
97.863,-0.109363,0
97.963,-0.235011,0
98.063,-0.0571846,0
98.163,-0.420214,0
98.263,0.371051,0
98.363,-0.646877,0
98.463,0.070154,0
98.563,-0.124918,0
98.663,-0.353035,0
98.763,0.0301047,0
98.863,0.246413,0
98.963,-0.446949,0
99.063,-0.206954,0
99.163,-0.0134029,0
99.263,-0.106129,0
99.363,-0.150305,0
99.463,-0.181175,0
99.563,0.0212402,0
99.663,-0.38364,0
99.763,0.0839823,0
99.863,-0.232956,0
99.963,-0.135168,0
100.063,-0.257603,0
100.163,0.115705,0
100.263,-0.523613,0
100.363,0.074931,0
100.463,0.00441,0
100.563,-0.248877,0
100.663,-0.274035,0
100.763,0.111246,0
100.863,-0.246134,0
100.963,0.130154,0
101.063,-0.256587,0
101.163,-0.204782,0
101.263,-0.222856,0
101.363,0.274929,0
101.463,-0.885698,0
101.563,0.156302,0
101.663,-0.0591753,0
101.763,-0.0398243,0
101.863,-0.211498,0
101.963,-0.295521,0
102.063,-0.0432019,0
102.163,0.0131632,0
102.263,-0.232689,0
102.363,-0.135546,0
102.463,-0.135546,0
102.563,-0.135546,0
102.663,-0.377559,0
102.763,0.0553191,0
102.863,-0.137492,0
102.963,0.232373,0
103.063,-0.429539,0
103.163,0.368066,0
103.263,-1.03594,0
103.363,-0.0921091,0
103.463,0.123709,0
103.563,-0.437192,0
103.663,0.0514305,0
103.763,-0.0909603,0
103.863,-0.0781563,0
103.963,-1.04131,0
104.063,0.527647,0
104.163,1.10892,0
104.263,-0.2426,0
104.363,-0.279429,0
104.463,-0.027437,0
104.563,0.0135167,0
104.663,-0.284466,0
104.763,0.658312,0
104.863,0.871148,0
104.963,-2.04652,0
105.063,0.4314,0
105.163,0.658276,0
105.263,0.763037,0
105.363,-1.13639,0
105.463,5.19427,0
105.563,-4.23441,0
105.663,0.0589841,0
105.763,-2.1492,0
105.863,1.67315,0
105.963,-0.319535,0
106.063,0.511645,0
106.163,0.0350227,0
106.263,1.39691,0
106.363,-1.20599,0
106.463,0.0676188,0
106.563,0.0464189,0
106.663,-1.83735,0
106.763,1.41359,0
106.863,-0.0606143,0
106.963,-0.458084,0
107.063,-0.011379,0
107.163,0.158904,0
107.263,-0.401866,0
107.363,0.206387,0
107.463,0.948799,0
107.563,-0.562985,0
107.663,-0.183389,0
107.763,-0.0601163,0
107.863,-1.08917,0
107.963,0.775251,0
108.063,-0.0685597,0
108.163,-0.0685597,0
108.263,0.913925,0
108.363,-0.785736,0
108.463,-0.829781,0
108.563,0.562725,0
108.663,0.879981,0
108.763,-1.60505,0
108.863,0.556286,0
108.963,0.428445,0
109.063,-0.50284,0
109.163,-0.108073,0
109.263,0.248556,0
109.363,-0.0478264,0
109.463,-0.360095,0
109.563,-0.772752,0
109.663,0.612553,0
109.763,-0.0736495,0
109.863,-0.0736495,0
109.963,4.82356,0
110.063,-3.92357,0
110.163,0.0682261,0
110.263,-4.0461,0
110.363,3.22523,0
110.463,-0.0666403,0
110.563,0.635079,0
110.663,-0.555056,0
110.763,-0.0261111,0
110.863,-0.0906881,0
110.963,-0.0614104,0
111.063,0.428595,0
111.163,2.66727,0
111.263,-2.38251,0
111.363,0.0682382,0
111.463,-0.0530073,0
111.563,-4.84975,0
111.663,3.90406,0
111.763,-2.36914,0
111.863,1.79001,0
111.963,-0.0940926,0
112.063,1.25366,0
112.163,-0.130805,0
112.263,-0.78399,0
112.363,-0.0768323,0
112.463,1.08877,0
112.563,-0.170636,0
112.663,-0.611634,0
112.763,2.15564,0
112.863,-1.69669,0
112.963,0.0568732,0
113.063,-0.117863,0
113.163,1.46214,0
113.263,-1.65092,0
113.363,0.475839,0
113.463,-0.89273,0
