0.663,0,0.070875
0.763,0,0.070875
0.863,-0.145913,0.070875
0.963,-0.0329534,0.070875
1.063,-0.0665539,0.070875
1.163,-0.0509901,0.070875
1.263,-0.116588,0.070875
1.363,-0.0755857,0.070875
1.463,-0.0827928,0.070875
1.563,-0.0544436,0.070875
1.663,-0.08022,0.070875
1.763,-0.0871036,0.070875
1.863,-0.101237,0.070875
1.963,-0.157522,0.070875
2.063,-0.119764,0.070875
2.163,-0.127216,0.070875
2.263,-0.1167,0.070875
2.363,-0.00147964,0.070875
2.463,-0.0736287,0.070875
2.563,-0.0985527,0.070875
2.663,-0.104266,0.070875
2.763,-0.167975,0.070875
2.863,-0.126769,0.070875
2.963,-0.13301,0.070875
3.063,-0.106226,0.070875
3.163,-0.128991,0.070875
3.263,-0.134932,0.070875
3.363,-0.250447,0.070875
3.463,-0.167745,0.070875
3.563,-0.174683,0.070875
3.663,-0.15395,0.070875
3.763,-0.1524,0.070875
3.863,-0.114309,0.070875
3.963,0.0349335,0.070875
4.063,-0.00794281,0.070875
4.163,-0.00830536,0.070875
4.263,0.113777,0.070875
4.363,0.360186,0.070875
4.463,0.386129,0.070875
4.563,0.601306,0.070875
4.663,0.795716,0.070875
4.763,0.8467,0.070875
4.863,0.631541,0.070875
4.963,0.764201,0.070875
5.063,0.650392,0.070875
5.163,0.658942,0.070875
5.263,0.692375,0.070875
5.363,0.720315,0.070875
5.463,0.710945,0.070875
5.563,0.741678,0.070875
5.663,0.72486,0.070875
5.763,0.822549,0.070875
5.863,0.854309,0.070875
5.963,0.88607,0.070875
6.063,0.938059,0.070875
6.163,0.953739,0.070875
6.263,0.888341,0.070875
6.363,0.997606,0.070875
6.463,1.01089,0.070875
6.563,1.056,0.070875
6.663,1.13963,0.070875
6.763,1.12865,0.070875
6.863,1.12886,0.070875
6.963,1.18488,0.070875
7.063,1.06762,0.070875
7.163,1.07263,0.070875
7.263,0.883472,0.070875
7.363,1.04996,0.070875
7.463,1.14018,0.070875
7.563,1.18574,0.070875
7.663,1.23656,0.070875
7.763,1.25882,0.070875
7.863,1.2672,0.070875
7.963,1.32969,0.070875
8.063,1.29875,0.070875
8.163,1.34322,0.070875
8.263,1.3404,0.070875
8.363,1.39198,0.070875
8.463,1.39357,0.070875
8.563,1.27498,0.070875
8.663,1.39576,0.070875
8.763,1.38444,0.070875
8.863,0.545034,0.070875
8.963,0.914604,0.070875
9.063,0.297281,0.070875
9.163,0.801289,0.070875
9.263,0.984192,0.070875
9.363,0.963172,0.070875
9.463,0.961272,0.070875
9.563,0.905252,0.070875
9.663,0.83529,0.070875
9.763,0.857331,0.070875
9.863,0.797943,0.070875
9.963,0.783978,0.070875
10.063,0.451143,0.070875
10.163,0.531446,0.070875
10.263,0.687564,0.070875
10.363,0.657529,0.070875
10.463,0.647202,0.070875
10.563,0.638794,0.070875
10.663,0.626049,0.070875
10.763,0.568112,0.070875
10.863,0.569676,0.070875
10.963,0.578053,0.070875
11.063,0.509753,0.070875
11.163,0.512712,0.070875
11.263,0.568056,0.070875
11.363,0.543887,0.070875
11.463,0.527071,0.070875
11.563,0.470742,0.070875
11.663,0.453114,0.070875
11.763,0.20379,0.070875
11.863,0.374382,0.070875
11.963,0.354598,0.070875
12.063,0.380353,0.070875
12.163,0.454515,0.070875
12.263,0.328929,0.070875
12.363,0.310789,0.070875
12.463,-0.107166,0.070875
12.563,-0.0582192,0.070875
12.663,-0.277276,0.070875
12.763,-0.0805221,0.070875
12.863,-0.0896223,0.070875
12.963,-0.0636484,0.070875
13.063,-0.0252492,0.070875
13.163,-0.0704786,0.070875
13.263,-0.107237,0.070875
13.963,-0.146887,0.070875
14.063,-0.345583,0.070875
14.163,-0.437963,0.070875
14.263,-30.6866,0.070875
14.363,-6.75499,0.070875
14.463,-7.09554,0.070875
14.563,10.0667,0.070875
14.663,-0.514702,0.070875
14.763,-0.556165,0.070875
14.863,-0.453419,0.070875
14.963,-0.377669,0.070875
15.063,-0.390255,0.070875
15.163,-0.524825,0.070875
15.263,-0.536185,0.070875
15.363,-0.547544,0.070875
15.463,-0.558904,0.070875
15.563,-0.549841,0.070875
15.663,-0.577682,0.070875
15.763,-0.52804,0.070875
15.863,-0.588295,0.070875
15.963,-0.694056,0.070875
16.063,-0.627899,0.070875
16.163,-0.626686,0.070875
16.263,-0.648416,0.070875
16.363,-0.63666,0.070875
16.463,-0.60896,0.070875
16.563,-0.590147,0.070875
16.663,-0.652353,0.070875
16.763,-0.738856,0.070875
16.863,-0.710228,0.070875
16.963,-0.702121,0.070875
17.063,-0.712966,0.070875
17.163,-0.680289,0.070875
17.263,-0.66689,0.070875
17.363,-0.668506,0.070875
17.463,-0.688012,0.070875
17.563,-0.576751,0.070875
17.663,-0.691524,0.070875
17.763,-0.842807,0.070875
17.863,-0.734952,0.070875
17.963,0.0143809,0.070875
18.063,-0.598173,0.070875
18.163,-0.590309,0.070875
18.263,-0.392764,0.070875
18.363,-0.548122,0.070875
18.463,-0.521291,0.070875
18.563,-0.5195,0.070875
18.663,-0.209851,0.070875
18.763,-0.268088,0.070875
18.863,-0.198616,0.070875
18.963,-0.324003,0.070875
19.063,-0.326433,0.070875
19.163,-0.310436,0.070875
19.263,-0.413346,0.070875
19.363,-0.39369,0.070875
19.463,-0.311898,0.070875
19.563,-0.295068,0.070875
19.663,-0.28311,0.070875
19.763,-0.0843741,0.070875
19.863,-0.145419,0.070875
19.963,-0.189842,0.070875
20.063,-0.173292,0.070875
20.163,-0.184803,0.070875
20.263,-0.0831106,0.070875
20.363,-0.0989596,0.070875
20.463,-0.0358569,0.070875
20.563,-0.129444,0.070875
20.663,-0.0623654,0.070875
20.763,-0.0587578,0.070875
20.863,-0.0452845,0.070875
20.963,-0.119159,0.070875
21.063,0.0462216,0.070875
21.163,-0.0567747,0.070875
21.263,-0.0406934,0.070875
21.363,0.0101222,0.070875
21.463,-0.0429603,0.070875
21.563,0.0264708,0.070875
21.663,0.021986,0.070875
21.763,0.080634,0.070875
21.863,0.0330563,0.070875
21.963,-0.0107569,0.070875
22.063,0.0515578,0.070875
22.163,-0.0647394,0.070875
22.263,-1.07424,0.070875
22.363,-0.19391,0.070875
22.463,-0.220969,0.070875
22.563,-0.214115,0.070875
22.663,-0.185188,0.070875
22.763,-0.211868,0.070875
22.863,-0.158915,0.070875
22.963,0.630383,0.070875
23.063,-0.0469403,0.070875
23.163,0.111096,0.070875
23.263,-0.149406,0.070875
23.363,-0.0287083,0.070875
23.463,-0.0628196,0.070875
23.563,-0.201949,0.070875
23.663,-0.0636476,0.070875
23.763,-0.0565894,0.070875
23.863,-0.0495312,0.070875
23.963,-0.000878909,0.070875
24.063,0.0775841,0.070875
24.163,0.172317,0.070875
24.263,0.0413065,0.070875
24.363,0.0512707,0.070875
24.463,-0.727934,0.070875
24.563,-0.143197,0.070875
24.663,-0.107332,0.070875
24.763,-0.11517,0.070875
24.863,-0.0696854,0.070875
24.963,0.474927,0.070875
25.063,0.0919639,0.070875
25.163,0.0370827,0.070875
25.263,0.105947,0.070875
25.363,0.0610443,0.070875
25.463,0.0304066,0.070875
25.563,0.0725378,0.070875
25.663,0.076067,0.070875
25.763,0.0807904,0.070875
25.863,0.106437,0.070875
25.963,-0.0361797,0.070875
26.063,0.0788932,0.070875
26.163,0.0116026,0.070875
26.263,-0.414476,0.070875
26.363,-0.168356,0.070875
26.463,-0.0818037,0.070875
26.563,-0.347437,0.070875
26.663,-0.219488,0.070875
26.763,-0.232248,0.070875
26.863,-0.187738,0.070875
26.963,-0.200609,0.070875
27.063,-0.143293,0.070875
27.163,-0.162224,0.070875
27.263,-0.0891254,0.070875
27.363,-0.210504,0.070875
27.463,-0.0471855,0.070875
27.563,-0.176768,0.070875
27.663,-0.16277,0.070875
27.763,-0.322855,0.070875
27.863,-0.0934346,0.070875
27.963,-0.200153,0.070875
28.063,-0.204616,0.070875
28.163,0.66934,0.070875
28.263,-0.0470466,0.070875
28.363,-0.0378484,0.070875
28.463,-0.133743,0.070875
28.563,-0.103473,0.070875
28.663,-0.759406,0.070875
28.763,-0.197541,0.070875
28.863,-0.206329,0.070875
28.963,-0.111526,0.070875
29.063,-0.193886,0.070875
29.163,-0.20173,0.070875
29.263,-0.307441,0.070875
29.363,-0.26077,0.070875
29.463,-0.249592,0.070875
29.563,-0.258551,0.070875
29.663,-0.302013,0.070875
29.763,-0.248579,0.070875
29.863,-0.246346,0.070875
29.963,-0.276957,0.070875
30.063,0.385105,0.070875
30.163,0.0229871,0.070875
30.263,0.201936,0.070875
30.363,-0.0309666,0.070875
30.763,0.0434095,0.070875
30.863,0.0920514,0.070875
30.963,0.141126,0.070875
31.063,0.11454,0.070875
31.163,0.244119,0.070875
31.263,0.330608,0.070875
31.363,0.246738,0.070875
31.463,0.237844,0.070875
31.563,0.25587,0.070875
31.663,0.127185,0.070875
31.763,0.25336,0.070875
31.863,0.270034,0.070875
31.963,0.286707,0.070875
32.063,0.30338,0.070875
32.163,0.33595,0.070875
32.263,0.317746,0.070875
32.363,0.34772,0.070875
32.463,0.321372,0.070875
32.563,0.330446,0.070875
32.663,0.346935,0.070875
32.763,0.341314,0.070875
32.863,0.32701,0.070875
32.963,0.253338,0.070875
33.063,0.34841,0.070875
33.163,0.335924,0.070875
33.263,0.297693,0.070875
33.363,0.178148,0.070875
33.463,0.204443,0.070875
33.563,0.262471,0.070875
33.663,-0.371757,0.070875
33.763,0.141226,0.070875
33.863,0.111939,0.070875
33.963,0.0033013,0.070875
34.063,0.0152738,0.070875
34.163,0.0625546,0.070875
34.263,0.0298793,0.070875
34.363,0.0217992,0.070875
34.463,-0.245671,0.070875
34.563,-0.342754,0.070875
34.663,-0.490369,0.070875
34.763,-0.197704,0.070875
34.863,-0.218169,0.070875
34.963,0.0183024,0.070875
35.063,0.0580972,0.070875
35.163,0.0248076,0.070875
35.263,-0.128041,0.070875
35.363,-0.134498,0.070875
35.463,-0.15465,0.070875
35.563,-0.356494,0.070875
35.663,-0.218637,0.070875
35.763,-0.148569,0.070875
35.863,-0.233508,0.070875
35.963,-0.221543,0.070875
36.063,-0.178501,0.070875
36.163,0.0242809,0.070875
36.263,1.13012,0.070875
36.363,0.0471245,0.070875
36.463,0.0581485,0.070875
36.563,-1.19373,0.070875
36.663,-0.275528,0.070875
36.763,-0.201784,0.070875
36.863,-0.1694,0.070875
36.963,-0.191455,0.070875
37.063,-0.222982,0.070875
37.163,-0.0689124,0.070875
37.263,-0.129001,0.070875
37.363,0.715649,0.070875
37.463,0.0125746,0.070875
37.563,0.23147,0.070875
37.663,0.176009,0.070875
37.763,0.0896274,0.070875
37.863,0.076341,0.070875
37.963,0.13711,0.070875
38.063,0.152766,0.070875
38.163,0.150214,0.070875
38.263,0.164134,0.070875
38.363,0.226375,0.070875
38.463,0.197769,0.070875
38.563,0.155922,0.070875
38.663,0.161494,0.070875
38.763,0.157018,0.070875
38.863,0.203234,0.070875
38.963,0.222022,0.070875
39.563,0.236465,0.070875
39.663,0.21588,0.070875
39.763,-0.962427,0.070875
39.863,0.0030887,0.070875
39.963,0.00645577,0.070875
40.063,-0.0785647,0.070875
40.163,-0.152958,0.070875
40.263,-0.0611811,0.070875
40.363,-0.0662431,0.070875
40.463,-0.0694318,0.070875
40.563,-0.0567763,0.070875
40.663,-0.0173518,0.070875
40.763,-0.0854074,0.070875
40.863,-0.0977293,0.070875
40.963,-0.125737,0.070875
41.063,-0.149412,0.070875
41.163,-0.142444,0.070875
41.263,-0.131092,0.070875
41.363,-0.0953403,0.070875
41.463,-0.000601453,0.070875
41.563,0.857953,0.070875
41.663,0.130101,0.070875
41.763,0.0789006,0.070875
41.863,0.0884291,0.070875
41.963,0.0979572,0.070875
42.063,0.100669,0.070875
42.163,0.11571,0.070875
42.263,0.26255,0.070875
42.363,0.405669,0.070875
42.463,0.221037,0.070875
42.563,0.23197,0.070875
42.663,0.242444,0.070875
42.763,-0.0553687,0.070875
42.863,0.0799145,0.070875
42.963,0.0967677,0.070875
43.063,-0.633534,0.070875
43.163,-0.0791923,0.070875
43.263,-0.191816,0.070875
43.363,-0.101616,0.070875
43.463,-0.0807875,0.070875
43.563,-0.0526811,0.070875
43.663,-0.0809405,0.070875
43.763,0.0129342,0.070875
43.863,-0.0168486,0.070875
43.963,-0.0711659,0.070875
44.063,-0.00657255,0.070875
44.163,-0.066126,0.070875
44.263,-0.16896,0.070875
44.363,-0.102062,0.070875
44.463,0.0296316,0.070875
44.563,-0.147576,0.070875
44.663,0.833504,0.070875
44.763,0.133388,0.070875
44.863,0.0696243,0.070875
44.963,0.170728,0.070875
45.063,0.195098,0.070875
45.163,0.111489,0.070875
45.263,0.174997,0.070875
45.363,0.167564,0.070875
45.463,0.15601,0.070875
45.563,-0.249769,0.070875
45.663,-0.366279,0.070875
45.763,-0.00440716,0.070875
45.863,-0.000459948,0.070875
45.963,-0.0973771,0.070875
46.063,-0.0329337,0.070875
46.163,-0.0778501,0.070875
46.263,-0.0569502,0.070875
46.363,-0.0834609,0.070875
46.463,-0.078052,0.070875
46.563,-0.111411,0.070875
46.663,-0.0764226,0.070875
46.763,0.00364066,0.070875
46.863,0.679707,0.070875
46.963,0.249941,0.070875
47.063,0.110716,0.070875
47.163,0.120139,0.070875
47.263,0.130948,0.070875
47.363,0.019251,0.070875
47.463,0.037417,0.070875
47.563,0.102825,0.070875
47.663,-0.719454,0.070875
47.763,-0.0779459,0.070875
47.863,-0.0626668,0.070875
47.963,-0.0717462,0.070875
48.063,-0.224277,0.070875
48.163,-0.119861,0.070875
48.263,-0.16747,0.070875
48.363,-0.106858,0.070875
48.463,-0.29577,0.070875
48.563,-0.209811,0.070875
48.663,-0.263496,0.070875
48.763,-0.167482,0.070875
48.863,-0.228221,0.070875
48.963,-0.217137,0.070875
49.063,-0.223271,0.070875
49.163,-0.133224,0.070875
49.263,-0.136815,0.070875
49.363,-0.116713,0.070875
49.463,-0.251116,0.070875
49.563,-0.214513,0.070875
49.663,-0.265586,0.070875
49.763,-0.464245,0.070875
49.863,-0.404208,0.070875
49.963,-0.326097,0.070875
50.063,-0.338679,0.070875
50.163,-0.296633,0.070875
50.263,-0.353329,0.070875
50.363,-0.365412,0.070875
50.463,-0.628872,0.070875
50.563,-0.438034,0.070875
50.663,-0.452415,0.070875
50.763,-0.386498,0.070875
50.863,-0.438928,0.070875
50.963,-0.473203,0.070875
51.063,-0.298899,0.070875
51.163,-0.219207,0.070875
51.263,-0.410409,0.070875
51.363,-0.419937,0.070875
51.463,-0.539383,0.070875
51.563,-0.532657,0.070875
51.663,-0.484608,0.070875
51.763,-0.495799,0.070875
51.863,-0.472499,0.070875
51.963,-0.511533,0.070875
52.063,-0.521555,0.070875
52.163,-0.53312,0.070875
52.263,-0.544664,0.070875
52.363,-0.554311,0.070875
52.463,-0.56573,0.070875
52.563,-0.577274,0.070875
52.663,-0.67008,0.070875
52.763,-0.691029,0.070875
52.863,-0.640844,0.070875
52.963,-0.576549,0.070875
53.063,-0.624542,0.070875
53.163,-0.617191,0.070875
53.263,-0.654332,0.070875
53.363,-0.665524,0.070875
53.463,-0.676714,0.070875
53.563,-0.717803,0.070875
53.663,-0.749811,0.070875
53.763,-0.725044,0.070875
53.863,-0.658664,0.070875
53.963,-0.7511,0.070875
54.063,-0.712266,0.070875
54.163,-0.721639,0.070875
54.263,-0.762036,0.070875
54.363,-0.755639,0.070875
54.463,-0.739865,0.070875
54.563,-0.778658,0.070875
54.663,-0.789147,0.070875
54.763,-0.7962,0.070875
54.863,-0.717736,0.070875
54.963,-0.792378,0.070875
55.063,-0.802129,0.070875
55.163,-0.932898,0.070875
55.263,-0.950176,0.070875
55.363,-0.876287,0.070875
55.463,-0.878739,0.070875
55.563,-0.91672,0.070875
55.663,-0.913434,0.070875
55.763,-0.927007,0.070875
55.863,-0.937548,0.070875
55.963,-0.949457,0.070875
56.063,-0.892693,0.070875
56.863,-0.940804,0.070875
56.963,-0.988249,0.070875
57.063,-0.961388,0.070875
57.163,-0.964499,0.070875
57.263,-1.00777,0.070875
57.363,-1.07122,0.070875
57.463,-1.04439,0.070875
57.563,-1.04833,0.070875
57.663,-1.05828,0.070875
57.763,-1.0469,0.070875
57.863,-1.07404,0.070875
57.963,-1.06888,0.070875
58.063,-1.06762,0.070875
58.163,-1.12664,0.070875
58.263,-1.08038,0.070875
58.363,-1.09504,0.070875
58.463,-1.12048,0.070875
58.563,-1.12971,0.070875
58.663,-1.13894,0.070875
58.763,-1.15803,0.070875
58.863,-1.15931,0.070875
58.963,-1.16863,0.070875
59.063,-1.17795,0.070875
59.163,-1.18727,0.070875
59.263,-1.18544,0.070875
59.363,-1.23917,0.070875
59.463,-1.22407,0.070875
59.563,-1.26904,0.070875
59.663,-1.26581,0.070875
59.763,-1.26085,0.070875
59.863,-1.2916,0.070875
59.963,-1.28507,0.070875
60.063,-1.27955,0.070875
60.163,-1.30256,0.070875
60.263,-1.32988,0.070875
60.363,-1.31738,0.070875
60.463,-1.38688,0.070875
60.563,-1.35516,0.070875
60.663,-1.36586,0.070875
60.763,-1.37655,0.070875
60.863,-1.40415,0.070875
60.963,-1.40124,0.070875
61.063,-1.41597,0.070875
61.163,-1.44244,0.070875
61.263,-1.55854,0.070875
61.363,-1.47292,0.070875
61.463,-1.50917,0.070875
61.563,-1.50949,0.070875
61.663,-1.51581,0.070875
61.763,-1.52071,0.070875
61.863,-1.51251,0.070875
61.963,-1.54629,0.070875
62.063,-1.55841,0.070875
62.163,-1.57008,0.070875
62.263,-1.58256,0.070875
62.363,-1.61359,0.070875
62.463,-1.61452,0.070875
62.563,-1.61805,0.070875
62.663,-1.63483,0.070875
62.763,-1.64711,0.070875
62.863,-1.60411,0.070875
62.963,-1.66074,0.070875
63.063,-1.60794,0.070875
63.163,-1.73614,0.070875
63.263,-1.69289,0.070875
63.363,-1.73394,0.070875
63.463,-1.72386,0.070875
63.563,-1.75021,0.070875
63.663,-1.75069,0.070875
63.763,-1.84554,0.070875
63.863,-1.70867,0.070875
63.963,-1.74657,0.070875
64.063,-1.78358,0.070875
64.163,-1.80474,0.070875
64.263,-1.80912,0.070875
64.363,-1.83151,0.070875
64.463,-1.84622,0.070875
65.063,-1.85877,0.070875
65.163,-1.90749,0.070875
65.263,-1.96286,0.070875
65.363,-1.96917,0.070875
65.463,-1.97112,0.070875
65.563,-1.98371,0.070875
65.663,-2.05398,0.070875
65.763,-1.96275,0.070875
65.863,-2.00406,0.070875
65.963,-2.08624,0.070875
66.063,-2.05447,0.070875
66.163,-2.01325,0.070875
66.263,-2.08447,0.070875
66.363,-2.1241,0.070875
66.463,-2.11039,0.070875
66.563,-2.07504,0.070875
66.663,-2.12339,0.070875
66.763,-2.10894,0.070875
66.863,-2.14313,0.070875
66.963,-2.15545,0.070875
67.063,-2.19673,0.070875
67.163,-2.1859,0.070875
67.263,-2.19849,0.070875
67.363,-2.16405,0.070875
67.463,-2.19517,0.070875
67.563,-2.21799,0.070875
67.663,-2.23367,0.070875
67.763,-2.24562,0.070875
67.863,-2.23262,0.070875
67.963,-2.27546,0.070875
68.063,-2.29433,0.070875
68.163,-2.29344,0.070875
68.263,-2.30541,0.070875
68.363,-2.34251,0.070875
68.463,-2.34693,0.070875
68.563,-2.34909,0.070875
68.663,-2.34883,0.070875
68.763,-2.36583,0.070875
68.863,-2.38015,0.070875
68.963,-2.39401,0.070875
69.063,-2.39771,0.070875
69.163,-2.42501,0.070875
69.263,-2.44236,0.070875
69.363,-2.46444,0.070875
69.463,-2.46103,0.070875
69.563,-2.52819,0.070875
69.663,-2.4969,0.070875
69.763,-2.50981,0.070875
69.863,-2.44837,0.070875
69.963,-2.59499,0.070875
70.063,-2.51134,0.070875
70.163,-2.55338,0.070875
70.263,-2.56596,0.070875
70.363,-2.57853,0.070875
70.463,-2.59111,0.070875
70.563,-2.55173,0.070875
70.663,-2.68288,0.070875
70.763,-2.55845,0.070875
70.863,-2.67854,0.070875
70.963,-2.60537,0.070875
71.063,-2.65578,0.070875
71.163,-2.6679,0.070875
71.263,-2.72039,0.070875
71.363,-2.65425,0.070875
71.463,-2.74956,0.070875
71.563,-2.75406,0.070875
71.663,-2.71411,0.070875
71.763,-2.70564,0.070875
71.863,-2.75361,0.070875
71.963,-2.7657,0.070875
72.063,-2.77238,0.070875
72.163,-2.79419,0.070875
72.263,-2.80333,0.070875
72.363,-2.81429,0.070875
72.463,-2.81956,0.070875
72.563,-2.84394,0.070875
72.663,-2.82675,0.070875
72.763,-2.85774,0.070875
72.863,-2.86914,0.070875
72.963,-2.88147,0.070875
73.063,-2.89335,0.070875
73.163,-2.90619,0.070875
73.263,-2.9246,0.070875
73.363,-2.94173,0.070875
73.463,-3.02249,0.070875
73.563,-2.9727,0.070875
73.663,-2.92751,0.070875
73.763,-2.98641,0.070875
73.863,-2.99865,0.070875
73.963,-2.96572,0.070875
74.063,-3.00016,0.070875
74.163,-3.03677,0.070875
74.263,-3.09002,0.070875
74.363,-3.05997,0.070875
74.463,-3.07227,0.070875
74.563,-3.13375,0.070875
74.663,-3.05773,0.070875
74.763,-3.03934,0.070875
74.863,-3.10762,0.070875
74.963,-3.11929,0.070875
75.063,-3.13095,0.070875
75.163,-3.16761,0.070875
75.263,-3.15936,0.070875
75.363,-3.16574,0.070875
75.463,-3.18202,0.070875
75.563,-3.19386,0.070875
75.663,-3.19762,0.070875
75.763,-3.2159,0.070875
75.863,-3.25271,0.070875
75.963,-3.24453,0.070875
76.063,-3.24062,0.070875
76.163,-3.31985,0.070875
76.263,-3.23757,0.070875
76.363,-3.2864,0.070875
76.463,-3.30136,0.070875
76.563,-3.30254,0.070875
76.663,-3.31295,0.070875
76.763,-3.33262,0.070875
76.863,-3.34204,0.070875
76.963,-3.35773,0.070875
77.063,-3.37424,0.070875
77.163,-3.38646,0.070875
77.263,-3.39353,0.070875
77.363,-3.41722,0.070875
77.463,-3.47799,0.070875
77.563,-3.45236,0.070875
77.663,-3.45763,0.070875
77.763,-3.46113,0.070875
77.863,-3.48976,0.070875
77.963,-3.4096,0.070875
78.063,-3.47979,0.070875
78.163,-3.49152,0.070875
78.263,-3.50324,0.070875
78.363,-3.48706,0.070875
78.463,-3.51366,0.070875
78.563,-3.53097,0.070875
78.663,-3.54971,0.070875
78.763,-3.61209,0.070875
78.863,-3.63673,0.070875
78.963,-3.64715,0.070875
79.063,-3.62411,0.070875
79.163,-3.61761,0.070875
79.263,-3.64591,0.070875
79.363,-3.5755,0.070875
79.463,-3.64403,0.070875
79.563,-3.65602,0.070875
79.663,-3.66801,0.070875
79.763,-3.68053,0.070875
79.863,-3.71305,0.070875
79.963,-3.68744,0.070875
80.063,-3.71627,0.070875
80.163,-3.68982,0.070875
80.263,-3.73236,0.070875
80.363,-3.74401,0.070875
80.463,-3.76186,0.070875
80.563,-3.76976,0.070875
80.663,-3.82518,0.070875
80.763,-3.76158,0.070875
80.863,-3.84518,0.070875
80.963,-3.8253,0.070875
81.063,-3.83635,0.070875
81.163,-3.84931,0.070875
81.263,-3.90055,0.070875
81.363,-3.88161,0.070875
81.463,-3.89407,0.070875
81.563,-3.90653,0.070875
81.663,-3.91899,0.070875
81.763,-3.87666,0.070875
81.863,-3.88831,0.070875
81.963,-3.97967,0.070875
82.063,-3.9561,0.070875
82.163,-3.96571,0.070875
82.263,-3.96936,0.070875
82.363,-3.99957,0.070875
82.463,-3.99316,0.070875
82.563,-4.0168,0.070875
82.663,-4.00862,0.070875
82.763,-4.03412,0.070875
82.863,-4.04586,0.070875
82.963,-4.07476,0.070875
83.063,-4.02284,0.070875
83.163,-4.08634,0.070875
83.263,-4.16078,0.070875
83.363,-4.05838,0.070875
83.463,-4.11535,0.070875
83.563,-4.12703,0.070875
83.663,-4.13872,0.070875
83.763,-4.15041,0.070875
83.863,-4.23608,0.070875
83.963,-4.18912,0.070875
84.063,-4.20147,0.070875
84.163,-4.21382,0.070875
84.263,-4.26073,0.070875
84.363,-4.24574,0.070875
84.463,-4.14125,0.070875
84.563,-4.35757,0.070875
84.663,-4.27327,0.070875
84.763,-4.28597,0.070875
84.863,-4.20224,0.070875
84.963,-4.28104,0.070875
85.063,-4.29287,0.070875
85.163,-4.30679,0.070875
85.263,-4.31487,0.070875
85.363,-4.33047,0.070875
85.463,-4.36001,0.070875
85.563,-4.35652,0.070875
85.663,-4.35963,0.070875
85.763,-4.37871,0.070875
85.863,-4.39065,0.070875
85.963,-4.3826,0.070875
86.063,-4.40533,0.070875
86.163,-4.40913,0.070875
86.263,-4.43033,0.070875
86.363,-4.43325,0.070875
86.463,-4.46044,0.070875
86.563,-4.4743,0.070875
86.663,-4.49092,0.070875
86.763,-4.49286,0.070875
86.863,-4.51372,0.070875
86.963,-4.51836,0.070875
87.063,-4.53024,0.070875
87.163,-4.54213,0.070875
87.263,-4.54501,0.070875
87.363,-4.53754,0.070875
87.463,-4.57031,0.070875
87.563,-4.59376,0.070875
87.663,-4.60103,0.070875
87.763,-4.60866,0.070875
87.863,-4.62038,0.070875
87.963,-4.62803,0.070875
88.063,-4.64297,0.070875
88.163,-4.61855,0.070875
88.263,-4.65883,0.070875
88.363,-4.67019,0.070875
88.463,-4.68921,0.070875
88.563,-4.70062,0.070875
88.663,-4.7072,0.070875
88.763,-4.72154,0.070875
88.863,-4.7293,0.070875
88.963,-4.74196,0.070875
89.063,-4.75593,0.070875
89.163,-4.82045,0.070875
89.263,-4.79417,0.070875
89.363,-4.83202,0.070875
89.463,-4.86314,0.070875
89.563,-4.84155,0.070875
89.663,-4.82279,0.070875
89.763,-4.86032,0.070875
89.863,-4.87275,0.070875
89.963,-4.87395,0.070875
90.563,-4.89293,0.070875
90.663,-4.96699,0.070875
90.763,-4.95065,0.070875
90.863,-4.97537,0.070875
90.963,-4.99534,0.070875
91.063,-5.00725,0.070875
91.163,-5.01916,0.070875
91.263,-5.08677,0.070875
91.363,-5.06182,0.070875
91.463,-5.07277,0.070875
91.563,-5.08199,0.070875
91.663,-5.09038,0.070875
91.763,-5.11025,0.070875
91.863,-5.12646,0.070875
91.963,-5.13347,0.070875
92.063,-5.1438,0.070875
92.163,-5.15813,0.070875
92.263,-5.17068,0.070875
92.363,-5.14068,0.070875
92.463,-5.2293,0.070875
92.563,-5.20985,0.070875
92.663,-5.2209,0.070875
92.763,-5.23347,0.070875
92.863,-5.24663,0.070875
92.963,-5.25872,0.070875
93.063,-5.2713,0.070875
93.163,-5.30559,0.070875
93.263,-5.30108,0.070875
93.363,-5.31384,0.070875
93.463,-5.32661,0.070875
93.563,-5.33937,0.070875
93.663,-5.34348,0.070875
93.763,-5.36305,0.070875
93.863,-5.37262,0.070875
93.963,-5.38776,0.070875
94.063,-5.3994,0.070875
94.163,-5.40961,0.070875
94.263,-5.42806,0.070875
94.363,-5.45149,0.070875
94.463,-5.44221,0.070875
94.563,-5.48475,0.070875
94.663,-5.4955,0.070875
94.763,-5.49705,0.070875
94.863,-5.49647,0.070875
94.963,-5.52009,0.070875
95.063,-5.53295,0.070875
95.163,-5.49998,0.070875
95.263,-5.53569,0.070875
95.363,-5.55847,0.070875
95.463,-5.58395,0.070875
95.563,-5.59338,0.070875
95.663,-5.6,0.070875
95.763,-5.61252,0.070875
95.863,-5.5784,0.070875
95.963,-5.62758,0.070875
96.063,-5.63968,0.070875
96.163,-5.78248,0.070875
96.263,-5.69201,0.070875
96.363,-5.70528,0.070875
96.463,-5.71624,0.070875
96.563,-5.73131,0.070875
96.663,-5.74455,0.070875
96.763,-5.78161,0.070875
96.863,-5.77623,0.070875
96.963,-5.78968,0.070875
97.063,-5.81157,0.070875
97.163,-5.81844,0.070875
97.263,-5.83197,0.070875
97.363,-5.8455,0.070875
97.463,-5.85903,0.070875
97.563,-5.87472,0.070875
97.663,-5.88656,0.070875
97.763,-5.90312,0.070875
97.863,-5.91432,0.070875
97.963,-5.93694,0.070875
98.063,-5.94345,0.070875
98.163,-5.98296,0.070875
98.263,-5.9506,0.070875
98.363,-6.01051,0.070875
98.463,-6.0056,0.070875
98.563,-6.01824,0.070875
98.663,-6.05165,0.070875
98.763,-6.05035,0.070875
98.863,-6.02908,0.070875
98.963,-6.07068,0.070875
99.063,-6.09077,0.070875
99.163,-6.09327,0.070875
99.263,-6.10409,0.070875
99.363,-6.11892,0.070875
99.463,-6.13659,0.070875
99.563,-6.13585,0.070875
99.663,-6.17187,0.070875
99.763,-6.16553,0.070875
99.863,-6.18784,0.070875
99.963,-6.20136,0.070875
100.063,-6.22604,0.070875
100.163,-6.2168,0.070875
100.263,-6.26558,0.070875
100.363,-6.2602,0.070875
100.463,-6.261,0.070875
100.563,-6.28476,0.070875
100.663,-6.31095,0.070875
100.763,-6.30213,0.070875
100.863,-6.32565,0.070875
100.963,-6.31496,0.070875
101.063,-6.33928,0.070875
101.163,-6.35904,0.070875
101.263,-6.38053,0.070875
101.363,-6.3567,0.070875
101.463,-6.43826,0.070875
101.563,-6.42565,0.070875
101.663,-6.43234,0.070875
101.763,-6.43716,0.070875
101.863,-6.45754,0.070875
101.963,-6.48568,0.070875
102.063,-6.49097,0.070875
102.163,-6.491,0.070875
102.263,-6.5133,0.070875
102.363,-6.52685,0.070875
102.463,-6.54041,0.070875
102.563,-6.55396,0.070875
102.663,-6.58958,0.070875
102.763,-6.58598,0.070875
102.863,-6.59973,0.070875
102.963,-6.57971,0.070875
103.063,-6.61972,0.070875
103.163,-6.58728,0.070875
103.263,-6.68237,0.070875
103.363,-6.69243,0.070875
103.463,-6.6827,0.070875
103.563,-6.7238,0.070875
103.663,-6.72065,0.070875
103.763,-6.73024,0.070875
103.863,-6.7386,0.070875
103.963,-6.83465,0.070875
104.063,-6.78862,0.070875
104.163,-6.69778,0.070875
104.263,-6.70967,0.070875
104.363,-6.73549,0.070875
104.463,-6.73859,0.070875
104.563,-6.73793,0.070875
104.663,-6.7644,0.070875
104.763,-6.71434,0.070875
104.863,-6.63381,0.070875
104.963,-6.80937,0.070875
105.063,-6.77156,0.070875
105.163,-6.72172,0.070875
105.263,-6.65132,0.070875
105.363,-6.74426,0.070875
105.463,-6.27745,0.070875
105.563,-6.65798,0.070875
105.663,-6.65208,0.070875
105.763,-6.83692,0.070875
105.863,-6.68694,0.070875
105.963,-6.71653,0.070875
106.063,-6.68002,0.070875
106.163,-6.67625,0.070875
106.263,-6.54833,0.070875
106.363,-6.65631,0.070875
106.463,-6.64965,0.070875
106.563,-6.64491,0.070875
106.663,-6.80164,0.070875
106.763,-6.67503,0.070875
106.863,-6.68109,0.070875
106.963,-6.72327,0.070875
107.063,-6.72519,0.070875
107.163,-6.71155,0.070875
107.263,-6.74868,0.070875
107.363,-6.7308,0.070875
107.463,-6.65424,0.070875
107.563,-6.70437,0.070875
107.663,-6.71128,0.070875
107.763,-6.71729,0.070875
107.863,-6.81672,0.070875
107.963,-6.74764,0.070875
108.063,-6.75449,0.070875
108.163,-6.76135,0.070875
108.263,-6.68797,0.070875
108.363,-6.74911,0.070875
108.463,-6.82504,0.070875
108.563,-6.77506,0.070875
108.663,-6.70478,0.070875
108.763,-6.84033,0.070875
108.863,-6.79102,0.070875
108.963,-6.76197,0.070875
109.063,-6.79784,0.070875
109.163,-6.8084,0.070875
109.263,-6.78653,0.070875
109.363,-6.79134,0.070875
109.463,-6.82456,0.070875
109.563,-6.89548,0.070875
109.663,-6.84109,0.070875
109.763,-6.84846,0.070875
109.863,-6.85582,0.070875
109.963,-6.42347,0.070875
110.063,-6.77593,0.070875
110.163,-6.76911,0.070875
110.263,-7.12425,0.070875
110.363,-6.83465,0.070875
110.463,-6.84131,0.070875
110.563,-6.79335,0.070875
110.663,-6.83373,0.070875
110.763,-6.83666,0.070875
110.863,-6.84544,0.070875
110.963,-6.85158,0.070875
111.063,-6.8224,0.070875
111.163,-6.57789,0.070875
111.263,-6.79163,0.070875
111.363,-6.78481,0.070875
111.463,-6.78899,0.070875
111.563,-7.21593,0.070875
111.663,-6.86537,0.070875
111.763,-7.08076,0.070875
111.863,-6.9206,0.070875
111.963,-6.93001,0.070875
112.063,-6.82569,0.070875
112.163,-6.83627,0.070875
112.263,-6.8974,0.070875
112.363,-6.90508,0.070875
112.463,-6.81577,0.070875
112.563,-6.83008,0.070875
112.663,-6.87555,0.070875
112.763,-6.68865,0.070875
112.863,-6.84078,0.070875
112.963,-6.83509,0.070875
113.063,-6.83602,0.070875
113.163,-6.71261,0.070875
113.263,-6.85173,0.070875
113.363,-6.81846,0.070875
113.463,-6.88962,0.070875
