0.663,0,0
0.763,0,0
0.863,0.011829,0.11829
0.963,0.011829,0
1.063,0.014032,0.0220304
1.163,0.014032,0
1.263,0.0188083,0.0477622
1.363,0.0188083,0
1.463,0.0188083,0
1.563,0.0159263,-0.0288198
1.663,0.0159263,0
1.763,0.0159263,0
1.863,0.0165139,0.00587631
1.963,0.020993,0.0447905
2.063,0.020993,0
2.163,0.020993,0
2.263,0.0195368,-0.0145618
2.363,0.00841492,-0.111219
2.463,0.00550129,-0.0291363
2.563,0.00550129,0
2.663,0.00550129,0
2.763,0.0102026,0.0470134
2.863,0.0102026,0
2.963,0.0102026,0
3.063,0.00752542,-0.0267721
3.163,0.00752542,0
3.263,0.00752542,0
3.363,0.0164067,0.0888129
3.463,0.0164067,0
3.563,0.0164067,0
3.663,0.0141641,-0.0224263
3.763,0.0124883,-0.0167576
3.863,0.00832938,-0.0415894
3.963,-0.00683527,-0.151646
4.063,-0.0152913,-0.0845604
4.163,-0.0216283,-0.0633703
4.263,-0.0360949,-0.144666
4.363,-0.0671076,-0.310127
4.463,-0.0934907,-0.263831
4.563,-0.130978,-0.374875
4.663,-0.175237,-0.442589
4.763,-0.213013,-0.377755
4.863,-0.224394,-0.113815
4.963,-0.241494,-0.171001
5.063,-0.243887,-0.023928
5.163,-0.243887,0
5.263,-0.243887,0
5.363,-0.243461,0.00426203
5.463,-0.239799,0.03662
5.563,-0.236674,0.0312469
5.663,-0.230314,0.0636032
5.763,-0.230314,0
5.863,-0.230314,0
5.963,-0.230314,0
6.063,-0.231883,-0.0156937
6.163,-0.231883,0
6.263,-0.224325,0.0755839
6.363,-0.224325,0
6.463,-0.222947,0.0137744
6.563,-0.222947,0
6.663,-0.227035,-0.0408766
6.763,-0.227035,0
6.863,-0.224624,0.0241121
6.963,-0.224624,0
7.063,-0.213116,0.115073
7.163,-0.201948,0.111684
7.263,-0.175887,0.260606
7.363,-0.166801,0.0908642
7.463,-0.164682,0.0211887
7.563,-0.164682,0
7.663,-0.166801,-0.0211887
7.763,-0.168358,-0.0155733
7.863,-0.168358,0
7.963,-0.171355,-0.0299696
8.063,-0.169399,0.0195633
8.163,-0.169399,0
8.263,-0.167259,0.0213975
8.363,-0.16769,-0.00431321
8.463,-0.16626,0.0143086
8.563,-0.153886,0.123736
8.663,-0.151665,0.0222139
8.763,-0.147222,0.0444262
8.863,-0.0748716,0.723503
8.963,-0.0454186,0.29453
9.063,0.0286615,0.740801
9.163,0.047801,0.191395
9.263,0.047801,0
9.363,0.0486587,0.00857652
9.463,0.0486587,0
9.563,0.0523532,0.0369453
9.663,0.0601809,0.0782776
9.763,0.0638573,0.0367632
9.863,0.0707062,0.0684899
9.963,0.07641,0.0570378
10.063,0.106977,0.305669
10.163,0.124213,0.172359
10.263,0.124213,0
10.363,0.125093,0.00879725
10.463,0.125093,0
10.563,0.124213,-0.00879725
10.663,0.122968,-0.0124467
10.763,0.125093,0.0212439
10.863,0.125155,0.000622099
10.963,0.122968,-0.021866
11.063,0.125155,0.021866
11.163,0.125155,0
11.263,0.119118,-0.0603672
11.363,0.114605,-0.0451285
11.463,0.110794,-0.0381133
11.563,0.110794,0
11.663,0.110794,0
11.763,0.1295,0.187065
11.863,0.1295,0
11.963,0.1295,0
12.063,0.125825,-0.0367553
12.163,0.115248,-0.105763
12.263,0.115248,0
12.363,0.115248,0
12.463,0.147412,0.321631
12.563,0.168033,0.206214
12.663,0.200341,0.32308
12.763,0.208896,0.0855531
12.863,0.214297,0.0540105
12.963,0.214297,0
13.063,0.208896,-0.0540105
13.163,0.205756,-0.0314039
13.263,0.203823,-0.0193239
13.963,0.20069,-0.00447568
14.063,0.20069,0
14.163,0.205756,0.0506537
14.263,1.16194,9.56186
14.363,1.16194,0
14.463,1.16194,0
14.563,0.111146,-10.508
14.663,0.10343,-0.077164
14.763,0.0991263,-0.0430365
14.863,0.086046,-0.130803
14.963,0.0688969,-0.171491
15.063,0.0556968,-0.132002
15.163,0.0556968,0
15.263,0.0556968,0
15.363,0.0556968,0
15.463,0.0556968,0
15.563,0.0540476,-0.0164915
15.663,0.0540476,0
15.763,0.0491351,-0.0491254
15.863,0.0491351,0
15.963,0.0568164,0.0768138
16.063,0.0568164,0
16.163,0.0557915,-0.0102494
16.263,0.0557915,0
16.363,0.0539247,-0.0186683
16.463,0.0492632,-0.0466148
16.563,0.0430785,-0.061847
16.663,0.0430785,0
16.763,0.0492632,0.061847
16.863,0.0511387,0.0187554
16.963,0.0511387,0
17.063,0.0511387,0
17.163,0.0476244,-0.0351435
17.263,0.0428295,-0.0479494
17.363,0.0390694,-0.0376001
17.463,0.0368097,-0.0225972
17.563,0.0252155,-0.115942
17.663,0.0252155,0
17.763,0.0368097,0.115942
17.863,0.0368097,0
17.963,-0.0246491,-0.614588
18.063,-0.0246491,0
18.163,-0.0246491,0
18.263,-0.0400386,-0.153895
18.363,-0.039266,0.00772631
18.463,-0.0400386,-0.00772631
18.563,-0.0400386,0
18.663,-0.0643676,-0.243289
18.763,-0.078585,-0.142174
18.863,-0.0947272,-0.161422
18.963,-0.0965446,-0.0181738
19.063,-0.0965446,0
19.163,-0.0965446,0
19.263,-0.0869196,0.0962498
19.363,-0.0802375,0.0668213
19.463,-0.0802375,0
19.563,-0.0804553,-0.00217864
19.663,-0.0804553,0
19.763,-0.0953799,-0.149246
19.863,-0.101391,-0.0601096
19.963,-0.101391,0
20.063,-0.101391,0
20.163,-0.099124,0.0226686
20.263,-0.104163,-0.050386
20.363,-0.105648,-0.0148559
20.463,-0.110579,-0.0493085
20.563,-0.105648,0.0493085
20.663,-0.105648,0
20.763,-0.104565,0.0108336
20.863,-0.103401,0.0116427
20.963,-0.0951295,0.0827105
21.063,-0.10043,-0.0530029
21.163,-0.0951295,0.0530029
21.263,-0.0908115,0.0431808
21.363,-0.0901426,0.00668841
21.463,-0.0840747,0.0606794
21.563,-0.0835418,0.00532908
21.663,-0.081571,0.0197076
21.763,-0.0835418,-0.0197076
21.863,-0.0801384,0.034034
21.963,-0.0726708,0.0746758
22.063,-0.0713527,0.0131807
22.163,-0.0598037,0.11549
22.263,0.0315869,0.913906
22.363,0.0343222,0.027353
22.463,0.038025,0.037028
22.563,0.0397393,0.0171431
22.663,0.038025,-0.0171431
22.763,0.038025,0
22.863,0.0329783,-0.0504667
22.963,-0.0349909,-0.679692
23.063,-0.0349909,0
23.163,-0.0470599,-0.12069
23.263,-0.0349909,0.12069
23.363,-0.0349909,0
23.463,-0.0314951,0.0349578
23.563,-0.0174819,0.140132
23.663,-0.0174819,0
23.763,-0.0174819,0
23.863,-0.0174819,0
23.963,-0.0208536,-0.033717
24.063,-0.0293681,-0.0851449
24.163,-0.0433243,-0.139562
24.263,-0.0433243,0
24.363,-0.0433243,0
24.463,0.0206398,0.639642
24.563,0.0249752,0.0433532
24.663,0.0249752,0
24.763,0.0249701,-5.04299e-05
24.863,0.0206398,-0.0433028
24.963,-0.0268166,-0.474564
25.063,-0.0339487,-0.0713211
25.163,-0.0346152,-0.0066655
25.263,-0.0400107,-0.0539549
25.363,-0.0400107,0
25.463,-0.0367521,0.0325859
25.563,-0.0367521,0
25.663,-0.0362908,0.00461292
25.763,-0.0355531,0.00737696
25.863,-0.0362908,-0.00737696
25.963,-0.0245953,0.116955
26.063,-0.0245425,0.000528102
26.163,-0.0184092,0.0613332
26.263,0.0208997,0.393089
26.363,0.0325044,0.116047
26.463,0.0342766,0.0177213
26.563,0.0564967,0.222201
26.663,0.0633858,0.068891
26.763,0.0690582,0.056724
26.863,0.0690582,0
26.963,0.0690582,0
27.063,0.0633858,-0.056724
27.163,0.0592903,-0.0409553
27.263,0.0490752,-0.102151
27.363,0.0505121,0.0143693
27.463,0.0375934,-0.129187
27.563,0.0375934,0
27.663,0.0357053,-0.0188811
27.763,0.0463818,0.106764
27.863,0.0357053,-0.106764
27.963,0.0357053,0
28.063,0.0353293,-0.00375984
28.163,-0.0365216,-0.71851
28.263,-0.0365216,0
28.363,-0.0365216,0
28.463,-0.028004,0.0851764
28.563,-0.0236459,0.0435812
28.663,0.0328701,0.56516
28.763,0.0328701,0
28.863,0.0328701,0
28.963,0.0244783,-0.0839173
29.063,0.0244783,0
29.163,0.0244783,0
29.263,0.0324048,0.0792648
29.363,0.0343991,0.0199424
29.463,0.0343991,0
29.563,0.0343991,0
29.663,0.0371922,0.0279316
29.763,0.0343991,-0.0279316
29.863,0.031209,-0.0319009
29.963,0.031209,0
30.063,-0.0231449,-0.543539
30.163,-0.0376412,-0.144963
30.263,-0.0632231,-0.255819
30.363,-0.0643213,-0.0109817
30.763,-0.0829058,-0.0464613
30.863,-0.0847014,-0.0179556
30.963,-0.0889475,-0.0424608
31.063,-0.0890527,-0.00105238
31.163,-0.0983627,-0.0930998
31.263,-0.111613,-0.132507
31.363,-0.114264,-0.0265023
31.463,-0.114264,0
31.563,-0.114264,0
31.663,-0.10246,0.118039
31.763,-0.10246,0
31.863,-0.10246,0
31.963,-0.10246,0
32.063,-0.10246,0
32.163,-0.103738,-0.0127848
32.263,-0.101965,0.0177344
32.363,-0.101592,0.00372698
32.463,-0.097835,0.0375709
32.563,-0.0941999,0.0363515
32.663,-0.0912945,0.0290531
32.763,-0.0872306,0.0406396
32.863,-0.0815566,0.0567398
32.963,-0.0698248,0.117318
33.063,-0.0676978,0.0212701
33.163,-0.0639256,0.0377214
33.263,-0.0567622,0.0716343
33.363,-0.041133,0.156292
33.463,-0.0305211,0.106119
33.563,-0.0266792,0.0384192
33.663,0.0276941,0.543732
33.763,0.0299433,0.0224924
33.863,0.0334724,0.0352914
33.963,0.0444454,0.109729
34.063,0.0516366,0.0719125
34.163,0.0528099,0.0117329
34.263,0.0555224,0.0271246
34.363,0.0574779,0.0195556
34.463,0.079761,0.22283
34.563,0.104636,0.248754
34.663,0.135381,0.307442
34.763,0.135381,0
34.863,0.135381,0
34.963,0.114736,-0.206441
35.063,0.0940007,-0.207358
35.163,0.0792782,-0.147225
35.263,0.0792782,0
35.363,0.0786666,-0.0061156
35.463,0.0786666,0
35.563,0.0938143,0.151477
35.663,0.0938143,0
35.763,0.0869,-0.0691428
35.863,0.0869,0
35.963,0.0847338,-0.0216626
36.063,0.0783083,-0.0642551
36.163,0.0555329,-0.227753
36.263,-0.0527237,-1.08257
36.363,-0.0527237,0
36.463,-0.0527237,0
36.563,0.0495392,1.02263
36.663,0.0579837,0.0844442
36.763,0.0579837,0
36.863,0.0544249,-0.0355871
36.963,0.0523924,-0.0203253
37.063,0.0523924,0
37.163,0.0390324,-0.1336
37.263,0.03303,-0.060024
37.363,-0.040195,-0.732249
37.463,-0.0423724,-0.0217745
37.563,-0.0610682,-0.186958
37.663,-0.0708992,-0.0983095
37.763,-0.0708992,0
37.863,-0.0687679,0.0213135
37.963,-0.0708992,-0.0213135
38.063,-0.0728496,-0.0195041
38.163,-0.0731633,-0.00313652
38.263,-0.0734668,-0.00303519
38.363,-0.0776607,-0.0419392
38.463,-0.0776607,0
38.563,-0.0731633,0.0449744
38.663,-0.0688597,0.0430353
38.763,-0.0639415,0.0491821
38.863,-0.0626636,0.012779
38.963,-0.062156,0.00507623
39.563,-0.0612328,0.00153873
39.663,-0.0536993,0.0753344
39.763,0.047955,1.01654
39.863,0.0520887,0.0413374
39.963,0.0543116,0.0222286
40.063,0.0621032,0.0779165
40.163,0.0735106,0.114074
40.263,0.0743415,0.00830885
40.363,0.0743415,0
40.463,0.0735106,-0.00830885
40.563,0.0707269,-0.0278368
40.663,0.0642055,-0.0652144
40.763,0.0642055,0
40.863,0.0642055,0
40.963,0.0654738,0.012683
41.063,0.0674168,0.0194301
41.163,0.0674168,0
41.263,0.0654738,-0.0194301
41.363,0.0599859,-0.0548786
41.463,0.0468703,-0.131156
41.563,-0.0334414,-0.803117
41.663,-0.0394543,-0.0601292
41.763,-0.0394543,0
41.863,-0.0394543,0
41.963,-0.0394543,0
42.063,-0.0389023,0.00552084
42.163,-0.0389023,0
42.263,-0.0500208,-0.111186
42.363,-0.0697997,-0.197788
42.463,-0.0700019,-0.00202209
42.563,-0.0700019,0
42.663,-0.0697997,0.00202209
42.763,-0.0444938,0.253059
42.863,-0.0347575,0.0973636
42.963,-0.0282557,0.0650173
43.063,0.0360797,0.643354
43.163,0.0430612,0.0698152
43.263,0.0570802,0.14019
43.363,0.0603155,0.0323532
43.463,0.0603155,0
43.563,0.0570802,-0.0323532
43.663,0.0557889,-0.0129134
43.763,0.0462124,-0.0957644
43.863,0.0407827,-0.0542978
43.963,0.0407827,0
44.063,0.0347663,-0.0601638
44.163,0.0347663,0
44.263,0.0423652,0.0759892
44.363,0.0423652,0
44.463,0.0308985,-0.114667
44.563,0.0360071,0.0510861
44.663,-0.0400322,-0.760393
44.763,-0.0447511,-0.0471885
44.863,-0.042628,0.0212312
44.963,-0.048276,-0.0564806
45.063,-0.0540139,-0.0573787
45.163,-0.0510371,0.0297686
45.263,-0.0528651,-0.01828
45.363,-0.0528651,0
45.463,-0.0510371,0.01828
45.563,-0.0157849,0.352521
45.663,0.0222293,0.380142
45.763,0.0233852,0.0115593
45.863,0.0233852,0
45.963,0.0306132,0.07228
46.063,0.0306132,0
46.163,0.0335609,0.0294776
46.263,0.0335609,0
46.363,0.0349904,0.0142946
46.463,0.0349904,0
46.563,0.0369613,0.0197093
46.663,0.0349904,-0.0197093
46.763,0.0261593,-0.0883108
46.863,-0.0356674,-0.618267
46.963,-0.0506815,-0.150141
47.063,-0.0508186,-0.00137087
47.163,-0.0508186,0
47.263,-0.0508186,0
47.363,-0.0409,0.0991861
47.463,-0.0342985,0.0660153
47.563,-0.0342985,0
47.663,0.0330556,0.67354
47.763,0.0354678,0.0241224
47.863,0.0354678,0
47.963,0.0354678,0
48.063,0.047082,0.116142
48.163,0.047287,0.00205089
48.263,0.0504652,0.0317815
48.363,0.047287,-0.0317815
48.463,0.0591274,0.118403
48.563,0.0609054,0.0177799
48.663,0.0657311,0.0482573
48.763,0.0609054,-0.0482573
48.863,0.0609054,0
48.963,0.0590435,-0.0186188
49.063,0.0570686,-0.0197486
49.163,0.0472377,-0.0983092
49.263,0.0394726,-0.0776512
49.363,0.0315479,-0.0792471
49.463,0.0360785,0.0453064
49.563,0.0360785,0
49.663,0.0394726,0.0339407
49.763,0.0575381,0.180656
49.863,0.0665051,0.0896693
49.963,0.0665051,0
50.063,0.0665051,0
50.163,0.0620927,-0.0441235
50.263,0.0620927,0
50.363,0.0620927,0
50.463,0.0823592,0.202664
50.563,0.0823592,0
50.663,0.0823592,0
50.763,0.0758872,-0.0647197
50.863,0.0737331,-0.0215411
50.963,0.0736586,-0.000744763
51.063,0.0584458,-0.152128
51.163,0.0394475,-0.189984
51.263,0.0394475,0
51.363,0.0394475,0
51.463,0.0483351,0.0888763
51.563,0.0541965,0.0586136
51.663,0.0541965,0
51.763,0.0541965,0
51.863,0.0514099,-0.0278654
51.963,0.0514099,0
52.063,0.0513409,-0.000690128
52.163,0.0513409,0
52.263,0.0513955,0.000545931
52.363,0.0513409,-0.000545931
52.463,0.0513409,0
52.563,0.0513955,0.000545931
52.663,0.0580542,0.0665869
52.763,0.0642356,0.0618142
52.863,0.0642356,0
52.963,0.0580542,-0.0618142
53.063,0.0567703,-0.0128389
53.163,0.0542026,-0.0256766
53.263,0.0542026,0
53.363,0.0542026,0
53.463,0.0542026,0
53.563,0.0566152,0.0241254
53.663,0.0602393,0.0362407
53.763,0.0602393,0
53.863,0.0539256,-0.0631362
53.963,0.0561587,0.022331
54.063,0.0539256,-0.022331
54.163,0.05196,-0.019656
54.263,0.0527345,0.00774454
54.363,0.05196,-0.00774454
54.463,0.0491722,-0.027879
54.563,0.0491722,0
54.663,0.0491614,-0.000107865
54.763,0.0488645,-0.00296899
54.863,0.0414298,-0.074347
54.963,0.0414298,0
55.063,0.0414298,0
55.163,0.0511986,0.0976884
55.263,0.0596755,0.0847687
55.363,0.0596755,0
55.463,0.0589214,-0.0075408
55.563,0.0604228,0.0150144
55.663,0.0604228,0
55.763,0.0605581,0.00135262
55.863,0.0605581,0
55.963,0.0605581,0
56.063,0.0550238,-0.0553431
56.863,0.0515701,-0.00431705
56.963,0.0482899,-0.032802
57.063,0.0425989,-0.0569108
57.163,0.0382342,-0.0436465
57.263,0.0382342,0
57.363,0.0425989,0.0436465
57.463,0.0431937,0.00594851
57.563,0.0431937,0
57.663,0.0431937,0
57.763,0.0414726,-0.0172115
57.863,0.0414726,0
57.963,0.0402688,-0.0120374
58.063,0.0384081,-0.018607
58.163,0.0408964,0.0248834
58.263,0.0384081,-0.0248834
58.363,0.0368034,-0.0160467
58.463,0.0368034,0
58.563,0.0368034,0
58.663,0.0368034,0
58.763,0.0375993,0.0079583
58.863,0.0375993,0
58.963,0.0375993,0
59.063,0.0375993,0
59.163,0.0375993,0
59.263,0.0366995,-0.00899819
59.363,0.0395588,0.0285934
59.463,0.0399009,0.00342091
59.563,0.0430343,0.0313338
59.663,0.044525,0.0149072
59.763,0.044525,0
59.863,0.0461899,0.016649
59.963,0.0461899,0
60.063,0.0449161,-0.0127378
60.163,0.0449161,0
60.263,0.0462998,0.0138367
60.363,0.0455891,-0.00710664
60.463,0.0497863,0.0419722
60.563,0.0497863,0
60.663,0.0497863,0
60.763,0.0497863,0
60.863,0.0511477,0.0136135
60.963,0.0511477,0
61.063,0.0514605,0.00312808
61.163,0.0529692,0.0150869
61.263,0.0626381,0.0966899
61.363,0.0626381,0
61.463,0.0645738,0.0193567
61.563,0.0651783,0.00604447
61.663,0.0651783,0
61.763,0.0645738,-0.00604447
61.863,0.0624325,-0.021413
61.963,0.0624325,0
62.063,0.0624325,0
62.163,0.0623967,-0.000357775
62.263,0.0623967,0
62.363,0.0639145,0.0151778
62.463,0.0642344,0.00319849
62.563,0.0637888,-0.00445587
62.663,0.0637888,0
62.763,0.0637888,0
62.863,0.0593522,-0.0443661
62.963,0.0593522,0
63.063,0.0541648,-0.0518737
63.163,0.0593522,0.0518737
63.263,0.0591447,-0.00207491
63.363,0.0613281,0.0218338
63.463,0.0613281,0
63.563,0.0624795,0.0115139
63.663,0.0624795,0
63.763,0.0691077,0.0662819
63.863,0.0624795,-0.0662819
63.963,0.0599896,-0.0248988
64.063,0.0599896,0
64.163,0.0607363,0.00746704
64.263,0.0607363,0
64.363,0.0615756,0.00839357
64.463,0.0624713,0.00895674
65.063,0.0655144,0.00507176
65.163,0.0636066,-0.0190773
65.263,0.0655144,0.0190773
65.363,0.0665661,0.0105172
65.463,0.0665661,0
65.563,0.0665661,0
65.663,0.0711792,0.0461313
65.763,0.0665661,-0.0461313
65.863,0.0651303,-0.0143579
65.963,0.0695489,0.0441858
66.063,0.0695489,0
66.163,0.0652171,-0.0433179
66.263,0.0664157,0.0119865
66.363,0.0695489,0.0313314
66.463,0.0699528,0.00403925
66.563,0.0664157,-0.0353706
66.663,0.0664157,0
66.763,0.0642546,-0.0216114
66.863,0.0642546,0
66.963,0.0642546,0
67.063,0.0665698,0.0231516
67.163,0.0665698,0
67.263,0.0665698,0
67.363,0.0628081,-0.0376163
67.463,0.0612809,-0.0152725
67.563,0.060912,-0.00368877
67.663,0.060912,0
67.763,0.060912,0
67.863,0.0589147,-0.0199729
67.963,0.0597894,0.00874697
68.063,0.0610612,0.0127178
68.163,0.0610612,0
68.263,0.0610612,0
68.363,0.063072,0.0201085
68.463,0.064076,0.0100395
68.563,0.064076,0
68.663,0.063072,-0.0100395
68.763,0.0626447,-0.004273
68.863,0.0624727,-0.00172058
68.963,0.0624727,0
69.063,0.0617985,-0.00674211
69.163,0.0624727,0.00674211
69.263,0.0634353,0.00962573
69.363,0.0649996,0.0156432
69.463,0.0649996,0
69.563,0.0693685,0.0436893
69.663,0.0693685,0
69.763,0.0693685,0
69.863,0.0634337,-0.0593484
69.963,0.0693685,0.0593484
70.063,0.0664555,-0.0291298
70.163,0.0664555,0
70.263,0.0664555,0
70.363,0.0664555,0
70.463,0.0664555,0
70.563,0.0623075,-0.0414806
70.663,0.068459,0.0615153
70.763,0.0624735,-0.0598547
70.863,0.0662592,0.0378566
70.963,0.0624735,-0.0378566
71.063,0.0624735,0
71.163,0.0624735,0
71.263,0.0656941,0.032206
71.363,0.0620185,-0.0367563
71.463,0.0656941,0.0367563
71.563,0.06802,0.0232587
71.663,0.0656941,-0.0232587
71.763,0.0621452,-0.0354893
71.863,0.0621452,0
71.963,0.0621452,0
72.063,0.0617135,-0.00431692
72.163,0.0621452,0.00431692
72.263,0.0622583,0.0011306
72.363,0.0622583,0
72.463,0.0617135,-0.00544752
72.563,0.0622583,0.00544752
72.663,0.0603605,-0.0189774
72.763,0.0603539,-6.62536e-05
72.863,0.0603094,-0.000444925
72.963,0.0603094,0
73.063,0.0603094,0
73.163,0.0603865,0.00077064
73.263,0.0609684,0.00581962
73.363,0.0618504,0.00881957
73.463,0.0680331,0.0618267
73.563,0.0680331,0
73.663,0.063418,-0.0461508
73.763,0.063418,0
73.863,0.063418,0
73.963,0.0598172,-0.036008
74.063,0.0587171,-0.0110009
74.163,0.0598172,0.0110009
74.263,0.0640048,0.0418766
74.363,0.0640048,0
74.463,0.0640048,0
74.563,0.0679186,0.0391375
74.663,0.0640048,-0.0391375
74.763,0.0584038,-0.0560098
74.863,0.0584038,0
74.963,0.0584038,0
75.063,0.0584038,0
75.163,0.0603964,0.0199257
75.263,0.0603964,0
75.363,0.0599576,-0.00438784
75.463,0.0599576,0
75.563,0.0599576,0
75.663,0.059313,-0.00644668
75.763,0.059313,0
75.863,0.0613078,0.0199482
75.963,0.0613078,0
76.063,0.060041,-0.0126675
76.163,0.0643841,0.0434309
76.263,0.0603482,-0.0403593
76.363,0.060041,-0.00307156
76.463,0.060041,0
76.563,0.0591916,-0.00849438
76.663,0.0583996,-0.00791955
76.763,0.0583996,0
76.863,0.0582213,-0.00178294
76.963,0.0583996,0.00178294
77.063,0.0589292,0.00529561
77.163,0.0593948,0.0046558
77.263,0.0593948,0
77.363,0.0603432,0.0094839
77.463,0.064993,0.0464979
77.563,0.0657071,0.00714148
77.663,0.0657071,0
77.763,0.064993,-0.00714148
77.863,0.0657071,0.00714148
77.963,0.0589136,-0.0679354
78.063,0.0589136,0
78.163,0.0589136,0
78.263,0.0589136,0
78.363,0.0566914,-0.022222
78.463,0.056107,-0.0058436
78.563,0.056107,0
78.663,0.0566914,0.0058436
78.763,0.0612117,0.0452037
78.863,0.0658483,0.0463652
78.963,0.0694016,0.0355338
79.063,0.0694016,0
79.163,0.0678626,-0.0153908
79.263,0.0678626,0
79.363,0.06126,-0.0660255
79.463,0.06126,0
79.563,0.06126,0
79.663,0.06126,0
79.763,0.0613029,0.000428498
79.863,0.0629678,0.0166494
79.963,0.0613029,-0.0166494
80.063,0.0613029,0
80.163,0.0582463,-0.0305655
80.263,0.0582463,0
80.363,0.0582463,0
80.463,0.0587394,0.00493104
80.563,0.0588332,0.000937878
80.663,0.0623808,0.0354755
80.763,0.0592158,-0.0316494
80.863,0.0623808,0.0316494
80.963,0.0623808,0
81.063,0.0622966,-0.000841223
81.163,0.0622966,0
81.263,0.0654008,0.0310417
81.363,0.0654008,0
81.463,0.0654008,0
81.563,0.0654008,0
81.663,0.0654008,0
81.763,0.0610554,-0.0434546
81.863,0.0575401,-0.0351525
81.963,0.0610554,0.0351525
82.063,0.0610554,0
82.163,0.0608686,-0.00186739
82.263,0.0600602,-0.00808386
82.363,0.0608686,0.00808386
82.463,0.0600602,-0.00808386
82.563,0.0603479,0.00287624
82.663,0.058985,-0.0136285
82.763,0.058985,0
82.863,0.058985,0
82.963,0.0603479,0.0136285
83.063,0.0563748,-0.0397302
83.163,0.0573208,0.00945995
83.263,0.0630689,0.057481
83.363,0.0585898,-0.0447914
83.463,0.0585898,0
83.563,0.0585898,0
83.663,0.0585898,0
83.763,0.0585898,0
83.863,0.064454,0.0586417
83.963,0.064454,0
84.063,0.064454,0
84.163,0.064454,0
84.263,0.0671874,0.0273341
84.363,0.0671874,0
84.463,0.057906,-0.092814
84.563,0.0674955,0.0958955
84.663,0.0674955,0
84.763,0.0674955,0
84.863,0.0598618,-0.0763374
84.963,0.0598618,0
85.063,0.0598618,0
85.163,0.0600278,0.00166015
85.263,0.0598618,-0.00166015
85.363,0.0600278,0.00166015
85.463,0.0615625,0.0153466
85.563,0.0615625,0
85.663,0.0608562,-0.00706213
85.763,0.0608562,0
85.863,0.0608562,0
85.963,0.0592716,-0.015846
86.063,0.0588716,-0.00400056
86.163,0.0579232,-0.0094834
86.263,0.0579232,0
86.363,0.0572342,-0.00689076
86.463,0.0579232,0.00689076
86.563,0.0586537,0.00730462
86.663,0.0596287,0.00975029
86.763,0.0596287,0
86.863,0.0603452,0.00716477
86.963,0.0603452,0
87.063,0.0603452,0
87.163,0.0603452,0
87.263,0.0596321,-0.00713127
87.363,0.0575345,-0.0209762
87.463,0.0575345,0
87.563,0.0584756,0.00941108
87.663,0.0588804,0.00404862
87.763,0.0588804,0
87.863,0.0588804,0
87.963,0.0585588,-0.0032162
88.063,0.0585588,0
88.163,0.0556984,-0.0286043
88.263,0.0556984,0
88.363,0.0556984,0
88.463,0.0563057,0.00607312
88.563,0.0567906,0.00484925
88.663,0.0567906,0
88.763,0.0570169,0.00226279
88.863,0.0569011,-0.00115778
88.963,0.0569011,0
89.063,0.0570966,0.00195459
89.163,0.0614462,0.0434967
89.263,0.0618959,0.00449619
89.363,0.0642908,0.0239496
89.463,0.0676829,0.0339212
89.563,0.0676829,0
89.663,0.0652017,-0.0248128
89.763,0.0652017,0
89.863,0.0652017,0
89.963,0.0643155,-0.00886142
90.563,0.0636158,-0.00116618
90.663,0.0636158,0
90.763,0.0613588,-0.0225706
90.863,0.0605616,-0.0079716
90.963,0.0605616,0
91.063,0.0605616,0
91.163,0.0605616,0
91.263,0.0649552,0.0439364
91.363,0.0655133,0.00558028
91.463,0.0658375,0.00324248
91.563,0.0658375,0
91.663,0.0655133,-0.00324248
91.763,0.0658375,0.00324248
91.863,0.0663876,0.00550106
91.963,0.0663876,0
92.063,0.0662118,-0.00175829
92.163,0.0662118,0
92.263,0.0662118,0
92.363,0.0628597,-0.0335206
92.463,0.0662118,0.0335206
92.563,0.0663613,0.00149517
92.663,0.0663613,0
92.763,0.0663613,0
92.863,0.0664085,0.000472033
92.963,0.0664085,0
93.063,0.0664085,0
93.163,0.0681167,0.0170824
93.263,0.0681167,0
93.363,0.0681167,0
93.463,0.0681167,0
93.563,0.0681167,0
93.663,0.0674367,-0.00679997
93.763,0.0674367,0
93.863,0.0671917,-0.0024502
93.963,0.0671917,0
94.063,0.0671116,-0.000800786
94.163,0.0668563,-0.00255369
94.263,0.0671116,0.00255369
94.363,0.0681614,0.0104976
94.463,0.0672636,-0.00897818
94.563,0.0688956,0.01632
94.663,0.0700259,0.0113034
94.763,0.0700259,0
94.863,0.0689628,-0.0106314
94.963,0.0689628,0
95.063,0.0689628,0
95.163,0.0653637,-0.035991
95.263,0.0643306,-0.0103313
95.363,0.0643306,0
95.463,0.0653637,0.0103313
95.563,0.0659467,0.00582968
95.663,0.0659467,0
95.763,0.0659467,0
95.863,0.0622799,-0.036668
95.963,0.0622799,0
96.063,0.0622799,0
96.163,0.0725315,0.102517
96.263,0.0725315,0
96.363,0.0725315,0
96.463,0.0723516,-0.00179874
96.563,0.0723516,0
96.663,0.0723516,0
96.763,0.0742133,0.0186162
96.863,0.0742133,0
96.963,0.0742133,0
97.063,0.0748722,0.00658943
97.163,0.0748722,0
97.263,0.0748722,0
97.363,0.0748722,0
97.463,0.0748722,0
97.563,0.0750415,0.00169233
97.663,0.0750415,0
97.763,0.0752762,0.00234743
97.863,0.0752762,0
97.963,0.0759821,0.00705898
98.063,0.0759821,0
98.163,0.0779969,0.0201486
98.263,0.0759821,-0.0201486
98.363,0.0779969,0.0201486
98.463,0.0781221,0.00125128
98.563,0.0781221,0
98.663,0.0796406,0.0151856
98.763,0.0796406,0
98.863,0.0768899,-0.0275071
98.963,0.0768899,0
99.063,0.0773825,0.00492587
99.163,0.0768899,-0.00492587
99.263,0.0762728,-0.00617111
99.363,0.075875,-0.00397806
99.463,0.075875,0
99.563,0.074754,-0.0112103
99.663,0.0756236,0.00869647
99.763,0.074754,-0.00869647
99.863,0.074754,0
99.963,0.074754,0
100.063,0.0756236,0.00869647
100.163,0.0745286,-0.0109497
100.263,0.0764136,0.0188495
100.363,0.0764136,0
100.463,0.075409,-0.0100465
100.563,0.075409,0
100.663,0.0763891,0.0098018
100.763,0.075409,-0.0098018
100.863,0.075409,0
100.963,0.0735181,-0.018909
101.063,0.07288,-0.00638077
101.163,0.07288,0
101.263,0.0735181,0.00638077
101.363,0.0711208,-0.0239727
101.463,0.0745642,0.0344336
101.563,0.0752449,0.00680741
101.663,0.0752449,0
101.763,0.0745642,-0.00680741
101.863,0.0745642,0
101.963,0.075703,0.011388
102.063,0.0759512,0.00248292
102.163,0.0750874,-0.00863879
102.263,0.0750874,0
102.363,0.0750874,0
102.463,0.0750874,0
102.563,0.0750874,0
102.663,0.0768018,0.0171443
102.763,0.0768018,0
102.863,0.0768018,0
102.963,0.0741778,-0.0262401
103.063,0.0741778,0
103.163,0.0706055,-0.0357232
103.263,0.0741778,0.0357232
103.363,0.0767221,0.0254434
103.463,0.0768994,0.00177267
103.563,0.0791585,0.0225909
103.663,0.0796004,0.00441911
103.763,0.0796004,0
103.863,0.0791585,-0.00441911
103.963,0.0851535,0.0599505
104.063,0.0851535,0
104.163,0.0769866,-0.0816689
104.263,0.0712119,-0.0577471
104.363,0.0676496,-0.0356236
104.463,0.0640859,-0.0356368
104.563,0.0602506,-0.0383527
104.663,0.0583555,-0.018951
104.763,0.0520007,-0.0635476
104.863,0.040507,-0.114938
104.963,0.0452578,0.0475077
105.063,0.0452578,0
105.163,0.040507,-0.0475077
105.263,0.0311435,-0.0936353
105.363,0.0311435,0
105.463,-0.00714719,-0.382907
105.563,-0.00714719,0
105.663,-0.00714719,0
105.763,0.00831117,0.154584
105.863,0.00831117,0
105.963,0.0102122,0.0190099
106.063,0.00831117,-0.0190099
106.163,0.00679401,-0.0151716
106.263,-0.00446012,-0.112541
106.363,-0.00446012,0
106.463,-0.00454617,-0.000860447
106.563,-0.00454617,0
106.663,0.00860037,0.131465
106.763,0.00860037,0
106.863,0.00860037,0
106.963,0.011513,0.0291264
107.063,0.0135197,0.0200671
107.163,0.0135197,0
107.263,0.0159743,0.0245461
107.363,0.0159743,0
107.463,0.00925584,-0.067185
107.563,0.00815652,-0.0109932
107.663,0.00815652,0
107.763,0.00815652,0
107.863,0.0156807,0.0752422
107.963,0.0156807,0
108.063,0.0156807,0
108.163,0.0156807,0
108.263,0.00922055,-0.0646019
108.363,0.00922055,0
108.463,0.0148418,0.0562124
108.563,0.0148418,0
108.663,0.00863579,-0.06206
108.763,0.0148418,0.06206
108.863,0.0153688,0.00527062
108.963,0.0129114,-0.0245747
109.063,0.0140956,0.0118426
109.163,0.0153688,0.012732
109.263,0.0140956,-0.012732
109.363,0.0129114,-0.0118426
109.463,0.0140956,0.0118426
109.563,0.020214,0.0611833
109.663,0.020214,0
109.763,0.020214,0
109.863,0.020214,0
109.963,-0.0153835,-0.355975
110.063,-0.0153835,0
110.163,-0.0153835,0
110.263,0.0139707,0.293542
110.363,0.0139707,0
110.463,0.0139707,0
110.563,0.00957111,-0.0439954
110.663,0.00957111,0
110.763,0.00931003,-0.00261088
110.863,0.00931003,0
110.963,0.00931003,0
111.063,0.00645899,-0.0285103
111.163,-0.0153943,-0.218533
111.263,-0.0153943,0
111.363,-0.0153943,0
111.463,-0.0144943,0.00900042
111.563,0.0213259,0.358201
111.663,0.021607,0.0028111
111.763,0.0383971,0.167901
111.863,0.0383971,0
111.963,0.0383971,0
112.063,0.0293525,-0.090446
112.163,0.0230477,-0.0630479
112.263,0.0230477,0
112.363,0.0230477,0
112.463,0.0152689,-0.077788
112.563,0.0103729,-0.0489602
112.663,0.0103729,0
112.763,-0.00526532,-0.156382
112.863,-0.00526532,0
112.963,-0.00526532,0
113.063,-0.00472746,0.00537858
113.163,-0.0147162,-0.0998871
113.263,-0.0110378,0.0367838
113.363,-0.0110378,0
113.463,-0.00472746,0.0631033
