0.663,0,0
0.763,0,0
0.863,0,0
0.963,0,0
1.063,0,0
1.163,0,0
1.263,0,0
1.363,0,0
1.463,0,0
1.563,0,0
1.663,0,0
1.763,0,0
1.863,0,0
1.963,0,0
2.063,0,0
2.163,0,0
2.263,0,0
2.363,0,0
2.463,0,0
2.563,0,0
2.663,0,0
2.763,0,0
2.863,0,0
2.963,0,0
3.063,0,0
3.163,0,0
3.263,0,0
3.363,0,0
3.463,0,0
3.563,0,0
3.663,0,0
3.763,0,0
3.863,0,0
3.963,0,0
4.063,0,0
4.163,0,0
4.263,0,0
4.363,0,0
4.463,0,0
4.563,0,0
4.663,0,0
4.763,0,0
4.863,0,0
4.963,0,0
5.063,0,0
5.163,0,0
5.263,0,0
5.363,0,0
5.463,0,0
5.563,0,0
5.663,0,0
5.763,0,0
5.863,0,0
5.963,0,0
6.063,0,0
6.163,0,0
6.263,0,0
6.363,0,0
6.463,0,0
6.563,0,0
6.663,0,0
6.763,0,0
6.863,0,0
6.963,0,0
7.063,0,0
7.163,0,0
7.263,0,0
7.363,0,0
7.463,0,0
7.563,0,0
7.663,0,0
7.763,0,0
7.863,0,0
7.963,0,0
8.063,0,0
8.163,0,0
8.263,0,0
8.363,0,0
8.463,0,0
8.563,0,0
8.663,0,0
8.763,0,0
8.863,0,0
8.963,0,0
9.063,0,0
9.163,0,0
9.263,0,0
9.363,0,0
9.463,0,0
9.563,0,0
9.663,0,0
9.763,0,0
9.863,0,0
9.963,0,0
10.063,0,0
10.163,0,0
10.263,0,0
10.363,0,0
10.463,0,0
10.563,0,0
10.663,0,0
10.763,0,0
10.863,0,0
10.963,0,0
11.063,0,0
11.163,0,0
11.263,0,0
11.363,0,0
11.463,0,0
11.563,0,0
11.663,0,0
11.763,0,0
11.863,0,0
11.963,0,0
12.063,0,0
12.163,0,0
12.263,0,0
12.363,0,0
12.463,0,0
12.563,0,0
12.663,0,0
12.763,0,0
12.863,0,0
12.963,0,0
13.063,0,0
13.163,0,0
13.263,0,0
13.963,0,0
14.063,0,0
14.163,0,0
14.263,0,0
14.363,0,0
14.463,0,0
14.563,0,0
14.663,0,0
14.763,0,0
14.863,0,0
14.963,0,0
15.063,0,0
15.163,0,0
15.263,0,0
15.363,0,0
15.463,0,0
15.563,0,0
15.663,0,0
15.763,0,0
15.863,0,0
15.963,0,0
16.063,0,0
16.163,0,0
16.263,0,0
16.363,0,0
16.463,0,0
16.563,0,0
16.663,0,0
16.763,0,0
16.863,0,0
16.963,0,0
17.063,0,0
17.163,0,0
17.263,0,0
17.363,0,0
17.463,0,0
17.563,0,0
17.663,0,0
17.763,0,0
17.863,0,0
17.963,0,0
18.063,0,0
18.163,0,0
18.263,0,0
18.363,0,0
18.463,0,0
18.563,0,0
18.663,0,0
18.763,0,0
18.863,0,0
18.963,0,0
19.063,0,0
19.163,0,0
19.263,0,0
19.363,0,0
19.463,0,0
19.563,0,0
19.663,0,0
19.763,0,0
19.863,0,0
19.963,0,0
20.063,0,0
20.163,0,0
20.263,0,0
20.363,0,0
20.463,0,0
20.563,0,0
20.663,0,0
20.763,0,0
20.863,0,0
20.963,0,0
21.063,0,0
21.163,0,0
21.263,0,0
21.363,0,0
21.463,0,0
21.563,0,0
21.663,0,0
21.763,0,0
21.863,0,0
21.963,0,0
22.063,0,0
22.163,0,0
22.263,0,0
22.363,0,0
22.463,0,0
22.563,0,0
22.663,0,0
22.763,0,0
22.863,0,0
22.963,0,0
23.063,0,0
23.163,0,0
23.263,0,0
23.363,0,0
23.463,0,0
23.563,0,0
23.663,0,0
23.763,0,0
23.863,0,0
23.963,0,0
24.063,0,0
24.163,0,0
24.263,0,0
24.363,0,0
24.463,0,0
24.563,0,0
24.663,0,0
24.763,0,0
24.863,0,0
24.963,0,0
25.063,0,0
25.163,0,0
25.263,0,0
25.363,0,0
25.463,0,0
25.563,0,0
25.663,0,0
25.763,0,0
25.863,0,0
25.963,0,0
26.063,0,0
26.163,0,0
26.263,0,0
26.363,0,0
26.463,0,0
26.563,0,0
26.663,0,0
26.763,0,0
26.863,0,0
26.963,0,0
27.063,0,0
27.163,0,0
27.263,0,0
27.363,0,0
27.463,0,0
27.563,0,0
27.663,0,0
27.763,0,0
27.863,0,0
27.963,0,0
28.063,0,0
28.163,0,0
28.263,0,0
28.363,0,0
28.463,0,0
28.563,0,0
28.663,0,0
28.763,0,0
28.863,0,0
28.963,0,0
29.063,0,0
29.163,0,0
29.263,0,0
29.363,0,0
29.463,0,0
29.563,0,0
29.663,0,0
29.763,0,0
29.863,0,0
29.963,0,0
30.063,0,0
30.163,0,0
30.263,0,0
30.363,0,0
30.763,0,0
30.863,0,0
30.963,0,0
31.063,0,0
31.163,0,0
31.263,0,0
31.363,0,0
31.463,0,0
31.563,0,0
31.663,0,0
31.763,0,0
31.863,0,0
31.963,0,0
32.063,0,0
32.163,0,0
32.263,0,0
32.363,0,0
32.463,0,0
32.563,0,0
32.663,0,0
32.763,0,0
32.863,0,0
32.963,0,0
33.063,0,0
33.163,0,0
33.263,0,0
33.363,0,0
33.463,0,0
33.563,0,0
33.663,0,0
33.763,0,0
33.863,0,0
33.963,0,0
34.063,0,0
34.163,0,0
34.263,0,0
34.363,0,0
34.463,0,0
34.563,0,0
34.663,0,0
34.763,0,0
34.863,0,0
34.963,0,0
35.063,0,0
35.163,0,0
35.263,0,0
35.363,0,0
35.463,0,0
35.563,0,0
35.663,0,0
35.763,0,0
35.863,0,0
35.963,0,0
36.063,0,0
36.163,0,0
36.263,0,0
36.363,0,0
36.463,0,0
36.563,0,0
36.663,0,0
36.763,0,0
36.863,0,0
36.963,0,0
37.063,0,0
37.163,0,0
37.263,0,0
37.363,0,0
37.463,0,0
37.563,0,0
37.663,0,0
37.763,0,0
37.863,0,0
37.963,0,0
38.063,0,0
38.163,0,0
38.263,0,0
38.363,0,0
38.463,0,0
38.563,0,0
38.663,0,0
38.763,0,0
38.863,0,0
38.963,0,0
39.563,0,0
39.663,0,0
39.763,0,0
39.863,0,0
39.963,0,0
40.063,0,0
40.163,0,0
40.263,0,0
40.363,0,0
40.463,0,0
40.563,0,0
40.663,0,0
40.763,0,0
40.863,0,0
40.963,0,0
41.063,0,0
41.163,0,0
41.263,0,0
41.363,0,0
41.463,0,0
41.563,0,0
41.663,0,0
41.763,0,0
41.863,0,0
41.963,0,0
42.063,0,0
42.163,0,0
42.263,0,0
42.363,0,0
42.463,0,0
42.563,0,0
42.663,0,0
42.763,0,0
42.863,0,0
42.963,0,0
43.063,0,0
43.163,0,0
43.263,0,0
43.363,0,0
43.463,0,0
43.563,0,0
43.663,0,0
43.763,0,0
43.863,0,0
43.963,0,0
44.063,0,0
44.163,0,0
44.263,0,0
44.363,0,0
44.463,0,0
44.563,0,0
44.663,0,0
44.763,0,0
44.863,0,0
44.963,0,0
45.063,0,0
45.163,0,0
45.263,0,0
45.363,0,0
45.463,0,0
45.563,0,0
45.663,0,0
45.763,0,0
45.863,0,0
45.963,0,0
46.063,0,0
46.163,0,0
46.263,0,0
46.363,0,0
46.463,0,0
46.563,0,0
46.663,0,0
46.763,0,0
46.863,0,0
46.963,0,0
47.063,0,0
47.163,0,0
47.263,0,0
47.363,0,0
47.463,0,0
47.563,0,0
47.663,0,0
47.763,0,0
47.863,0,0
47.963,0,0
48.063,0,0
48.163,0,0
48.263,0,0
48.363,0,0
48.463,0,0
48.563,0,0
48.663,0,0
48.763,0,0
48.863,0,0
48.963,0,0
49.063,0,0
49.163,0,0
49.263,0,0
49.363,0,0
49.463,0,0
49.563,0,0
49.663,0,0
49.763,0,0
49.863,0,0
49.963,0,0
50.063,0,0
50.163,0,0
50.263,0,0
50.363,0,0
50.463,0,0
50.563,0,0
50.663,0,0
50.763,0,0
50.863,0,0
50.963,0,0
51.063,0,0
51.163,0,0
51.263,0,0
51.363,0,0
51.463,0,0
51.563,0,0
51.663,0,0
51.763,0,0
51.863,0,0
51.963,0,0
52.063,0,0
52.163,0,0
52.263,0,0
52.363,0,0
52.463,0,0
52.563,0,0
52.663,0,0
52.763,0,0
52.863,0,0
52.963,0,0
53.063,0,0
53.163,0,0
53.263,0,0
53.363,0,0
53.463,0,0
53.563,0,0
53.663,0,0
53.763,0,0
53.863,0,0
53.963,0,0
54.063,0,0
54.163,0,0
54.263,0,0
54.363,0,0
54.463,0,0
54.563,0,0
54.663,0,0
54.763,0,0
54.863,0,0
54.963,0,0
55.063,0,0
55.163,0,0
55.263,0,0
55.363,0,0
55.463,0,0
55.563,0,0
55.663,0,0
55.763,0,0
55.863,0,0
55.963,0,0
56.063,0,0
56.863,0,0
56.963,0,0
57.063,0,0
57.163,0,0
57.263,0,0
57.363,0,0
57.463,0,0
57.563,0,0
57.663,0,0
57.763,0,0
57.863,0,0
57.963,0,0
58.063,0,0
58.163,0,0
58.263,0,0
58.363,0,0
58.463,0,0
58.563,0,0
58.663,0,0
58.763,0,0
58.863,0,0
58.963,0,0
59.063,0,0
59.163,0,0
59.263,0,0
59.363,0,0
59.463,0,0
59.563,0,0
59.663,0,0
59.763,0,0
59.863,0,0
59.963,0,0
60.063,0,0
60.163,0,0
60.263,0,0
60.363,0,0
60.463,0,0
60.563,0,0
60.663,0,0
60.763,0,0
60.863,0,0
60.963,0,0
61.063,0,0
61.163,0,0
61.263,0,0
61.363,0,0
61.463,0,0
61.563,0,0
61.663,0,0
61.763,0,0
61.863,0,0
61.963,0,0
62.063,0,0
62.163,0,0
62.263,0,0
62.363,0,0
62.463,0,0
62.563,0,0
62.663,0,0
62.763,0,0
62.863,0,0
62.963,0,0
63.063,0,0
63.163,0,0
63.263,0,0
63.363,0,0
63.463,0,0
63.563,0,0
63.663,0,0
63.763,0,0
63.863,0,0
63.963,0,0
64.063,0,0
64.163,0,0
64.263,0,0
64.363,0,0
64.463,0,0
65.063,0,0
65.163,0,0
65.263,0,0
65.363,0,0
65.463,0,0
65.563,0,0
65.663,0,0
65.763,0,0
65.863,0,0
65.963,0,0
66.063,0,0
66.163,0,0
66.263,0,0
66.363,0,0
66.463,0,0
66.563,0,0
66.663,0,0
66.763,0,0
66.863,0,0
66.963,0,0
67.063,0,0
67.163,0,0
67.263,0,0
67.363,0,0
67.463,0,0
67.563,0,0
67.663,0,0
67.763,0,0
67.863,0,0
67.963,0,0
68.063,0,0
68.163,0,0
68.263,0,0
68.363,0,0
68.463,0,0
68.563,0,0
68.663,0,0
68.763,0,0
68.863,0,0
68.963,0,0
69.063,0,0
69.163,0,0
69.263,0,0
69.363,0,0
69.463,0,0
69.563,0,0
69.663,0,0
69.763,0,0
69.863,0,0
69.963,0,0
70.063,0,0
70.163,0,0
70.263,0,0
70.363,0,0
70.463,0,0
70.563,0,0
70.663,0,0
70.763,0,0
70.863,0,0
70.963,0,0
71.063,0,0
71.163,0,0
71.263,0,0
71.363,0,0
71.463,0,0
71.563,0,0
71.663,0,0
71.763,0,0
71.863,0,0
71.963,0,0
72.063,0,0
72.163,0,0
72.263,0,0
72.363,0,0
72.463,0,0
72.563,0,0
72.663,0,0
72.763,0,0
72.863,0,0
72.963,0,0
73.063,0,0
73.163,0,0
73.263,0,0
73.363,0,0
73.463,0,0
73.563,0,0
73.663,0,0
73.763,0,0
73.863,0,0
73.963,0,0
74.063,0,0
74.163,0,0
74.263,0,0
74.363,0,0
74.463,0,0
74.563,0,0
74.663,0,0
74.763,0,0
74.863,0,0
74.963,0,0
75.063,0,0
75.163,0,0
75.263,0,0
75.363,0,0
75.463,0,0
75.563,0,0
75.663,0,0
75.763,0,0
75.863,0,0
75.963,0,0
76.063,0,0
76.163,0,0
76.263,0,0
76.363,0,0
76.463,0,0
76.563,0,0
76.663,0,0
76.763,0,0
76.863,0,0
76.963,0,0
77.063,0,0
77.163,0,0
77.263,0,0
77.363,0,0
77.463,0,0
77.563,0,0
77.663,0,0
77.763,0,0
77.863,0,0
77.963,0,0
78.063,0,0
78.163,0,0
78.263,0,0
78.363,0,0
78.463,0,0
78.563,0,0
78.663,0,0
78.763,0,0
78.863,0,0
78.963,0,0
79.063,0,0
79.163,0,0
79.263,0,0
79.363,0,0
79.463,0,0
79.563,0,0
79.663,0,0
79.763,0,0
79.863,0,0
79.963,0,0
80.063,0,0
80.163,0,0
80.263,0,0
80.363,0,0
80.463,0,0
80.563,0,0
80.663,0,0
80.763,0,0
80.863,0,0
80.963,0,0
81.063,0,0
81.163,0,0
81.263,0,0
81.363,0,0
81.463,0,0
81.563,0,0
81.663,0,0
81.763,0,0
81.863,0,0
81.963,0,0
82.063,0,0
82.163,0,0
82.263,0,0
82.363,0,0
82.463,0,0
82.563,0,0
82.663,0,0
82.763,0,0
82.863,0,0
82.963,0,0
83.063,0,0
83.163,0,0
83.263,0,0
83.363,0,0
83.463,0,0
83.563,0,0
83.663,0,0
83.763,0,0
83.863,0,0
83.963,0,0
84.063,0,0
84.163,0,0
84.263,0,0
84.363,0,0
84.463,0,0
84.563,0,0
84.663,0,0
84.763,0,0
84.863,0,0
84.963,0,0
85.063,0,0
85.163,0,0
85.263,0,0
85.363,0,0
85.463,0,0
85.563,0,0
85.663,0,0
85.763,0,0
85.863,0,0
85.963,0,0
86.063,0,0
86.163,0,0
86.263,0,0
86.363,0,0
86.463,0,0
86.563,0,0
86.663,0,0
86.763,0,0
86.863,0,0
86.963,0,0
87.063,0,0
87.163,0,0
87.263,0,0
87.363,0,0
87.463,0,0
87.563,0,0
87.663,0,0
87.763,0,0
87.863,0,0
87.963,0,0
88.063,0,0
88.163,0,0
88.263,0,0
88.363,0,0
88.463,0,0
88.563,0,0
88.663,0,0
88.763,0,0
88.863,0,0
88.963,0,0
89.063,0,0
89.163,0,0
89.263,0,0
89.363,0,0
89.463,0,0
89.563,0,0
89.663,0,0
89.763,0,0
89.863,0,0
89.963,0,0
90.563,0,0
90.663,0,0
90.763,0,0
90.863,0,0
90.963,0,0
91.063,0,0
91.163,0,0
91.263,0,0
91.363,0,0
91.463,0,0
91.563,0,0
91.663,0,0
91.763,0,0
91.863,0,0
91.963,0,0
92.063,0,0
92.163,0,0
92.263,0,0
92.363,0,0
92.463,0,0
92.563,0,0
92.663,0,0
92.763,0,0
92.863,0,0
92.963,0,0
93.063,0,0
93.163,0,0
93.263,0,0
93.363,0,0
93.463,0,0
93.563,0,0
93.663,0,0
93.763,0,0
93.863,0,0
93.963,0,0
94.063,0,0
94.163,0,0
94.263,0,0
94.363,0,0
94.463,0,0
94.563,0,0
94.663,0,0
94.763,0,0
94.863,0,0
94.963,0,0
95.063,0,0
95.163,0,0
95.263,0,0
95.363,0,0
95.463,0,0
95.563,0,0
95.663,0,0
95.763,0,0
95.863,0,0
95.963,0,0
96.063,0,0
96.163,0,0
96.263,0,0
96.363,0,0
96.463,0,0
96.563,0,0
96.663,0,0
96.763,0,0
96.863,0,0
96.963,0,0
97.063,0,0
97.163,0,0
97.263,0,0
97.363,0,0
97.463,0,0
97.563,0,0
97.663,0,0
97.763,0,0
97.863,0,0
97.963,0,0
98.063,0,0
98.163,0,0
98.263,0,0
98.363,0,0
98.463,0,0
98.563,0,0
98.663,0,0
98.763,0,0
98.863,0,0
98.963,0,0
99.063,0,0
99.163,0,0
99.263,0,0
99.363,0,0
99.463,0,0
99.563,0,0
99.663,0,0
99.763,0,0
99.863,0,0
99.963,0,0
100.063,0,0
100.163,0,0
100.263,0,0
100.363,0,0
100.463,0,0
100.563,0,0
100.663,0,0
100.763,0,0
100.863,0,0
100.963,0,0
101.063,0,0
101.163,0,0
101.263,0,0
101.363,0,0
101.463,0,0
101.563,0,0
101.663,0,0
101.763,0,0
101.863,0,0
101.963,0,0
102.063,0,0
102.163,0,0
102.263,0,0
102.363,0,0
102.463,0,0
102.563,0,0
102.663,0,0
102.763,0,0
102.863,0,0
102.963,0,0
103.063,0,0
103.163,0,0
103.263,0,0
103.363,0,0
103.463,0,0
103.563,0,0
103.663,0,0
103.763,0,0
103.863,0,0
103.963,0,0
104.063,0,0
104.163,0,0
104.263,0,0
104.363,0,0
104.463,0,0
104.563,0,0
104.663,0,0
104.763,0,0
104.863,0,0
104.963,0,0
105.063,0,0
105.163,0,0
105.263,0,0
105.363,0,0
105.463,0,0
105.563,0,0
105.663,0,0
105.763,0,0
105.863,0,0
105.963,0,0
106.063,0,0
106.163,0,0
106.263,0,0
106.363,0,0
106.463,0,0
106.563,0,0
106.663,0,0
106.763,0,0
106.863,0,0
106.963,0,0
107.063,0,0
107.163,0,0
107.263,0,0
107.363,0,0
107.463,0,0
107.563,0,0
107.663,0,0
107.763,0,0
107.863,0,0
107.963,0,0
108.063,0,0
108.163,0,0
108.263,0,0
108.363,0,0
108.463,0,0
108.563,0,0
108.663,0,0
108.763,0,0
108.863,0,0
108.963,0,0
109.063,0,0
109.163,0,0
109.263,0,0
109.363,0,0
109.463,0,0
109.563,0,0
109.663,0,0
109.763,0,0
109.863,0,0
109.963,0,0
110.063,0,0
110.163,0,0
110.263,0,0
110.363,0,0
110.463,0,0
110.563,0,0
110.663,0,0
110.763,0,0
110.863,0,0
110.963,0,0
111.063,0,0
111.163,0,0
111.263,0,0
111.363,0,0
111.463,0,0
111.563,0,0
111.663,0,0
111.763,0,0
111.863,0,0
111.963,0,0
112.063,0,0
112.163,0,0
112.263,0,0
112.363,0,0
112.463,0,0
112.563,0,0
112.663,0,0
112.763,0,0
112.863,0,0
112.963,0,0
113.063,0,0
113.163,0,0
113.263,0,0
113.363,0,0
113.463,0,0
