0.663,0
0.763,0
0.863,0.281974
0.963,0.283614
1.063,0.286257
1.163,0.286257
1.263,0.286257
1.363,0.285377
1.463,0.286082
1.563,0.285377
1.663,0.285377
1.763,0.286082
1.863,0.286082
1.963,0.28372
2.063,0.28372
2.163,0.282393
2.263,0.282369
2.363,0.277241
2.463,0.274242
2.563,0.274242
2.663,0.274242
2.763,0.277321
2.863,0.27923
2.963,0.279932
3.063,0.279326
3.163,0.279932
3.263,0.279932
3.363,0.279727
3.463,0.279326
3.563,0.275288
3.663,0.271159
3.763,0.268809
3.863,0.256844
3.963,0.230301
4.063,0.210458
4.163,0.186231
4.263,0.160799
4.363,0.131165
4.463,0.11676
4.563,0.0908504
4.663,0.058702
4.763,0.0304391
4.863,0.0227531
4.963,0.00933668
5.063,0.00681896
5.163,0.00681896
5.263,0.00681896
5.363,0.00699596
5.463,0.0113521
5.563,0.0135627
5.663,0.019131
5.763,0.019131
5.863,0.019131
5.963,0.019131
6.063,0.0178172
6.163,0.0178172
6.263,0.0238542
6.363,0.0238542
6.463,0.0252375
6.563,0.0252375
6.663,0.0220951
6.763,0.0220951
6.863,0.0247724
6.963,0.0247724
7.063,0.0353956
7.163,0.0484093
7.263,0.0674288
7.363,0.0783886
7.463,0.0784663
7.563,0.0808898
7.663,0.0813952
7.763,0.0856431
7.863,0.0876302
7.963,0.0896718
8.063,0.0947942
8.163,0.0954291
8.263,0.100193
8.363,0.10754
8.463,0.120464
8.563,0.121871
8.663,0.138758
8.763,0.150018
8.863,0.221066
8.963,0.260015
9.063,0.338649
9.163,0.34242
9.263,0.34286
9.363,0.349773
9.463,0.349773
9.563,0.349773
9.663,0.372588
9.763,0.380329
9.863,0.408409
9.963,0.420246
10.063,0.473283
10.163,0.496628
10.263,0.520863
10.363,0.532381
10.463,0.532381
10.563,0.532381
10.663,0.531977
10.763,0.531977
10.863,0.529334
10.963,0.528068
11.063,0.519023
11.163,0.496536
11.263,0.48671
11.363,0.472085
11.463,0.461578
11.563,0.461578
11.663,0.461578
11.763,0.478179
11.863,0.478179
11.963,0.478179
12.063,0.471169
12.163,0.461003
12.263,0.461003
12.363,0.461003
12.463,0.461003
12.563,0.461003
12.663,0.417685
12.763,0.417685
12.863,0.417685
12.963,0.424926
13.063,0.435861
13.163,0.44664
13.263,0.447595
13.963,0.453318
14.063,0.479884
14.163,0.540306
14.263,1.07683
14.363,1.07683
14.463,1.07683
14.563,0.516715
14.663,0.511372
14.763,0.491415
14.863,0.49871
14.963,0.468548
15.063,0.468548
15.163,0.49079
15.263,0.49871
15.363,0.49079
15.463,0.49079
15.563,0.445571
15.663,0.42865
15.763,0.411908
15.863,0.401942
15.963,0.37461
16.063,0.339972
16.163,0.339972
16.263,0.339972
16.363,0.339972
16.463,0.308816
16.563,0.302042
16.663,0.280805
16.763,0.273664
16.863,0.271565
16.963,0.268216
17.063,0.257041
17.163,0.255502
17.263,0.246035
17.363,0.23455
17.463,0.207679
17.563,0.20079
17.663,0.168152
17.763,0.168152
17.863,0.146141
17.963,0.145807
18.063,0.104645
18.163,0.0868547
18.263,0.0740676
18.363,0.0635789
18.463,0.0587017
18.563,0.0434829
18.663,0.0225046
18.763,0.00198857
18.863,-0.0191902
18.963,-0.0501351
19.063,-0.0501351
19.163,-0.0501351
19.263,-0.043541
19.363,-0.043541
19.463,-0.043541
19.563,-0.0494532
19.663,-0.0608892
19.763,-0.0821783
19.863,-0.0927532
19.963,-0.10575
20.063,-0.114691
20.163,-0.121239
20.263,-0.121239
20.363,-0.118221
20.463,-0.118221
20.563,-0.115728
20.663,-0.107507
20.763,-0.0929957
20.863,-0.0890677
20.963,-0.0797399
21.063,-0.0636219
21.163,-0.0618508
21.263,-0.0600326
21.363,-0.0429531
21.463,-0.0286749
21.563,-0.0223712
21.663,-0.0142559
21.763,-0.00353428
21.863,0.00497567
21.963,0.00715195
22.063,0.0369469
22.163,0.102471
22.263,0.104154
22.363,0.140778
22.463,0.154783
22.563,0.175713
22.663,0.175713
22.763,0.175713
22.863,0.170117
22.963,0.139493
23.063,0.139125
23.163,0.136657
23.263,0.139125
23.363,0.131285
23.463,0.130386
23.563,0.131132
23.663,0.130101
23.763,0.125551
23.863,0.115814
23.963,0.0986705
24.063,0.0874106
24.163,0.0874106
24.263,0.0874106
24.363,0.120059
24.463,0.149292
24.563,0.165019
24.663,0.175092
24.763,0.181341
24.863,0.181341
24.963,0.181341
25.063,0.158882
25.163,0.144131
25.263,0.139665
25.363,0.138718
25.463,0.138718
25.563,0.138718
25.663,0.148742
25.763,0.152659
25.863,0.177466
25.963,0.186766
26.063,0.210048
26.163,0.216098
26.263,0.23995
26.363,0.248206
26.463,0.248221
26.563,0.253347
26.663,0.274235
26.763,0.274235
26.863,0.274235
26.963,0.273039
27.063,0.24812
27.163,0.246258
27.263,0.221948
27.363,0.20879
27.463,0.193586
27.563,0.193586
27.663,0.17869
27.763,0.17869
27.863,0.174898
27.963,0.171025
28.063,0.135542
28.163,0.0998828
28.263,0.0923263
28.363,0.0923263
28.463,0.0923263
28.563,0.0966025
28.663,0.0974627
28.763,0.0974627
28.863,0.0974627
28.963,0.0960387
29.063,0.0960387
29.163,0.0960387
29.263,0.108091
29.363,0.108091
29.463,0.108091
29.563,0.0937706
29.663,0.0719255
29.763,0.0703903
29.863,0.0518107
29.963,0.0478575
30.063,0.0145552
30.163,-0.0050786
30.263,-0.0392849
30.363,-0.0572678
30.763,-0.0572678
30.863,-0.0572678
30.963,-0.0537851
31.063,-0.0469136
31.163,-0.0469136
31.263,-0.0462799
31.363,-0.0462799
31.463,-0.044244
31.563,-0.0400303
31.663,-0.0110185
31.763,-0.00605307
31.863,0.00158417
31.963,0.00687163
32.063,0.00847778
32.163,0.0196958
32.263,0.0362529
32.363,0.0393799
32.463,0.0474785
32.563,0.067118
32.663,0.0721824
32.763,0.0817412
32.863,0.101849
32.963,0.121081
33.063,0.141546
33.163,0.146995
33.263,0.17441
33.363,0.193729
33.463,0.230529
33.563,0.246451
33.663,0.247202
33.763,0.286358
33.863,0.303106
33.963,0.319794
34.063,0.320371
34.163,0.331365
34.263,0.331496
34.363,0.370234
34.463,0.379545
34.563,0.408157
34.663,0.415341
34.763,0.415341
34.863,0.415341
34.963,0.395461
35.063,0.353608
35.163,0.334035
35.263,0.334035
35.363,0.334035
35.463,0.338535
35.563,0.358647
35.663,0.360368
35.763,0.360368
35.863,0.360368
35.963,0.349621
36.063,0.349456
36.163,0.303009
36.263,0.288766
36.363,0.2877
36.463,0.283135
36.563,0.233498
36.663,0.233498
36.763,0.23265
36.863,0.23265
36.963,0.226014
37.063,0.218859
37.163,0.212314
37.263,0.208131
37.363,0.186662
37.463,0.161641
37.563,0.142006
37.663,0.127872
37.763,0.127872
37.863,0.127872
37.963,0.130955
38.063,0.130955
38.163,0.13315
38.263,0.134855
38.363,0.155653
38.463,0.15864
38.563,0.165467
38.663,0.195155
38.763,0.19725
38.863,0.21381
38.963,0.221024
39.563,0.263648
39.663,0.270284
39.763,0.389885
39.863,0.402952
39.963,0.432665
40.063,0.450517
40.163,0.45593
40.263,0.458474
40.363,0.458474
40.463,0.45593
40.563,0.443835
40.663,0.4117
40.763,0.399093
40.863,0.391122
40.963,0.390497
41.063,0.386433
41.163,0.364531
41.263,0.356435
41.363,0.338869
41.463,0.291648
41.563,0.252027
41.663,0.250921
41.763,0.24199
41.863,0.24199
41.963,0.241807
42.063,0.24199
42.163,0.24199
42.263,0.241807
42.363,0.239689
42.463,0.239689
42.563,0.239689
42.663,0.255372
42.763,0.303736
42.863,0.307156
42.963,0.320608
43.063,0.351319
43.163,0.351605
43.263,0.378474
43.363,0.388732
43.463,0.388732
43.563,0.388732
43.663,0.380449
43.763,0.365221
43.863,0.362423
43.963,0.353599
44.063,0.337108
44.163,0.333393
44.263,0.327504
44.363,0.321372
44.463,0.318747
44.563,0.307157
44.663,0.295155
44.763,0.295155
44.863,0.290401
44.963,0.288978
45.063,0.277641
45.163,0.274917
45.263,0.274917
45.363,0.277641
45.463,0.29359
45.563,0.323012
45.663,0.327905
45.763,0.338414
45.863,0.347889
45.963,0.358308
46.063,0.358375
46.163,0.358375
46.263,0.35568
46.363,0.362568
46.463,0.35568
46.563,0.347538
46.663,0.344222
46.763,0.332063
46.863,0.307493
46.963,0.30188
47.063,0.290679
47.163,0.290679
47.263,0.290679
47.363,0.301283
47.463,0.311263
47.563,0.320941
47.663,0.326779
47.763,0.333181
47.863,0.342257
47.963,0.342624
48.063,0.354207
48.163,0.354207
48.263,0.358011
48.363,0.345766
48.463,0.357141
48.563,0.345766
48.663,0.343246
48.763,0.338993
48.863,0.331122
48.963,0.324592
49.063,0.300924
49.163,0.299438
49.263,0.295555
49.363,0.283998
49.463,0.282372
49.563,0.282372
49.663,0.282372
49.763,0.309096
49.863,0.309096
49.963,0.309096
50.063,0.302177
50.163,0.280304
50.263,0.280304
50.363,0.280304
50.463,0.280304
50.563,0.279156
50.663,0.279156
50.763,0.264497
50.863,0.258329
50.963,0.255206
51.063,0.222376
51.163,0.203536
51.263,0.203536
51.363,0.203536
51.463,0.213179
51.563,0.213997
51.663,0.219835
51.763,0.219835
51.863,0.221136
51.963,0.219835
52.063,0.218383
52.163,0.218348
52.263,0.218348
52.363,0.214194
52.463,0.218348
52.563,0.21925
52.663,0.226014
52.763,0.226014
52.863,0.226014
52.963,0.224679
53.063,0.220897
53.163,0.220516
53.263,0.220516
53.363,0.220516
53.463,0.220516
53.563,0.225893
53.663,0.227558
53.763,0.227558
53.863,0.221451
53.963,0.221451
54.063,0.220744
54.163,0.220156
54.263,0.220744
54.363,0.220156
54.463,0.220156
54.563,0.220156
54.663,0.219374
54.763,0.214788
54.863,0.213812
54.963,0.213812
55.063,0.213812
55.163,0.221738
55.263,0.228067
55.363,0.228067
55.463,0.227584
55.563,0.227584
55.663,0.227584
55.763,0.227584
55.863,0.224887
55.963,0.224887
56.063,0.224396
56.863,0.219282
56.963,0.218238
57.063,0.21329
57.163,0.210569
57.263,0.210569
57.363,0.213282
57.463,0.213146
57.563,0.213146
57.663,0.213146
57.763,0.212526
57.863,0.212526
57.963,0.2123
58.063,0.210582
58.163,0.212526
58.263,0.210582
58.363,0.208682
58.463,0.208682
58.563,0.208682
58.663,0.208682
58.763,0.209549
58.863,0.209549
58.963,0.209549
59.063,0.209549
59.163,0.209549
59.263,0.207794
59.363,0.211402
59.463,0.212106
59.563,0.213487
59.663,0.214631
59.763,0.215825
59.863,0.216606
59.963,0.231838
60.063,0.232198
60.163,0.23303
60.263,0.233325
60.363,0.238257
60.463,0.239272
60.563,0.242106
60.663,0.242964
60.763,0.242964
60.863,0.244808
60.963,0.244808
61.063,0.244808
61.163,0.244808
61.263,0.25402
61.363,0.252993
61.463,0.252993
61.563,0.252993
61.663,0.252333
61.763,0.25181
61.863,0.251549
61.963,0.25181
62.063,0.252333
62.163,0.249763
62.263,0.249763
62.363,0.253553
62.463,0.254407
62.563,0.254407
62.663,0.254407
62.763,0.254407
62.863,0.249661
62.963,0.248037
63.063,0.245291
63.163,0.245291
63.263,0.245291
63.363,0.250173
63.463,0.250173
63.563,0.251994
63.663,0.250173
63.763,0.24683
63.863,0.24683
63.963,0.250637
64.063,0.250637
64.163,0.251436
64.263,0.251495
64.363,0.252401
64.463,0.256048
65.063,0.257924
65.163,0.257924
65.263,0.260758
65.363,0.261524
65.463,0.261524
65.563,0.258977
65.663,0.258977
65.763,0.258094
65.863,0.258094
65.963,0.258094
66.063,0.258094
66.163,0.259314
66.263,0.259314
66.363,0.259314
66.463,0.259314
66.563,0.255555
66.663,0.255555
66.763,0.258905
66.863,0.258905
66.963,0.258905
67.063,0.258905
67.163,0.257535
67.263,0.255432
67.363,0.253917
67.463,0.253031
67.563,0.253901
67.663,0.253901
67.763,0.253031
67.863,0.253901
67.963,0.254395
68.063,0.257049
68.163,0.254395
68.263,0.256514
68.363,0.256514
68.463,0.256514
68.563,0.254803
68.663,0.255741
68.763,0.255741
68.863,0.25728
68.963,0.255922
69.063,0.255922
69.163,0.25728
69.263,0.255922
69.363,0.253591
69.463,0.253591
69.563,0.248481
69.663,0.248481
69.763,0.254819
69.863,0.255944
69.963,0.254819
70.063,0.25919
70.163,0.25919
70.263,0.25919
70.363,0.254701
70.463,0.254701
70.563,0.250144
70.663,0.244197
70.763,0.244197
70.863,0.244197
70.963,0.253363
71.063,0.255084
71.163,0.255084
71.263,0.253363
71.363,0.253363
71.463,0.247338
71.563,0.247281
71.663,0.247338
71.763,0.255206
71.863,0.252669
71.963,0.252669
72.063,0.255206
72.163,0.252669
72.263,0.252669
72.363,0.25435
72.463,0.25435
72.563,0.25435
72.663,0.255829
72.763,0.25435
72.863,0.254647
72.963,0.255829
73.063,0.255829
73.163,0.254647
73.263,0.255828
73.363,0.255828
73.463,0.24349
73.563,0.24349
73.663,0.253652
73.763,0.253652
73.863,0.253652
73.963,0.254517
74.063,0.254522
74.163,0.254517
74.263,0.247456
74.363,0.247456
74.463,0.247456
74.563,0.243449
74.663,0.247456
74.763,0.250398
74.863,0.250398
74.963,0.253083
75.063,0.253262
75.163,0.253262
75.263,0.253262
75.363,0.253262
75.463,0.253262
75.563,0.252297
75.663,0.250848
75.763,0.250848
75.863,0.250435
75.963,0.249692
76.063,0.249692
76.163,0.248683
76.263,0.248683
76.363,0.253662
76.463,0.253662
76.563,0.252994
76.663,0.253633
76.763,0.252994
76.863,0.252849
76.963,0.251424
77.063,0.251424
77.163,0.251424
77.263,0.251424
77.363,0.244062
77.463,0.254039
77.563,0.242931
77.663,0.242931
77.763,0.252522
77.863,0.252522
77.963,0.252522
78.063,0.252522
78.163,0.252892
78.263,0.251444
78.363,0.251588
78.463,0.251588
78.563,0.251588
78.663,0.251444
78.763,0.251588
78.863,0.24258
78.963,0.242016
79.063,0.24258
79.163,0.242097
79.263,0.242097
79.363,0.244373
79.463,0.244373
79.563,0.248357
79.663,0.248357
79.763,0.248357
79.863,0.248357
79.963,0.250049
80.063,0.251906
80.163,0.253705
80.263,0.251906
80.363,0.253705
80.463,0.25428
80.563,0.254823
80.663,0.255496
80.763,0.255526
80.863,0.255526
80.963,0.255526
81.063,0.254423
81.163,0.254423
81.263,0.254423
81.363,0.254423
81.463,0.254423
81.563,0.253737
81.663,0.253737
81.763,0.253737
81.863,0.253737
81.963,0.256037
82.063,0.257258
82.163,0.256037
82.263,0.255157
82.363,0.255157
82.463,0.255157
82.563,0.251853
82.663,0.251647
82.763,0.251853
82.863,0.251853
82.963,0.24914
83.063,0.24914
83.163,0.251247
83.263,0.251247
83.363,0.252774
83.463,0.252774
83.563,0.252774
83.663,0.25399
83.763,0.252774
83.863,0.242768
83.963,0.242768
84.063,0.242768
84.163,0.242768
84.263,0.243766
84.363,0.243766
84.463,0.251384
84.563,0.243766
84.663,0.243766
84.763,0.245392
84.863,0.251384
84.963,0.253019
85.063,0.253019
85.163,0.249031
85.263,0.252519
85.363,0.252519
85.463,0.252519
85.563,0.254654
85.663,0.255614
85.763,0.257229
85.863,0.255614
85.963,0.254654
86.063,0.255347
86.163,0.255347
86.263,0.255347
86.363,0.255347
86.463,0.255347
86.563,0.255458
86.663,0.256678
86.763,0.256678
86.863,0.256678
86.963,0.256678
87.063,0.256261
87.163,0.255587
87.263,0.255587
87.363,0.255587
87.463,0.251344
87.563,0.254505
87.663,0.254505
87.763,0.254505
87.863,0.254505
87.963,0.254505
88.063,0.253574
88.163,0.253055
88.263,0.253055
88.363,0.253055
88.463,0.253055
88.563,0.252981
88.663,0.252981
88.763,0.25285
88.863,0.25252
88.963,0.25285
89.063,0.25285
89.163,0.257286
89.263,0.257286
89.363,0.257286
89.463,0.25834
89.563,0.256437
89.663,0.25438
89.763,0.252916
89.863,0.252916
89.963,0.251267
90.563,0.251267
90.663,0.25037
90.763,0.249524
90.863,0.25037
90.963,0.25037
91.063,0.249495
91.163,0.248202
91.263,0.246566
91.363,0.245259
91.463,0.244003
91.563,0.244003
91.663,0.243939
91.763,0.243939
91.863,0.243939
91.963,0.243799
92.063,0.243786
92.163,0.243786
92.263,0.243786
92.363,0.243502
92.463,0.241655
92.563,0.241655
92.663,0.244626
92.763,0.241655
92.863,0.243713
92.963,0.243713
93.063,0.243713
93.163,0.243713
93.263,0.243965
93.363,0.244196
93.463,0.244196
93.563,0.244196
93.663,0.243965
93.763,0.2427
93.863,0.241717
93.963,0.2427
94.063,0.241596
94.163,0.241596
94.263,0.243216
94.363,0.243216
94.463,0.243424
94.563,0.243424
94.663,0.245981
94.763,0.24609
94.863,0.247398
94.963,0.247573
95.063,0.250812
95.163,0.250812
95.263,0.250812
95.363,0.251131
95.463,0.251131
95.563,0.249214
95.663,0.248246
95.763,0.247853
95.863,0.247119
95.963,0.247119
96.063,0.247853
96.163,0.252086
96.263,0.252123
96.363,0.252123
96.463,0.252306
96.563,0.254227
96.663,0.254227
96.763,0.253807
96.863,0.253807
96.963,0.25332
97.063,0.25332
97.163,0.253807
97.263,0.253599
97.363,0.25414
97.463,0.25414
97.563,0.25414
97.663,0.253599
97.763,0.25372
97.863,0.253224
97.963,0.253224
98.063,0.253168
98.163,0.253168
98.263,0.253032
98.363,0.253032
98.463,0.254046
98.563,0.254046
98.663,0.25515
98.763,0.25515
98.863,0.25324
98.963,0.2518
99.063,0.251998
99.163,0.251769
99.263,0.251998
99.363,0.251998
99.463,0.252864
99.563,0.252864
99.663,0.252864
99.763,0.253966
99.863,0.253966
99.963,0.255391
100.063,0.255391
100.163,0.255391
100.263,0.255391
100.363,0.254649
100.463,0.254649
100.563,0.255182
100.663,0.256333
100.763,0.255182
100.863,0.256333
100.963,0.256333
101.063,0.254911
101.163,0.254911
101.263,0.255539
101.363,0.253283
101.463,0.255539
101.563,0.255539
101.663,0.255492
101.763,0.255492
101.863,0.255492
101.963,0.255492
102.063,0.255718
102.163,0.256104
102.263,0.255718
102.363,0.255718
102.463,0.255165
102.563,0.255165
102.663,0.255165
102.763,0.252576
102.863,0.251254
102.963,0.256494
103.063,0.251238
103.163,0.249708
103.263,0.251238
103.363,0.253457
103.463,0.253457
103.563,0.254015
103.663,0.254502
103.763,0.259966
103.863,0.259966
103.963,0.259966
104.063,0.254568
104.163,0.25346
104.263,0.242798
104.363,0.242307
104.463,0.229571
104.563,0.222904
104.663,0.20795
104.763,0.201788
104.863,0.198852
104.963,0.198852
105.063,0.198852
105.163,0.196531
105.263,0.194788
105.363,0.194788
105.463,0.182345
105.563,0.182345
105.663,0.182345
105.763,0.193157
105.863,0.193157
105.963,0.194486
106.063,0.194486
106.163,0.188586
106.263,0.18051
106.363,0.18051
106.463,0.179837
106.563,0.179837
106.663,0.191063
106.763,0.191063
106.863,0.191063
106.963,0.196262
107.063,0.196558
107.163,0.196558
107.263,0.197805
107.363,0.196558
107.463,0.192424
107.563,0.192424
107.663,0.194298
107.763,0.192855
107.863,0.194298
107.963,0.194298
108.063,0.192855
108.163,0.192855
108.263,0.190987
108.363,0.190699
108.463,0.190145
108.563,0.189545
108.663,0.189545
108.763,0.190145
108.863,0.190968
108.963,0.191877
109.063,0.191988
109.163,0.191988
109.263,0.191988
109.363,0.191832
109.463,0.186764
109.563,0.186764
109.663,0.186764
109.763,0.186764
109.863,0.186764
109.963,0.185952
110.063,0.185952
110.163,0.185952
110.263,0.191734
110.363,0.193619
110.463,0.193619
110.563,0.192477
110.663,0.192477
110.763,0.192477
110.863,0.190717
110.963,0.190717
111.063,0.187487
111.163,0.173438
111.263,0.173438
111.363,0.173438
111.463,0.182378
111.563,0.188882
111.663,0.190413
111.763,0.194564
111.863,0.194564
111.963,0.194564
112.063,0.186564
112.163,0.185387
112.263,0.185387
112.363,0.185387
112.463,0.185354
112.563,0.183651
112.663,0.183651
112.763,0.181139
112.863,0.181139
112.963,0.181139
113.063,0.180653
113.163,0.180653
113.263,0.180653
113.363,0.179944
113.463,0.180653
