0.663,0
0.763,0
0.863,-0.314053
0.963,-0.320961
1.063,-0.320961
1.163,-0.320961
1.263,-0.31287
1.363,-0.31287
1.463,-0.31287
1.563,-0.317742
1.663,-0.320247
1.763,-0.320247
1.863,-0.320247
1.963,-0.319108
2.063,-0.319108
2.163,-0.319108
2.263,-0.321676
2.363,-0.330959
2.463,-0.33209
2.563,-0.33209
2.663,-0.33209
2.763,-0.329325
2.863,-0.327727
2.963,-0.326379
3.063,-0.327378
3.163,-0.327378
3.263,-0.326379
3.363,-0.326379
3.463,-0.327378
3.563,-0.328253
3.663,-0.337483
3.763,-0.347392
3.863,-0.353588
3.963,-0.378331
4.063,-0.399698
4.163,-0.422735
4.263,-0.444155
4.363,-0.462892
4.463,-0.468748
4.563,-0.498461
4.663,-0.546965
4.763,-0.572387
4.863,-0.601726
4.963,-0.607068
5.063,-0.609052
5.163,-0.625123
5.263,-0.637811
5.363,-0.639511
5.463,-0.654476
5.563,-0.664
5.663,-0.666144
5.763,-0.683233
5.863,-0.709883
5.963,-0.728675
6.063,-0.745295
6.163,-0.747325
6.263,-0.759045
6.363,-0.769786
6.463,-0.793764
6.563,-0.798859
6.663,-0.801593
6.763,-0.808202
6.863,-0.808202
6.963,-0.808202
7.063,-0.794659
7.163,-0.788922
7.263,-0.761883
7.363,-0.761279
7.463,-0.761883
7.563,-0.761269
7.663,-0.761883
7.763,-0.764276
7.863,-0.764657
7.963,-0.764657
8.063,-0.764657
8.163,-0.766223
8.263,-0.764657
8.363,-0.766223
8.463,-0.766102
8.563,-0.766102
8.663,-0.762982
8.763,-0.762982
8.863,-0.325212
8.963,-0.297693
9.063,-0.220707
9.163,-0.218824
9.263,-0.218356
9.363,-0.211883
9.463,-0.211883
9.563,-0.203357
9.663,-0.185098
9.763,-0.181938
9.863,-0.143151
9.963,-0.131672
10.063,-0.0839741
10.163,-0.0519974
10.263,-0.0402991
10.363,-0.0281669
10.463,-0.0246736
10.563,-0.0232656
10.663,-0.00917711
10.763,-0.00867213
10.863,0.00856004
10.963,0.0190461
11.063,0.0282508
11.163,0.0282508
11.263,0.0228266
11.363,0.0228266
11.463,0.0265902
11.563,0.0265902
11.663,0.0288773
11.763,0.0446857
11.863,0.0504775
11.963,0.133466
12.063,0.133466
12.163,0.133466
12.263,0.133466
12.363,0.133466
12.463,0.154095
12.563,0.190199
12.663,0.24225
12.763,0.24225
12.863,0.24225
12.963,0.234592
13.063,0.229029
13.163,0.20576
13.263,0.183813
13.963,0.176417
14.063,0.134907
14.163,0.033649
14.263,0.0213908
14.363,-0.0426947
14.463,-0.0700327
14.563,-0.0700327
14.663,-0.0706681
14.763,-0.0706681
14.863,-0.104775
14.963,-0.116368
15.063,-0.136138
15.163,-0.1392
15.263,-0.1392
15.363,-0.142003
15.463,-0.142003
15.563,-0.149705
15.663,-0.156617
15.763,-0.159033
15.863,-0.203588
15.963,-0.210039
16.063,-0.274446
16.163,-0.274446
16.263,-0.274446
16.363,-0.274446
16.463,-0.308248
16.563,-0.32491
16.663,-0.337166
16.763,-0.340306
16.863,-0.345715
16.963,-0.349666
17.063,-0.365324
17.163,-0.366325
17.263,-0.372101
17.363,-0.391372
17.463,-0.42161
17.563,-0.423941
17.663,-0.450179
17.763,-0.450179
17.863,-0.457645
17.963,-0.468807
18.063,-0.475509
18.163,-0.488589
18.263,-0.490762
18.363,-0.500063
18.463,-0.503531
18.563,-0.503531
18.663,-0.517314
18.763,-0.517314
18.863,-0.517314
18.963,-0.384369
19.063,-0.375387
19.163,-0.374583
19.263,-0.372703
19.363,-0.344847
19.463,-0.33555
19.563,-0.333155
19.663,-0.333155
19.763,-0.333109
19.863,-0.333109
19.963,-0.333109
20.063,-0.33521
20.163,-0.33521
20.263,-0.355435
20.363,-0.381382
20.463,-0.386528
20.563,-0.40432
20.663,-0.418812
20.763,-0.422936
20.863,-0.434608
20.963,-0.446534
21.063,-0.461585
21.163,-0.477818
21.263,-0.500008
21.363,-0.502002
21.463,-0.509071
21.563,-0.517537
21.663,-0.526477
21.763,-0.54055
21.863,-0.543645
21.963,-0.543645
22.063,-0.543645
22.163,-0.509304
22.263,-0.491022
22.363,-0.486119
22.463,-0.483496
22.563,-0.480682
22.663,-0.480682
22.763,-0.480682
22.863,-0.480746
22.963,-0.480746
23.063,-0.480746
23.163,-0.344623
23.263,-0.341458
23.363,-0.341458
23.463,-0.341458
23.563,-0.341458
23.663,-0.346736
23.763,-0.348711
23.863,-0.348711
23.963,-0.373186
24.063,-0.373861
24.163,-0.373861
24.263,-0.373861
24.363,-0.352727
24.463,-0.324177
24.563,-0.311184
24.663,-0.303169
24.763,-0.303169
24.863,-0.303169
24.963,-0.311631
25.063,-0.332692
25.163,-0.347055
25.263,-0.347567
25.363,-0.350904
25.463,-0.350904
25.563,-0.350904
25.663,-0.343956
25.763,-0.341081
25.863,-0.336173
25.963,-0.32398
26.063,-0.32398
26.163,-0.316779
26.263,-0.309472
26.363,-0.285388
26.463,-0.264232
26.563,-0.257972
26.663,-0.248784
26.763,-0.248784
26.863,-0.248784
26.963,-0.254478
27.063,-0.279592
27.163,-0.285808
27.263,-0.304078
27.363,-0.329662
27.463,-0.33953
27.563,-0.353002
27.663,-0.353002
27.763,-0.353002
27.863,-0.353543
27.963,-0.353543
28.063,-0.397977
28.163,-0.418107
28.263,-0.4319
28.363,-0.434331
28.463,-0.434331
28.563,-0.434331
28.663,-0.426315
28.763,-0.426315
28.863,-0.423869
28.963,-0.426315
29.063,-0.426315
29.163,-0.417831
29.263,-0.416479
29.363,-0.416479
29.463,-0.416479
29.563,-0.428139
29.663,-0.448193
29.763,-0.448412
29.863,-0.469111
29.963,-0.472861
30.063,-0.499707
30.163,-0.501153
30.263,-0.530095
30.363,-0.544877
30.763,-0.550479
30.863,-0.550479
30.963,-0.550479
31.063,-0.550479
31.163,-0.553002
31.263,-0.553163
31.363,-0.567797
31.463,-0.5766
31.563,-0.592842
31.663,-0.59629
31.763,-0.598594
31.863,-0.598594
31.963,-0.612289
32.063,-0.612289
32.163,-0.612289
32.263,-0.606757
32.363,-0.596948
32.463,-0.594944
32.563,-0.572273
32.663,-0.56741
32.763,-0.558947
32.863,-0.543034
32.963,-0.530616
33.063,-0.509908
33.163,-0.507353
33.263,-0.47477
33.363,-0.461572
33.463,-0.437482
33.563,-0.429334
33.663,-0.424805
33.763,-0.408939
33.863,-0.403454
33.963,-0.397442
34.063,-0.397442
34.163,-0.393284
34.263,-0.391784
34.363,-0.341631
34.463,-0.329823
34.563,-0.292225
34.663,-0.290156
34.763,-0.290156
34.863,-0.290156
34.963,-0.30107
35.063,-0.35492
35.163,-0.379264
35.263,-0.379264
35.363,-0.379264
35.463,-0.356978
35.563,-0.350427
35.663,-0.350427
35.763,-0.356978
35.863,-0.378932
35.963,-0.39551
36.063,-0.415057
36.163,-0.449654
36.263,-0.462624
36.363,-0.462624
36.463,-0.462624
36.563,-0.453162
36.663,-0.453162
36.763,-0.453162
36.863,-0.459081
36.963,-0.468212
37.063,-0.468212
37.163,-0.471771
37.263,-0.471771
37.363,-0.471771
37.463,-0.499495
37.563,-0.507176
37.663,-0.552401
37.763,-0.552401
37.863,-0.552401
37.963,-0.551385
38.063,-0.543795
38.163,-0.542934
38.263,-0.537819
38.363,-0.529804
38.463,-0.522946
38.563,-0.496856
38.663,-0.488829
38.763,-0.486237
38.863,-0.482431
38.963,-0.479721
39.563,-0.440567
39.663,-0.428996
39.763,-0.31304
39.863,-0.302348
39.963,-0.281921
40.063,-0.256761
40.163,-0.255466
40.263,-0.255466
40.363,-0.256761
40.463,-0.26574
40.563,-0.277396
40.663,-0.293113
40.763,-0.313494
40.863,-0.314502
40.963,-0.320425
41.063,-0.326478
41.163,-0.345286
41.263,-0.347692
41.363,-0.375013
41.463,-0.418682
41.563,-0.462861
41.663,-0.466173
41.763,-0.470026
41.863,-0.476972
41.963,-0.479593
42.063,-0.476972
42.163,-0.479593
42.263,-0.476972
42.363,-0.481937
42.463,-0.474626
42.563,-0.474626
42.663,-0.464267
42.763,-0.42392
42.863,-0.419719
42.963,-0.419663
43.063,-0.380173
43.163,-0.376712
43.263,-0.353882
43.363,-0.341052
43.463,-0.341052
43.563,-0.341052
43.663,-0.352264
43.763,-0.352433
43.863,-0.352433
43.963,-0.352433
44.063,-0.352433
44.163,-0.353707
44.263,-0.354723
44.363,-0.361752
44.463,-0.361752
44.563,-0.44004
44.663,-0.451161
44.763,-0.452785
44.863,-0.457477
44.963,-0.459425
45.063,-0.468086
45.163,-0.480946
45.263,-0.480946
45.363,-0.480946
45.463,-0.448886
45.563,-0.42836
45.663,-0.411114
45.763,-0.408115
45.863,-0.404933
45.963,-0.40133
46.063,-0.395156
46.163,-0.395156
46.263,-0.395156
46.363,-0.391452
46.463,-0.401182
46.563,-0.404097
46.663,-0.404273
46.763,-0.413442
46.863,-0.436367
46.963,-0.448721
47.063,-0.453997
47.163,-0.448721
47.263,-0.448721
47.363,-0.437801
47.463,-0.432717
47.563,-0.412082
47.663,-0.412015
47.763,-0.400374
47.863,-0.400203
47.963,-0.396724
48.063,-0.395905
48.163,-0.38103
48.263,-0.377421
48.363,-0.377421
48.463,-0.365811
48.563,-0.377421
48.663,-0.386114
48.763,-0.386674
48.863,-0.390023
48.963,-0.400458
49.063,-0.431732
49.163,-0.433025
49.263,-0.434317
49.363,-0.458546
49.463,-0.458702
49.563,-0.458702
49.663,-0.458702
49.763,-0.435521
49.863,-0.435521
49.963,-0.435521
50.063,-0.446954
50.163,-0.477043
50.263,-0.477043
50.363,-0.477043
50.463,-0.445879
50.563,-0.445879
50.663,-0.445879
50.763,-0.448996
50.863,-0.454557
50.963,-0.455995
51.063,-0.478618
51.163,-0.506217
51.263,-0.506217
51.363,-0.506217
51.463,-0.490596
51.563,-0.469911
51.663,-0.469911
51.763,-0.469911
51.863,-0.476561
51.963,-0.476561
52.063,-0.476629
52.163,-0.476629
52.263,-0.476561
52.363,-0.476629
52.463,-0.476629
52.563,-0.476286
52.663,-0.466212
52.763,-0.466212
52.863,-0.466212
52.963,-0.467121
53.063,-0.471463
53.163,-0.47513
53.263,-0.47513
53.363,-0.47513
53.463,-0.47513
53.563,-0.472001
53.663,-0.468
53.763,-0.468
53.863,-0.471751
53.963,-0.47052
54.063,-0.471751
54.163,-0.476796
54.263,-0.476689
54.363,-0.476689
54.463,-0.476689
54.563,-0.475203
54.663,-0.475203
54.763,-0.475203
54.863,-0.481616
54.963,-0.481616
55.063,-0.481616
55.163,-0.47344
55.263,-0.466561
55.363,-0.465026
55.463,-0.465026
55.563,-0.455291
55.663,-0.313619
55.763,-0.31212
55.863,-0.31212
55.963,-0.31212
56.063,-0.31602
56.863,-0.319282
56.963,-0.324304
57.063,-0.331388
57.163,-0.332742
57.263,-0.332742
57.363,-0.331388
57.463,-0.330515
57.563,-0.330515
57.663,-0.330515
57.763,-0.330515
57.863,-0.330499
57.963,-0.331888
58.063,-0.333036
58.163,-0.330894
58.263,-0.333036
58.363,-0.335707
58.463,-0.335795
58.563,-0.335795
58.663,-0.335795
58.763,-0.336283
58.863,-0.336283
58.963,-0.336618
59.063,-0.336618
59.163,-0.336618
59.263,-0.337712
59.363,-0.334899
59.463,-0.33342
59.563,-0.332316
59.663,-0.330325
59.763,-0.330325
59.863,-0.329819
59.963,-0.329819
60.063,-0.330167
60.163,-0.330167
60.263,-0.326788
60.363,-0.328176
60.463,-0.325719
60.563,-0.325719
60.663,-0.324766
60.763,-0.324766
60.863,-0.324432
60.963,-0.324766
61.063,-0.324118
61.163,-0.322181
61.263,-0.316143
61.363,-0.316143
61.463,-0.315921
61.563,-0.315388
61.663,-0.312679
61.763,-0.315388
61.863,-0.314608
61.963,-0.314608
62.063,-0.314608
62.163,-0.314608
62.263,-0.314608
62.363,-0.3092
62.463,-0.3092
62.563,-0.312012
62.663,-0.314708
62.763,-0.313747
62.863,-0.314708
62.963,-0.313747
63.063,-0.31799
63.163,-0.313747
63.263,-0.317386
63.363,-0.312084
63.463,-0.312084
63.563,-0.312084
63.663,-0.312572
63.763,-0.303853
63.863,-0.312572
63.963,-0.313393
64.063,-0.313731
64.163,-0.313731
64.263,-0.315216
64.363,-0.318883
64.463,-0.318883
65.063,-0.318883
65.163,-0.318592
65.263,-0.318296
65.363,-0.314099
65.463,-0.314099
65.563,-0.314099
65.663,-0.311046
65.763,-0.314099
65.863,-0.317271
65.963,-0.311046
66.063,-0.311046
66.163,-0.316973
66.263,-0.313226
66.363,-0.310188
66.463,-0.309645
66.563,-0.313226
66.663,-0.313226
66.763,-0.316413
66.863,-0.316413
66.963,-0.316413
67.063,-0.314457
67.163,-0.314457
67.263,-0.314457
67.363,-0.318507
67.463,-0.320463
67.563,-0.321055
67.663,-0.321887
67.763,-0.321887
67.863,-0.321962
67.963,-0.321887
68.063,-0.320918
68.163,-0.319944
68.263,-0.319944
68.363,-0.318304
68.463,-0.317161
68.563,-0.317161
68.663,-0.318304
68.763,-0.319127
68.863,-0.319127
68.963,-0.319127
69.063,-0.319799
69.163,-0.318987
69.263,-0.318236
69.363,-0.316733
69.463,-0.316733
69.563,-0.309592
69.663,-0.309592
69.763,-0.309592
69.863,-0.317371
69.963,-0.309592
70.063,-0.31625
70.163,-0.31625
70.263,-0.31625
70.363,-0.31625
70.463,-0.31625
70.563,-0.31863
70.663,-0.311516
70.763,-0.318584
70.863,-0.318584
70.963,-0.318768
71.063,-0.318768
71.163,-0.318768
71.263,-0.318768
71.363,-0.318791
71.463,-0.3141
71.563,-0.311077
71.663,-0.3141
71.763,-0.318791
71.863,-0.318897
71.963,-0.318897
72.063,-0.319097
72.163,-0.318897
72.263,-0.318437
72.363,-0.318437
72.463,-0.318437
72.563,-0.317816
72.663,-0.318437
72.763,-0.319478
72.863,-0.319478
72.963,-0.319478
73.063,-0.319578
73.163,-0.319578
73.263,-0.319578
73.363,-0.318204
73.463,-0.311503
73.563,-0.311503
73.663,-0.313782
73.763,-0.313782
73.863,-0.313782
73.963,-0.320291
74.063,-0.322239
74.163,-0.320291
74.263,-0.314221
74.363,-0.314221
74.463,-0.314221
74.563,-0.312102
74.663,-0.314221
74.763,-0.320937
74.863,-0.320937
74.963,-0.321929
75.063,-0.321929
75.163,-0.320394
75.263,-0.320061
75.363,-0.320061
75.463,-0.320061
75.563,-0.320061
75.663,-0.320061
75.763,-0.319178
75.863,-0.317271
75.963,-0.317271
76.063,-0.319326
76.163,-0.313942
76.263,-0.319326
76.363,-0.320796
76.463,-0.321212
76.563,-0.321387
76.663,-0.321537
76.763,-0.321537
76.863,-0.321735
76.963,-0.321537
77.063,-0.322466
77.163,-0.321601
77.263,-0.321601
77.363,-0.316015
77.463,-0.315112
77.563,-0.310191
77.663,-0.310191
77.763,-0.315112
77.863,-0.315112
77.963,-0.321
78.063,-0.321
78.163,-0.321
78.263,-0.321
78.363,-0.323583
78.463,-0.324489
78.563,-0.324489
78.663,-0.323583
78.763,-0.320271
78.863,-0.313521
78.963,-0.311149
79.063,-0.311149
79.163,-0.311402
79.263,-0.311402
79.363,-0.317892
79.463,-0.317892
79.563,-0.320558
79.663,-0.320558
79.763,-0.319382
79.863,-0.316058
79.963,-0.319382
80.063,-0.319382
80.163,-0.32214
80.263,-0.32214
80.363,-0.32214
80.463,-0.32214
80.563,-0.322072
80.663,-0.321154
80.763,-0.321643
80.863,-0.321154
80.963,-0.321154
81.063,-0.32117
81.163,-0.32117
81.263,-0.317697
81.363,-0.317697
81.463,-0.317697
81.563,-0.317697
81.663,-0.317697
81.763,-0.320141
81.863,-0.323622
81.963,-0.320141
82.063,-0.320141
82.163,-0.320141
82.263,-0.320818
82.363,-0.320125
82.463,-0.320818
82.563,-0.320125
82.663,-0.321841
82.763,-0.321841
82.863,-0.321841
82.963,-0.318755
83.063,-0.323539
83.163,-0.322854
83.263,-0.315542
83.363,-0.321745
83.463,-0.321745
83.563,-0.321745
83.663,-0.321745
83.763,-0.321745
83.863,-0.31373
83.963,-0.31373
84.063,-0.31373
84.163,-0.31373
84.263,-0.311427
84.363,-0.311427
84.463,-0.321708
84.563,-0.309872
84.663,-0.309872
84.763,-0.309343
84.863,-0.32126
84.963,-0.32126
85.063,-0.32126
85.163,-0.317035
85.263,-0.32126
85.363,-0.317035
85.463,-0.317035
85.563,-0.319301
85.663,-0.320195
85.763,-0.320195
85.863,-0.320195
85.963,-0.320195
86.063,-0.321213
86.163,-0.322098
86.263,-0.322098
86.363,-0.322508
86.463,-0.322098
86.563,-0.321703
86.663,-0.320529
86.763,-0.320533
86.863,-0.320529
86.963,-0.320529
87.063,-0.320529
87.163,-0.320533
87.263,-0.320907
87.363,-0.322368
87.463,-0.322368
87.563,-0.322066
87.663,-0.322066
87.763,-0.322066
87.863,-0.321869
87.963,-0.322066
88.063,-0.322234
88.163,-0.324432
88.263,-0.324432
88.363,-0.324432
88.463,-0.323564
88.563,-0.323045
88.663,-0.323045
88.763,-0.32268
88.863,-0.32268
88.963,-0.32268
89.063,-0.322387
89.163,-0.318974
89.263,-0.318347
89.363,-0.312805
89.463,-0.311792
89.563,-0.311792
89.663,-0.312805
89.763,-0.315036
89.863,-0.316839
89.963,-0.316874
90.563,-0.319664
90.663,-0.319664
90.763,-0.319998
90.863,-0.320358
90.963,-0.320358
91.063,-0.31911
91.163,-0.320358
91.263,-0.319774
91.363,-0.31911
91.463,-0.315272
91.563,-0.315272
91.663,-0.314115
91.763,-0.312437
91.863,-0.311841
91.963,-0.311841
92.063,-0.312437
92.163,-0.31349
92.263,-0.31349
92.363,-0.315098
92.463,-0.313589
92.563,-0.313589
92.663,-0.313035
92.763,-0.313589
92.863,-0.313035
92.963,-0.311259
93.063,-0.310378
93.163,-0.311259
93.263,-0.311259
93.363,-0.311259
93.463,-0.309911
93.563,-0.309911
93.663,-0.309911
93.763,-0.309911
93.863,-0.311556
93.963,-0.311556
94.063,-0.311664
94.163,-0.311556
94.263,-0.309152
94.363,-0.308983
94.463,-0.308748
94.563,-0.308748
94.663,-0.307576
94.763,-0.308748
94.863,-0.308748
94.963,-0.311084
95.063,-0.307873
95.163,-0.309443
95.263,-0.309407
95.363,-0.309407
95.463,-0.307873
95.563,-0.307691
95.663,-0.307691
95.763,-0.307691
95.863,-0.311786
95.963,-0.311786
96.063,-0.311786
96.163,-0.303606
96.263,-0.303606
96.363,-0.303606
96.463,-0.303707
96.563,-0.303707
96.663,-0.303707
96.763,-0.304652
96.863,-0.304652
96.963,-0.304652
97.063,-0.304652
97.163,-0.304652
97.263,-0.304128
97.363,-0.303695
97.463,-0.303695
97.563,-0.303695
97.663,-0.304128
97.763,-0.303695
97.863,-0.302114
97.963,-0.301772
98.063,-0.302114
98.163,-0.301772
98.263,-0.302114
98.363,-0.301772
98.463,-0.300453
98.563,-0.300453
98.663,-0.300451
98.763,-0.300451
98.863,-0.305377
98.963,-0.305377
99.063,-0.301242
99.163,-0.306226
99.263,-0.304087
99.363,-0.304087
99.463,-0.304087
99.563,-0.304087
99.663,-0.302962
99.763,-0.302962
99.863,-0.30284
99.963,-0.302962
100.063,-0.302962
100.163,-0.303037
100.263,-0.30284
100.363,-0.303037
100.463,-0.304007
100.563,-0.304007
100.663,-0.302354
100.763,-0.304007
100.863,-0.304007
100.963,-0.304231
101.063,-0.305157
101.163,-0.305157
101.263,-0.306318
101.363,-0.306831
101.463,-0.306318
101.563,-0.304388
101.663,-0.303811
101.763,-0.303811
101.863,-0.303811
101.963,-0.302737
102.063,-0.302865
102.163,-0.303147
102.263,-0.303147
102.363,-0.303147
102.463,-0.303147
102.563,-0.303147
102.663,-0.303073
102.763,-0.303073
102.863,-0.303073
102.963,-0.304869
103.063,-0.304869
103.163,-0.311365
103.263,-0.305761
103.363,-0.304869
103.463,-0.305761
103.563,-0.307947
103.663,-0.305761
103.763,-0.302733
103.863,-0.307947
103.963,-0.30501
104.063,-0.30501
104.163,-0.30829
104.263,-0.313432
104.363,-0.320105
104.463,-0.334287
104.563,-0.345838
104.663,-0.353436
104.763,-0.353436
104.863,-0.358409
104.963,-0.358409
105.063,-0.353436
105.163,-0.356297
105.263,-0.358594
105.363,-0.358341
105.463,-0.356297
105.563,-0.356297
105.663,-0.353
105.763,-0.347243
105.863,-0.346906
105.963,-0.346906
106.063,-0.347243
106.163,-0.349326
106.263,-0.354773
106.363,-0.354773
106.463,-0.356775
106.563,-0.356775
106.663,-0.349477
106.763,-0.349477
106.863,-0.349477
106.963,-0.347475
107.063,-0.347301
107.163,-0.347301
107.263,-0.346671
107.363,-0.346671
107.463,-0.349131
107.563,-0.350033
107.663,-0.349131
107.763,-0.349131
107.863,-0.347724
107.963,-0.347724
108.063,-0.347724
108.163,-0.348029
108.263,-0.350753
108.363,-0.350989
108.463,-0.350989
108.563,-0.354559
108.663,-0.354559
108.763,-0.351212
108.863,-0.351212
108.963,-0.351212
109.063,-0.351087
109.163,-0.351087
109.263,-0.351114
109.363,-0.351114
109.463,-0.356161
109.563,-0.356161
109.663,-0.356161
109.763,-0.356161
109.863,-0.356161
109.963,-0.353798
110.063,-0.353798
110.163,-0.353798
110.263,-0.350561
110.363,-0.350554
110.463,-0.350554
110.563,-0.350554
110.663,-0.349486
110.763,-0.349486
110.863,-0.348858
110.963,-0.348858
111.063,-0.355526
111.163,-0.370215
111.263,-0.370215
111.363,-0.370215
111.463,-0.362607
111.563,-0.350684
111.663,-0.348666
111.763,-0.346883
111.863,-0.346883
111.963,-0.346883
112.063,-0.353182
112.163,-0.353182
112.263,-0.353182
112.363,-0.353182
112.463,-0.353182
112.563,-0.356186
112.663,-0.356186
112.763,-0.359623
112.863,-0.359623
112.963,-0.356588
113.063,-0.355837
113.163,-0.355837
113.263,-0.354687
113.363,-0.354687
113.463,-0.353452
