0.663,-nan
0.763,-nan
0.863,-0.1
0.963,0.1
1.063,-0.1
1.163,-0.1
1.263,-0.1
1.363,-0.1
1.463,-0.1
1.563,-0.0414237
1.663,-0.1
1.763,-0.1
1.863,-0.1
1.963,-0.1
2.063,-0.1
2.163,-0.1
2.263,-0.1
2.363,0.1
2.463,-0.1
2.563,-0.1
2.663,-0.1
2.763,-0.1
2.863,-0.1
2.963,-0.1
3.063,-0.1
3.163,-0.1
3.263,-0.1
3.373,-0.1
3.563,-0.1
3.663,-0.1
3.763,-0.1
3.863,-0.1
3.963,0.1
4.063,0.1
4.163,0.1
4.263,0.1
4.363,0.1
4.463,0.1
4.563,0.1
4.663,0.1
4.763,-0.1
4.863,-0.1
4.963,-0.1
5.103,-0.1
5.203,-0.1
5.303,-0.1
5.403,-0.1
5.503,-0.1
5.603,-0.1
5.703,-0.1
5.803,-0.1
5.903,-0.1
6.003,-0.1
6.103,-0.1
6.203,-0.1
6.303,-0.1
6.403,-0.1
6.523,-0.1
6.663,-0.1
6.763,-0.1
6.863,-0.1
6.963,-0.1
7.063,-0.1
7.163,-0.1
7.263,-0.1
7.363,-0.1
7.463,-0.099234
7.563,0.1
7.663,0.1
7.763,0.1
7.863,0.1
7.963,0.1
8.063,0.1
8.163,0.1
8.263,0.1
8.363,0.1
8.463,0.1
8.563,0.1
8.663,0.1
8.763,0.1
8.863,-0.1
8.963,0.1
9.063,-0.1
9.163,0.1
9.263,0.1
9.363,0.1
9.463,0.1
9.563,0.1
9.663,0.1
9.763,0.1
9.863,0.1
9.963,0.1
10.063,-0.1
10.163,0.1
10.263,0.1
10.363,0.1
10.463,0.1
10.563,0.1
10.663,0.1
10.763,0.1
10.863,0.1
10.963,0.1
11.063,0.1
11.163,0.1
11.263,0.1
11.363,0.1
11.463,0.1
11.563,0.1
11.663,0.1
11.763,-0.1
11.863,0.1
11.963,-0.1
12.063,0.1
12.163,0.1
12.263,-0.1
12.363,-0.1
12.463,-0.1
12.563,-0.1
12.663,-0.1
12.763,-0.1
12.863,-0.1
12.963,-0.1
13.063,-0.1
13.163,-0.1
13.263,-0.1
13.983,-0.1
14.123,-0.1
14.263,-0.1
14.363,0.1
14.463,-0.1
14.563,0.1
14.663,-0.1
14.763,-0.1
14.863,-0.1
14.963,-0.1
15.063,-0.1
15.163,-0.1
15.263,-0.1
15.363,-0.1
15.463,-0.1
15.563,-0.1
15.663,-0.1
15.763,-0.1
15.863,-0.1
15.963,-0.1
16.063,-0.1
16.163,-0.1
16.263,-0.1
16.363,-0.1
16.463,-0.1
16.563,-0.1
16.663,-0.1
16.763,-0.1
16.863,-0.1
16.963,-0.1
17.063,-0.1
17.163,-0.1
17.263,-0.1
17.363,-0.1
17.463,-0.1
17.563,-0.1
17.663,-0.1
17.763,-0.1
17.863,-0.1
17.963,0.1
18.063,-0.1
18.163,0.0748458
18.263,0.050798
18.363,0.1
18.463,0.1
18.563,0.1
18.663,-0.1
18.763,0.1
18.863,-0.1
18.963,0.1
19.063,0.1
19.163,0.1
19.263,0.1
19.363,0.1
19.463,-0.0620854
19.563,0.1
19.663,0.1
19.763,-0.1
19.863,-0.1
19.963,-0.1
20.063,-0.1
20.163,-0.1
20.263,-0.1
20.363,-0.1
20.463,-0.1
20.563,-0.1
20.663,-0.1
20.763,-0.1
20.863,-0.1
20.963,-0.0950873
21.063,-0.1
21.163,-0.1
21.263,-0.1
21.363,-0.1
21.463,-0.0659657
21.563,-0.1
21.663,-0.1
21.763,-0.1
21.863,-0.1
21.963,-0.1
22.063,0.1
22.163,0.1
22.263,-0.1
22.363,0.1
22.463,-0.1
22.563,-0.041802
22.663,0.1
22.763,-0.1
22.863,0.1
22.963,0.1
23.063,-0.1
23.163,0.1
23.263,-0.1
23.363,0.1
23.463,-0.0332093
23.563,-0.1
23.663,0.1
23.763,0.1
23.863,0.1
23.963,0.1
24.063,0.1
24.163,0.1
24.263,0.1
24.363,0.1
24.463,-0.1
24.563,0.1
24.663,-0.0958501
24.763,-0.1
24.863,0.1
24.963,0.1
25.063,-0.1
25.163,0.1
25.263,0.1
25.363,0.1
25.463,0.1
25.563,0.1
25.663,0.1
25.763,0.1
25.863,0.1
25.963,-0.1
26.063,0.1
26.163,-0.1
26.263,-0.1
26.363,0.1
26.463,-0.0207064
26.563,-0.1
26.663,-0.1
26.763,-0.1
26.863,-0.1
26.963,-0.1
27.063,-0.1
27.163,-0.1
27.263,0.1
27.363,-0.1
27.463,0.1
27.563,-0.1
27.663,-0.1
27.763,-0.1
27.863,0.1
27.963,-0.1
28.063,-0.1
28.163,0.1
28.263,-0.1
28.363,0.1
28.463,-0.1
28.563,0.1
28.663,-0.1
28.763,0.1
28.863,-0.1
28.963,0.1
29.063,-0.1
29.163,-0.1
29.263,-0.1
29.363,-0.1
29.463,-0.1
29.563,-0.1
29.663,-0.1
29.763,0.0767924
29.863,0.0332828
29.963,-0.1
30.063,0.1
30.163,0.0430867
30.263,0.1
30.363,0.1
30.763,-0.0286929
30.863,-0.0288732
30.963,-0.1
31.063,-0.1
31.163,-0.1
31.263,-0.1
31.363,-0.0438574
31.463,-0.1
31.563,-0.1
31.663,0.1
31.763,0.1
31.863,0.1
31.963,0.1
32.063,0.1
32.163,0.1
32.263,0.1
32.363,0.1
32.463,0.1
32.563,0.1
32.663,0.1
32.763,0.1
32.863,0.1
32.963,0.1
33.063,0.1
33.163,0.1
33.263,0.1
33.363,0.1
33.463,0.1
33.563,0.1
33.663,-0.1
33.763,0.1
33.863,0.1
33.963,-0.1
34.063,0.1
34.163,0.1
34.263,-0.1
34.363,-0.1
34.463,-0.1
34.563,-0.1
34.663,-0.1
34.763,0.1
34.863,-0.1
34.963,0.1
35.063,0.1
35.163,-0.1
35.263,-0.1
35.363,-0.1
35.463,-0.1
35.563,-0.1
35.663,-0.1
35.763,-0.1
35.863,-0.1
35.963,-0.1
36.063,-0.1
36.163,0.1
36.263,0.1
36.363,-0.1
36.463,0.1
36.563,-0.1
36.663,0.1
36.763,0.1
36.863,0.0864764
36.963,-0.1
37.063,-0.1
37.163,0.1
37.263,-0.09105
37.363,0.1
37.463,-0.1
37.563,0.1
37.663,0.1
37.763,0.1
37.863,0.1
37.963,0.1
38.063,0.1
38.163,0.1
38.263,0.1
38.363,0.1
38.463,0.1
38.563,0.1
38.663,0.1
38.763,0.1
38.863,0.1
38.963,0.1
39.603,0.1
39.763,-0.1
39.863,0.1
39.963,-0.1
40.063,-0.1
40.163,-0.1
40.263,-0.1
40.363,-0.1
40.463,-0.1
40.563,-0.1
40.663,-0.1
40.763,-0.1
40.863,-0.1
40.963,-0.1
41.063,-0.1
41.163,-0.1
41.263,-0.1
41.363,-0.1
41.463,0.1
41.563,0.1
41.663,-0.1
41.763,0.1
41.863,0.1
41.963,0.1
42.063,0.1
42.163,0.1
42.263,0.1
42.363,0.1
42.463,0.1
42.563,0.1
42.663,0.1
42.763,-0.1
42.863,0.1
42.963,0.1
43.063,-0.1
43.163,0.1
43.263,-0.1
43.363,-0.1
43.463,-0.1
43.563,-0.1
43.663,-0.1
43.763,0.1
43.863,-0.1
43.963,-0.1
44.063,0.1
44.163,-0.1
44.263,-0.1
44.363,0.1
44.463,0.1
44.563,-0.1
44.663,0.1
44.763,-0.1
44.863,0.1
44.963,0.1
45.063,0.1
45.163,0.1
45.263,0.1
45.363,0.1
45.463,0.1
45.563,-0.1
45.663,-0.1
45.763,0.1
45.863,0.1
45.963,-0.1
46.063,0.1
46.163,-0.1
46.263,-0.0930636
46.363,-0.1
46.463,-0.1
46.563,-0.1
46.663,0.0781185
46.763,0.1
46.863,0.1
46.963,-0.1
47.063,0.1
47.163,0.1
47.263,0.1
47.363,-0.0991609
47.463,0.1
47.563,0.1
47.663,-0.1
47.763,0.1
47.863,0.0864906
47.963,-0.1
48.063,-0.1
48.163,0.1
48.263,-0.1
48.363,-0.0136805
48.463,-0.1
48.563,-0.1
48.663,-0.1
48.763,-0.1
48.863,-0.1
48.963,-0.1
49.063,-0.1
49.163,0.1
49.263,-0.1
49.363,0.1
49.463,-0.1
49.563,-0.1
49.663,-0.1
49.763,-0.1
49.863,-0.1
49.963,-0.1
50.063,-0.1
50.163,-0.1
50.263,-0.1
50.363,-0.1
50.463,-0.1
50.563,-0.1
50.663,-0.1
50.763,-0.1
50.863,-0.1
50.963,-0.1
51.063,0.1
51.163,0.0288476
51.263,-0.1
51.363,-0.1
51.463,-0.1
51.563,-0.1
51.663,-0.1
51.763,-0.1
51.863,-0.1
51.963,-0.1
52.063,-0.1
52.163,-0.1
52.263,-0.1
52.363,-0.1
52.463,-0.1
52.563,-0.1
52.663,-0.1
52.763,-0.1
52.863,-0.1
52.963,-0.1
53.063,-0.1
53.163,-0.1
53.263,-0.1
53.363,-0.1
53.463,-0.1
53.563,-0.1
53.663,-0.1
53.763,-0.1
53.863,-0.1
53.963,-0.1
54.063,-0.1
54.163,-0.1
54.263,-0.1
54.363,-0.1
54.463,-0.1
54.563,-0.1
54.663,-0.1
54.763,-0.1
54.863,-0.1
54.963,-0.1
55.063,-0.1
55.163,-0.1
55.263,-0.1
55.363,-0.1
55.463,-0.1
55.563,-0.1
55.663,-0.1
55.763,-0.1
55.863,-0.1
55.963,-0.1
56.063,-0.1
56.863,-0.1
56.963,-0.1
57.063,-0.1
57.163,-0.1
57.263,-0.1
57.363,-0.1
57.463,-0.1
57.563,-0.1
57.663,-0.1
57.763,-0.1
57.863,-0.1
57.963,-0.1
58.063,-0.1
58.163,-0.1
58.263,-0.1
58.363,-0.1
58.463,-0.1
58.563,-0.1
58.663,-0.1
58.763,-0.1
58.863,-0.1
58.963,-0.1
59.063,-0.1
59.163,-0.1
59.263,-0.1
59.363,-0.1
59.463,-0.1
59.563,-0.1
59.663,-0.1
59.763,-0.1
59.863,-0.1
59.963,-0.1
60.063,-0.1
60.163,-0.1
60.263,-0.1
60.363,-0.1
60.463,-0.1
60.563,-0.1
60.663,-0.1
60.763,-0.1
60.863,-0.1
60.963,-0.1
61.063,-0.1
61.163,-0.1
61.263,-0.1
61.363,-0.1
61.463,-0.1
61.563,-0.1
61.663,-0.1
61.763,-0.1
61.863,-0.1
61.963,-0.1
62.063,-0.1
62.163,-0.1
62.263,-0.1
62.363,-0.1
62.463,-0.1
62.563,-0.1
62.663,-0.1
62.763,-0.1
62.863,-0.1
62.963,-0.1
63.063,-0.1
63.163,-0.1
63.263,-0.1
63.363,-0.1
63.463,-0.1
63.563,-0.1
63.663,-0.1
63.763,-0.1
63.863,-0.1
63.963,-0.1
64.063,-0.1
64.163,-0.1
64.263,-0.1
64.363,-0.1
64.463,-0.1
65.063,-0.1
65.203,-0.1
65.323,-0.1
65.443,-0.1
65.543,-0.1
65.663,-0.1
65.763,-0.1
65.863,-0.1
65.963,-0.1
66.063,-0.1
66.163,-0.1
66.263,-0.1
66.363,-0.1
66.463,-0.1
66.563,-0.1
66.663,-0.1
66.763,-0.1
66.863,-0.1
66.963,-0.1
67.063,-0.1
67.163,-0.1
67.263,-0.1
67.363,-0.1
67.463,-0.1
67.563,-0.1
67.663,-0.1
67.763,-0.1
67.863,-0.1
67.963,-0.1
68.063,-0.1
68.163,-0.1
68.263,-0.1
68.363,-0.1
68.463,-0.1
68.563,-0.1
68.663,-0.1
68.763,-0.1
68.863,-0.1
68.963,-0.1
69.063,-0.1
69.163,-0.1
69.263,-0.1
69.363,-0.1
69.463,-0.1
69.563,-0.1
69.663,-0.1
69.763,-0.1
69.863,-0.1
69.963,-0.1
70.063,-0.1
70.163,-0.1
70.263,-0.1
70.363,-0.1
70.463,-0.1
70.563,-0.1
70.663,-0.1
70.763,-0.1
70.863,-0.1
70.963,-0.1
71.063,-0.1
71.163,-0.1
71.263,-0.1
71.363,-0.1
71.463,-0.1
71.563,-0.1
71.663,-0.1
71.763,-0.1
71.863,-0.1
71.963,-0.1
72.063,-0.1
72.163,-0.1
72.263,-0.1
72.363,-0.1
72.463,-0.1
72.563,-0.1
72.663,-0.1
72.763,-0.1
72.863,-0.1
72.963,-0.1
73.063,-0.1
73.163,-0.1
73.303,-0.1
73.403,-0.1
73.503,-0.1
73.603,-0.1
73.703,-0.1
73.803,-0.1
73.943,-0.1
74.063,-0.1
74.163,-0.1
74.263,-0.1
74.363,-0.1
74.463,-0.1
74.563,-0.1
74.663,-0.1
74.763,-0.1
74.863,-0.1
74.963,-0.1
75.063,-0.1
75.163,-0.1
75.263,-0.1
75.363,-0.1
75.463,-0.1
75.563,-0.1
75.663,-0.1
75.763,-0.1
75.863,-0.1
75.963,-0.1
76.063,-0.1
76.163,-0.1
76.263,-0.1
76.363,-0.1
76.463,-0.1
76.563,-0.1
76.663,-0.1
76.763,-0.1
76.863,-0.1
76.963,-0.1
77.063,-0.1
77.163,-0.1
77.263,-0.1
77.363,-0.1
77.463,-0.1
77.563,-0.1
77.663,-0.1
77.763,-0.1
77.863,-0.1
77.963,-0.1
78.063,-0.1
78.163,-0.1
78.263,-0.1
78.363,-0.1
78.463,-0.1
78.563,-0.1
78.663,-0.1
78.763,-0.1
78.863,-0.1
78.963,-0.1
79.063,-0.1
79.163,-0.1
79.263,-0.1
79.363,-0.1
79.463,-0.1
79.563,-0.1
79.663,-0.1
79.763,-0.1
79.863,-0.1
79.963,-0.1
80.063,-0.1
80.163,-0.1
80.263,-0.1
80.363,-0.1
80.463,-0.1
80.563,-0.1
80.663,-0.1
80.763,-0.1
80.863,-0.1
80.963,-0.1
81.063,-0.1
81.163,-0.1
81.263,-0.1
81.363,-0.1
81.463,-0.1
81.563,-0.1
81.663,-0.1
81.763,-0.1
81.863,-0.1
81.963,-0.1
82.063,-0.1
82.163,-0.1
82.263,-0.1
82.363,-0.1
82.463,-0.1
82.563,-0.1
82.663,-0.1
82.763,-0.1
82.863,-0.1
82.963,-0.1
83.063,-0.1
83.163,-0.1
83.263,-0.1
83.363,-0.1
83.463,-0.1
83.563,-0.1
83.663,-0.1
83.763,-0.1
83.863,-0.1
83.963,-0.1
84.063,-0.1
84.163,-0.1
84.263,-0.1
84.363,-0.1
84.463,-0.1
84.563,-0.1
84.663,-0.1
84.763,-0.1
84.863,-0.1
84.963,-0.1
85.063,-0.1
85.163,-0.1
85.263,-0.1
85.363,-0.1
85.463,-0.1
85.563,-0.1
85.663,-0.1
85.763,-0.1
85.863,-0.1
85.963,-0.1
86.063,-0.1
86.163,-0.1
86.263,-0.1
86.363,-0.1
86.463,-0.1
86.563,-0.1
86.663,-0.1
86.763,-0.1
86.863,-0.1
86.963,-0.1
87.063,-0.1
87.163,-0.1
87.263,-0.1
87.363,-0.1
87.463,-0.1
87.563,-0.1
87.663,-0.1
87.763,-0.1
87.863,-0.1
87.963,-0.1
88.063,-0.1
88.163,-0.1
88.263,-0.1
88.363,-0.1
88.463,-0.1
88.563,-0.1
88.663,-0.1
88.763,-0.1
88.863,-0.1
88.963,-0.1
89.063,-0.1
89.163,-0.1
89.263,-0.1
89.363,-0.1
89.463,-0.1
89.563,-0.1
89.663,-0.1
89.763,-0.1
89.863,-0.1
89.963,-0.1
90.563,-0.1
90.663,-0.1
90.763,-0.1
90.863,-0.1
90.963,-0.1
91.063,-0.1
91.163,-0.1
91.263,-0.1
91.363,-0.1
91.463,-0.1
91.563,-0.1
91.663,-0.1
91.763,-0.1
91.863,-0.1
91.963,-0.1
92.063,-0.1
92.163,-0.1
92.263,-0.1
92.363,-0.1
92.463,-0.1
92.563,-0.1
92.663,-0.1
92.763,-0.1
92.863,-0.1
92.963,-0.1
93.063,-0.1
93.163,-0.1
93.263,-0.1
93.363,-0.1
93.463,-0.1
93.563,-0.1
93.663,-0.1
93.763,-0.1
93.863,-0.1
93.963,-0.1
94.063,-0.1
94.163,-0.1
94.263,-0.1
94.363,-0.1
94.463,-0.1
94.563,-0.1
94.663,-0.1
94.763,-0.1
94.863,-0.1
94.963,-0.1
95.063,-0.1
95.163,-0.1
95.263,-0.1
95.363,-0.1
95.463,-0.1
95.563,-0.1
95.663,-0.1
95.763,-0.1
95.863,-0.1
95.963,-0.1
96.063,-0.1
96.163,-0.1
96.263,-0.1
96.363,-0.1
96.463,-0.1
96.563,-0.1
96.663,-0.1
96.763,-0.1
96.863,-0.1
96.963,-0.1
97.063,-0.1
97.163,-0.1
97.263,-0.1
97.363,-0.1
97.463,-0.1
97.563,-0.1
97.663,-0.1
97.763,-0.1
97.863,-0.1
97.963,-0.1
98.063,-0.1
98.163,-0.1
98.263,-0.1
98.363,-0.1
98.463,-0.1
98.563,-0.1
98.663,-0.1
98.763,-0.1
98.863,-0.1
98.963,-0.1
99.063,-0.1
99.163,-0.1
99.263,-0.1
99.363,-0.1
99.463,-0.1
99.563,-0.1
99.663,-0.1
99.763,-0.1
99.863,-0.1
99.963,-0.1
100.063,-0.1
100.163,-0.1
100.263,-0.1
100.363,-0.1
100.463,-0.1
100.563,-0.1
100.663,-0.1
100.763,-0.1
100.863,-0.1
100.963,-0.1
101.063,-0.1
101.163,-0.1
101.263,-0.1
101.363,-0.1
101.463,-0.1
101.563,-0.1
101.663,-0.1
101.763,-0.1
101.863,-0.1
101.963,-0.1
102.063,-0.1
102.163,-0.1
102.263,-0.1
102.363,-0.1
102.463,-0.1
102.563,-0.1
102.663,-0.1
102.763,-0.1
102.863,-0.1
102.963,-0.1
103.063,-0.1
103.163,-0.1
103.263,-0.1
103.363,-0.1
103.463,-0.1
103.563,-0.1
103.663,-0.1
103.763,-0.1
103.863,-0.1
103.963,-0.1
104.063,-0.1
104.163,-0.1
104.263,-0.1
104.363,-0.1
104.463,-0.1
104.563,-0.1
104.663,-0.1
104.763,-0.1
104.863,-0.1
104.963,-0.1
105.063,-0.1
105.163,-0.1
105.263,-0.1
105.363,-0.1
105.463,-0.1
105.563,-0.1
105.663,-0.1
105.763,-0.1
105.863,-0.1
105.963,-0.1
106.063,-0.1
106.163,-0.1
106.263,-0.1
106.363,-0.1
106.463,-0.1
106.563,-0.1
106.663,-0.1
106.763,-0.1
106.863,-0.1
106.963,-0.1
107.063,-0.1
107.163,-0.1
107.263,-0.1
107.363,-0.1
107.463,-0.1
107.563,-0.1
107.663,-0.1
107.763,-0.1
107.863,-0.1
107.963,-0.1
108.063,-0.1
108.163,-0.1
108.263,-0.1
108.363,-0.1
108.463,-0.1
108.563,-0.1
108.663,-0.1
108.763,-0.1
108.863,-0.1
108.963,-0.1
109.063,-0.1
109.163,-0.1
109.263,-0.1
109.363,-0.1
109.463,-0.1
109.563,-0.1
109.663,-0.1
109.763,-0.1
109.863,-0.1
109.963,-0.1
110.063,-0.1
110.163,-0.1
110.263,-0.1
110.363,-0.1
110.463,-0.1
110.563,-0.1
110.663,-0.1
110.763,-0.1
110.863,-0.1
110.963,-0.1
111.063,-0.1
111.163,-0.1
111.303,-0.1
111.403,-0.1
111.563,-0.1
111.663,-0.1
111.763,-0.1
111.863,-0.1
111.963,-0.1
112.063,-0.1
112.163,-0.1
112.263,-0.1
112.363,-0.1
112.463,-0.1
112.563,-0.1
112.663,-0.1
112.763,-0.1
112.863,-0.1
112.963,-0.1
113.063,-0.1
113.163,-0.1
113.263,-0.1
113.363,-0.1
113.463,-0.1
