0.679,0,0
0.779,0,0
0.879,0,0
0.979,0,0
1.079,0,0
1.179,0,0
1.279,0,0
1.379,0,0
1.479,0,0
1.579,0,0
1.679,0,0
1.779,0,0
1.879,0,0
1.979,0,0
2.079,0,0
2.179,0,0
2.279,0,0
2.379,0,0
2.479,0,0
2.579,0,0
2.679,0,0
2.779,0,0
2.879,0,0
2.979,0,0
3.079,0,0
3.179,0,0
3.279,0,0
3.379,0,0
3.479,0,0
3.579,0,0
3.679,0,0
4.079,0,0
4.179,0,0
4.279,0,0
4.379,0,0
4.479,0,0
4.579,0,0
4.679,0,0
4.779,0,0
4.879,0,0
4.979,0,0
5.079,0,0
5.179,0,0
5.279,0,0
5.379,0,0
5.479,0,0
5.579,0,0
5.779,0,0
6.079,0,0
6.379,0,0
6.479,0,0
6.579,0,0
6.679,0,0
6.779,0,0
6.979,0,0
7.079,0,0
7.179,0,0
7.279,0,0
7.379,0,0
7.679,0,0
7.879,0,0
7.979,0,0
8.079,0,0
8.179,0,0
8.279,0,0
8.379,0,0
8.479,0,0
8.579,0,0
8.679,0,0
8.779,0,0
8.879,0,0
8.979,0,0
9.079,0,0
9.179,0,0
9.279,0,0
9.379,0,0
9.479,0,0
9.579,0,0
9.679,0,0
9.779,0,0
9.879,0,0
9.979,0,0
10.079,0,0
10.179,0,0
10.279,0,0
10.379,0,0
10.479,0,0
10.579,0,0
10.679,0,0
10.779,0,0
10.879,0,0
10.979,0,0
11.079,0,0
11.179,0,0
11.279,0,0
11.379,0,0
11.479,0,0
11.579,0,0
11.679,0,0
11.779,0,0
11.879,0,0
11.979,0,0
12.079,0,0
12.179,0,0
12.279,0,0
12.379,0,0
12.479,0,0
12.579,0,0
12.679,0,0
12.779,0,0
12.879,0,0
12.979,0,0
13.079,0,0
13.179,0,0
13.279,0,0
13.379,0,0
13.479,0,0
13.579,0,0
13.679,0,0
13.779,0,0
13.879,0,0
13.979,0,0
14.079,0,0
14.179,0,0
14.279,0,0
14.379,0,0
14.479,0,0
14.579,0,0
14.679,0,0
14.779,0,0
14.879,0,0
14.979,0,0
15.079,0,0
15.179,0,0
15.279,0,0
15.379,0,0
15.479,0,0
15.579,0,0
15.679,0,0
15.779,0,0
15.879,0,0
15.979,0,0
16.079,0,0
16.179,0,0
16.279,0,0
16.379,0,0
16.479,0,0
16.579,0,0
16.679,0,0
16.779,0,0
16.879,0,0
16.979,0,0
17.079,0,0
17.179,0,0
17.279,0,0
17.379,0,0
17.479,0,0
17.579,0,0
17.679,0,0
17.779,0,0
17.879,0,0
17.979,0,0
18.079,0,0
18.179,0,0
18.279,0,0
18.379,0,0
18.479,0,0
18.579,0,0
18.679,0,0
18.779,0,0
18.879,0,0
18.979,0,0
19.079,0,0
19.179,0,0
19.279,0,0
19.379,0,0
19.479,0,0
19.579,0,0
19.679,0,0
19.779,0,0
19.879,0,0
19.979,0,0
20.079,0,0
20.179,0,0
20.279,0,0
20.379,0,0
20.479,0,0
20.579,0,0
20.679,0,0
20.779,0,0
20.879,0,0
20.979,0,0
21.079,0,0
21.179,0,0
21.279,0,0
21.379,0,0
21.479,0,0
21.579,0,0
21.679,0,0
21.779,0,0
21.879,0,0
21.979,0,0
22.079,0,0
22.179,0,0
22.279,0,0
22.379,0,0
22.479,0,0
22.579,0,0
22.679,0,0
22.779,0,0
22.879,0,0
22.979,0,0
23.079,0,0
23.179,0,0
23.279,0,0
23.379,0,0
23.479,0,0
23.579,0,0
23.679,0,0
23.779,0,0
23.879,0,0
23.979,0,0
24.079,0,0
24.179,0,0
24.279,0,0
24.379,0,0
24.479,0,0
24.579,0,0
24.679,0,0
24.779,0,0
24.879,0,0
24.979,0,0
25.079,0,0
25.179,0,0
25.279,0,0
25.379,0,0
25.479,0,0
25.579,0,0
25.679,0,0
25.779,0,0
25.879,0,0
25.979,0,0
26.079,0,0
26.179,0,0
26.279,0,0
26.379,0,0
26.479,0,0
26.579,0,0
26.679,0,0
26.779,0,0
26.879,0,0
26.979,0,0
27.079,0,0
27.179,0,0
27.279,0,0
27.379,0,0
27.479,0,0
27.579,0,0
27.679,0,0
27.779,0,0
27.879,0,0
27.979,0,0
28.079,0,0
28.179,0,0
28.279,0,0
28.379,0,0
28.479,0,0
28.579,0,0
28.679,0,0
28.779,0,0
28.879,0,0
28.979,0,0
29.679,0,0
29.779,0,0
29.879,0,0
29.979,0,0
30.079,0,0
30.179,0,0
30.279,0,0
30.379,0,0
30.479,0,0
30.579,0,0
30.679,0,0
30.779,0,0
30.879,0,0
30.979,0,0
31.079,0,0
31.179,0,0
31.279,0,0
31.479,0,0
31.579,0,0
31.679,0,0
32.179,0,0
32.279,0,0
32.379,0,0
32.479,0,0
32.579,0,0
32.679,0,0
32.879,0,0
32.979,0,0
33.079,0,0
33.179,0,0
33.279,0,0
33.379,0,0
33.479,0,0
33.579,0,0
33.679,0,0
33.779,0,0
33.879,0,0
33.979,0,0
34.079,0,0
34.179,0,0
34.279,0,0
34.379,0,0
34.479,0,0
34.579,0,0
34.679,0,0
34.779,0,0
34.879,0,0
34.979,0,0
35.079,0,0
35.179,0,0
35.279,0,0
35.379,0,0
35.479,0,0
35.579,0,0
35.679,0,0
35.779,0,0
35.879,0,0
35.979,0,0
36.079,0,0
36.179,0,0
36.279,0,0
36.379,0,0
36.479,0,0
36.579,0,0
36.679,0,0
36.779,0,0
36.879,0,0
36.979,0,0
37.079,0,0
37.179,0,0
37.279,0,0
37.379,0,0
37.479,0,0
37.579,0,0
37.679,0,0
37.779,0,0
37.879,0,0
37.979,0,0
38.079,0,0
38.179,0,0
38.279,0,0
38.379,0,0
38.479,0,0
38.579,0,0
38.679,0,0
38.779,0,0
38.879,0,0
38.979,0,0
39.079,0,0
39.179,0,0
39.279,0,0
39.379,0,0
39.479,0,0
39.579,0,0
39.679,0,0
39.779,0,0
39.879,0,0
39.979,0,0
40.079,0,0
40.179,0,0
40.279,0,0
40.379,0,0
40.479,0,0
40.579,0,0
40.679,0,0
40.779,0,0
40.879,0,0
40.979,0,0
41.079,0,0
41.179,0,0
41.279,0,0
41.379,0,0
41.479,0,0
41.579,0,0
41.679,0,0
41.779,0,0
41.879,0,0
41.979,0,0
42.079,0,0
42.179,0,0
42.279,0,0
42.379,0,0
42.479,0,0
42.579,0,0
42.679,0,0
42.779,0,0
42.879,0,0
42.979,0,0
43.079,0,0
43.179,0,0
43.279,0,0
43.379,0,0
43.479,0,0
43.579,0,0
43.679,0,0
43.779,0,0
43.879,0,0
43.979,0,0
44.079,0,0
44.179,0,0
44.279,0,0
44.379,0,0
44.479,0,0
44.579,0,0
44.679,0,0
44.779,0,0
44.879,0,0
44.979,0,0
45.079,0,0
45.179,0,0
45.279,0,0
45.379,0,0
45.479,0,0
45.579,0,0
45.679,0,0
45.779,0,0
45.879,0,0
45.979,0,0
46.079,0,0
46.479,0,0
46.579,0,0
46.679,0,0
46.779,0,0
46.879,0,0
46.979,0,0
47.079,0,0
47.179,0,0
47.279,0,0
47.379,0,0
47.479,0,0
47.579,0,0
47.679,0,0
47.779,0,0
47.879,0,0
47.979,0,0
48.079,0,0
48.179,0,0
48.279,0,0
48.379,0,0
48.479,0,0
48.579,0,0
48.679,0,0
48.779,0,0
48.879,0,0
48.979,0,0
49.079,0,0
49.179,0,0
49.279,0,0
49.379,0,0
49.479,0,0
49.579,0,0
49.679,0,0
49.779,0,0
49.879,0,0
49.979,0,0
50.079,0,0
50.179,0,0
50.279,0,0
50.379,0,0
50.479,0,0
50.579,0,0
50.679,0,0
50.779,0,0
50.879,0,0
50.979,0,0
51.079,0,0
51.179,0,0
51.279,0,0
51.379,0,0
51.479,0,0
51.579,0,0
51.679,0,0
51.779,0,0
51.879,0,0
51.979,0,0
52.079,0,0
52.179,0,0
52.279,0,0
52.379,0,0
52.479,0,0
52.579,0,0
52.679,0,0
52.779,0,0
52.879,0,0
52.979,0,0
53.079,0,0
53.179,0,0
53.279,0,0
53.379,0,0
53.479,0,0
53.579,0,0
53.679,0,0
53.779,0,0
53.879,0,0
53.979,0,0
54.079,0,0
54.179,0,0
54.279,0,0
54.379,0,0
54.479,0,0
54.579,0,0
54.679,0,0
54.779,0,0
54.879,0,0
54.979,0,0
55.079,0,0
55.179,0,0
55.279,0,0
55.379,0,0
55.479,0,0
55.579,0,0
55.679,0,0
55.779,0,0
55.879,0,0
55.979,0,0
56.079,0,0
56.179,0,0
56.279,0,0
56.379,0,0
56.479,0,0
56.579,0,0
56.679,0,0
56.779,0,0
56.879,0,0
56.979,0,0
57.079,0,0
57.179,0,0
57.279,0,0
57.379,0,0
57.479,0,0
57.579,0,0
57.679,0,0
57.779,0,0
57.879,0,0
57.979,0,0
58.079,0,0
58.179,0,0
58.279,0,0
58.379,0,0
58.479,0,0
58.579,0,0
58.679,0,0
58.779,0,0
58.879,0,0
58.979,0,0
59.079,0,0
59.179,0,0
59.279,0,0
59.379,0,0
59.479,0,0
59.579,0,0
59.679,0,0
59.779,0,0
59.879,0,0
59.979,0,0
60.079,0,0
60.179,0,0
60.279,0,0
60.379,0,0
60.479,0,0
60.579,0,0
60.679,0,0
60.779,0,0
60.879,0,0
60.979,0,0
61.079,0,0
61.179,0,0
61.279,0,0
61.379,0,0
61.479,0,0
61.579,0,0
61.679,0,0
61.779,0,0
61.879,0,0
61.979,0,0
62.079,0,0
62.179,0,0
62.279,0,0
62.379,0,0
62.479,0,0
62.579,0,0
62.679,0,0
62.779,0,0
62.879,0,0
62.979,0,0
63.079,0,0
63.179,0,0
63.279,0,0
63.379,0,0
63.479,0,0
63.579,0,0
63.679,0,0
63.779,0,0
63.879,0,0
63.979,0,0
64.079,0,0
64.179,0,0
64.279,0,0
64.379,0,0
64.479,0,0
64.579,0,0
64.679,0,0
64.779,0,0
64.879,0,0
64.979,0,0
65.079,0,0
65.179,0,0
65.279,0,0
65.379,0,0
65.479,0,0
65.579,0,0
65.679,0,0
65.779,0,0
65.879,0,0
65.979,0,0
66.079,0,0
66.179,0,0
66.279,0,0
66.379,0,0
66.479,0,0
66.579,0,0
66.679,0,0
66.779,0,0
66.879,0,0
66.979,0,0
67.079,0,0
67.179,0,0
67.279,0,0
67.379,0,0
67.479,0,0
67.579,0,0
67.679,0,0
67.779,0,0
67.879,0,0
67.979,0,0
68.079,0,0
68.179,0,0
68.279,0,0
68.379,0,0
68.479,0,0
68.579,0,0
68.679,0,0
68.779,0,0
68.879,0,0
68.979,0,0
69.079,0,0
69.179,0,0
69.279,0,0
69.379,0,0
69.479,0,0
69.579,0,0
69.679,0,0
69.779,0,0
69.879,0,0
69.979,0,0
70.079,0,0
70.179,0,0
70.279,0,0
70.379,0,0
70.479,0,0
70.579,0,0
70.679,0,0
70.779,0,0
70.879,0,0
70.979,0,0
71.079,0,0
71.179,0,0
71.279,0,0
71.379,0,0
71.479,0,0
71.579,0,0
71.679,0,0
71.779,0,0
71.879,0,0
72.379,0,0
72.479,0,0
72.579,0,0
72.679,0,0
72.779,0,0
72.879,0,0
72.979,0,0
73.079,0,0
73.179,0,0
73.279,0,0
73.379,0,0
73.479,0,0
73.579,0,0
73.679,0,0
73.779,0,0
73.879,0,0
73.979,0,0
74.079,0,0
74.179,0,0
74.279,0,0
74.379,0,0
74.479,0,0
74.579,0,0
74.679,0,0
74.779,0,0
74.879,0,0
74.979,0,0
75.079,0,0
75.179,0,0
75.279,0,0
75.379,0,0
75.479,0,0
75.579,0,0
75.679,0,0
75.779,0,0
75.879,0,0
75.979,0,0
76.079,0,0
76.179,0,0
76.279,0,0
76.379,0,0
76.479,0,0
76.579,0,0
76.679,0,0
76.779,0,0
76.879,0,0
76.979,0,0
77.079,0,0
77.179,0,0
77.279,0,0
77.379,0,0
77.479,0,0
77.579,0,0
77.679,0,0
77.779,0,0
77.879,0,0
77.979,0,0
78.079,0,0
78.179,0,0
78.279,0,0
78.379,0,0
78.479,0,0
78.579,0,0
78.679,0,0
78.779,0,0
78.879,0,0
78.979,0,0
79.079,0,0
79.179,0,0
79.279,0,0
79.379,0,0
79.479,0,0
79.579,0,0
79.679,0,0
79.779,0,0
79.879,0,0
79.979,0,0
80.079,0,0
80.179,0,0
80.279,0,0
80.479,0,0
80.679,0,0
80.779,0,0
80.879,0,0
80.979,0,0
81.079,0,0
81.179,0,0
81.279,0,0
81.379,0,0
81.479,0,0
81.579,0,0
81.679,0,0
81.779,0,0
81.879,0,0
81.979,0,0
82.079,0,0
82.179,0,0
82.279,0,0
82.379,0,0
82.479,0,0
82.579,0,0
82.679,0,0
82.779,0,0
82.879,0,0
82.979,0,0
83.079,0,0
83.179,0,0
83.279,0,0
83.379,0,0
83.479,0,0
83.579,0,0
83.679,0,0
83.779,0,0
83.879,0,0
83.979,0,0
84.079,0,0
84.179,0,0
84.279,0,0
84.379,0,0
84.479,0,0
84.579,0,0
84.679,0,0
84.779,0,0
84.879,0,0
84.979,0,0
85.079,0,0
85.179,0,0
85.279,0,0
85.379,0,0
85.479,0,0
85.579,0,0
85.679,0,0
85.779,0,0
85.879,0,0
85.979,0,0
86.079,0,0
86.179,0,0
86.279,0,0
